(footprint "hrs-df11c-10dp-2v"
	(version 20240108)
	(generator "pcbnew")
	(generator_version "8.0")
	(layer "F.Cu")
	(descr "Hirose DF11, https://www.hirose.com/product/en/download_file/key_name/DF11C-10DP-2V%2857%29/category/Catalog/doc_file_id/31688/?file_category_id=5&item_id=05430685057&is_series=")
	(tags "Header")
	(property "Reference" "REF**"
		(at 0.5 0 0)
		(layer "F.SilkS")
		(uuid "a66fa0ec-4c42-45fa-9612-bab7fc64a1d5")
		(effects
			(font
				(size 1 1)
				(thickness 0.15)
			)
		)
	)
	(property "Value" "hrs-df11c-10dp-2v"
		(at 0 6 0)
		(layer "F.Fab")
		(uuid "406ea988-6364-4475-a3f9-52905529d5d0")
		(effects
			(font
				(size 1 1)
				(thickness 0.15)
			)
		)
	)
	(property "Footprint" ""
		(at 0 0 0)
		(layer "F.Fab")
		(hide yes)
		(uuid "a7b28a86-76ee-4f57-a4ee-ed0e080cc3a6")
		(effects
			(font
				(size 1.27 1.27)
				(thickness 0.15)
			)
		)
	)
	(property "Datasheet" ""
		(at 0 0 0)
		(layer "F.Fab")
		(hide yes)
		(uuid "902bac6a-bd39-4c2a-9dd8-1f783a6c15f0")
		(effects
			(font
				(size 1.27 1.27)
				(thickness 0.15)
			)
		)
	)
	(property "Description" ""
		(at 0 0 0)
		(layer "F.Fab")
		(hide yes)
		(uuid "128fa6f5-303e-473d-aff8-899fdc4b7563")
		(effects
			(font
				(size 1.27 1.27)
				(thickness 0.15)
			)
		)
	)
	(attr smd)
	(fp_line
		(start -7.5 -3.5)
		(end -7.5 -1.5)
		(stroke
			(width 0.12)
			(type solid)
		)
		(layer "F.SilkS")
		(uuid "ecbb215c-597c-41d0-8439-43c223817388")
	)
	(fp_line
		(start -7.5 1.5)
		(end -7.5 3.5)
		(stroke
			(width 0.12)
			(type solid)
		)
		(layer "F.SilkS")
		(uuid "8e57783a-f199-4c44-b5f9-1990148c6611")
	)
	(fp_line
		(start -7.5 3.5)
		(end -5 3.5)
		(stroke
			(width 0.12)
			(type solid)
		)
		(layer "F.SilkS")
		(uuid "e3c527e5-9db0-475c-b595-d63c3224ce3b")
	)
	(fp_line
		(start -5.5 -3.5)
		(end -5.5 3.5)
		(stroke
			(width 0.12)
			(type solid)
		)
		(layer "F.SilkS")
		(uuid "7b19a640-0512-41c2-b061-5b291506755c")
	)
	(fp_line
		(start -5.5 -1.5)
		(end -5 -1.5)
		(stroke
			(width 0.12)
			(type solid)
		)
		(layer "F.SilkS")
		(uuid "3f4b6686-011a-4919-9f55-ee44c01847ef")
	)
	(fp_line
		(start -5 -3.5)
		(end -7.5 -3.5)
		(stroke
			(width 0.12)
			(type solid)
		)
		(layer "F.SilkS")
		(uuid "9fd4bf91-8e03-4e70-8a51-2b878500eccf")
	)
	(fp_line
		(start -5 -1.5)
		(end -5 0)
		(stroke
			(width 0.12)
			(type solid)
		)
		(layer "F.SilkS")
		(uuid "c5b13752-2188-48ac-8076-4a1ffc3733ed")
	)
	(fp_line
		(start -5 0)
		(end -5.5 0)
		(stroke
			(width 0.12)
			(type solid)
		)
		(layer "F.SilkS")
		(uuid "d811e044-c9b9-48f1-81d6-a75b4161ca84")
	)
	(fp_line
		(start 5 -1.5)
		(end 5 0)
		(stroke
			(width 0.12)
			(type solid)
		)
		(layer "F.SilkS")
		(uuid "5d91c33a-3aa5-4bd1-84c5-e004f8fa7225")
	)
	(fp_line
		(start 5 0)
		(end 5.5 0)
		(stroke
			(width 0.12)
			(type solid)
		)
		(layer "F.SilkS")
		(uuid "91267133-e944-4d14-8bde-0819d66010a0")
	)
	(fp_line
		(start 5 4)
		(end 8 4)
		(stroke
			(width 0.12)
			(type solid)
		)
		(layer "F.SilkS")
		(uuid "0375c48f-cbf1-493b-b54e-e48b7488ffb7")
	)
	(fp_line
		(start 5.5 -1.5)
		(end 5 -1.5)
		(stroke
			(width 0.12)
			(type solid)
		)
		(layer "F.SilkS")
		(uuid "c138b4ec-5cdb-4dd6-b81c-ebc4928488b8")
	)
	(fp_line
		(start 5.5 3.5)
		(end 5.5 -3.5)
		(stroke
			(width 0.12)
			(type solid)
		)
		(layer "F.SilkS")
		(uuid "481a2bb3-a6da-4412-8efc-ef013e595417")
	)
	(fp_line
		(start 7.5 -3.5)
		(end 5 -3.5)
		(stroke
			(width 0.12)
			(type solid)
		)
		(layer "F.SilkS")
		(uuid "89b26adb-35d2-4ee6-b9c2-76996d788ff4")
	)
	(fp_line
		(start 7.5 -1.5)
		(end 7.5 -3.5)
		(stroke
			(width 0.12)
			(type solid)
		)
		(layer "F.SilkS")
		(uuid "01bf42ee-0767-463a-8757-a5c5c24fd091")
	)
	(fp_line
		(start 8 4)
		(end 8 2)
		(stroke
			(width 0.12)
			(type solid)
		)
		(layer "F.SilkS")
		(uuid "0880d2c5-7601-4274-801f-2e64a1bd532e")
	)
	(fp_line
		(start -9.4 -5.2)
		(end -9.4 5.2)
		(stroke
			(width 0.05)
			(type solid)
		)
		(layer "F.CrtYd")
		(uuid "f37405a4-5c3c-4199-9f8b-90c6b3e67caf")
	)
	(fp_line
		(start -9.4 -5.2)
		(end 9.4 -5.2)
		(stroke
			(width 0.05)
			(type solid)
		)
		(layer "F.CrtYd")
		(uuid "71e1ae57-0613-46a6-b300-990700c669ca")
	)
	(fp_line
		(start 9.4 -5.2)
		(end 9.4 5.2)
		(stroke
			(width 0.05)
			(type solid)
		)
		(layer "F.CrtYd")
		(uuid "c6227b22-d98e-4047-a6ed-96ee29d85371")
	)
	(fp_line
		(start 9.4 5.2)
		(end -9.4 5.2)
		(stroke
			(width 0.05)
			(type solid)
		)
		(layer "F.CrtYd")
		(uuid "98b9210b-748d-42c2-80d7-a16e4b9e4d65")
	)
	(fp_line
		(start -7.5 -3.5)
		(end 7.5 -3.5)
		(stroke
			(width 0.1)
			(type solid)
		)
		(layer "F.Fab")
		(uuid "856ecf8c-4343-4518-b441-e37a747e1884")
	)
	(fp_line
		(start -7.5 3.5)
		(end -7.5 -3.5)
		(stroke
			(width 0.1)
			(type solid)
		)
		(layer "F.Fab")
		(uuid "d67f41a5-8543-4dde-8fa4-ecd154a5bdae")
	)
	(fp_line
		(start 5 3.5)
		(end -7.5 3.5)
		(stroke
			(width 0.1)
			(type solid)
		)
		(layer "F.Fab")
		(uuid "2c5168e4-bfe1-49d1-830d-923f0dad2b67")
	)
	(fp_line
		(start 7.5 -3.5)
		(end 7.5 2)
		(stroke
			(width 0.1)
			(type solid)
		)
		(layer "F.Fab")
		(uuid "ccc6b0a7-4e68-4385-8b74-66a9904132f6")
	)
	(fp_text user "${REFERENCE}"
		(at 0.5 0 0)
		(layer "F.Fab")
		(uuid "90911060-a0de-4079-a4b4-d99f065266be")
		(effects
			(font
				(size 1 1)
				(thickness 0.15)
			)
		)
	)
	(pad "" smd rect
		(at -8.35 0)
		(size 2 2.8)
		(layers "F.Cu" "F.Paste" "F.Mask")
		(uuid "c6068f47-3b52-498c-b58d-816ac8aae070")
	)
	(pad "" smd rect
		(at 8.35 0)
		(size 2 2.8)
		(layers "F.Cu" "F.Paste" "F.Mask")
		(uuid "f0e9e599-643e-4931-81f6-c0d079e184d7")
	)
	(pad "1" smd rect
		(at 4 4.15)
		(size 1.1 2)
		(layers "F.Cu" "F.Paste" "F.Mask")
		(uuid "53902ba5-2358-4ccc-91b0-8841a4e0c4cb")
	)
	(pad "2" smd rect
		(at 4 -4.15)
		(size 1.1 2)
		(layers "F.Cu" "F.Paste" "F.Mask")
		(uuid "b3aa7b68-26d9-49e8-8c8d-bbad89097027")
	)
	(pad "3" smd rect
		(at 2 4.15)
		(size 1.1 2)
		(layers "F.Cu" "F.Paste" "F.Mask")
		(uuid "c337a054-3f5f-4bf0-a5db-c734751df16e")
	)
	(pad "4" smd rect
		(at 2 -4.15)
		(size 1.1 2)
		(layers "F.Cu" "F.Paste" "F.Mask")
		(uuid "c9785c3b-f9aa-4cb0-81ce-2aed98a6cd1b")
	)
	(pad "5" smd rect
		(at 0 4.15)
		(size 1.1 2)
		(layers "F.Cu" "F.Paste" "F.Mask")
		(uuid "fc99e579-ebed-4505-b631-2fc072fbcd1d")
	)
	(pad "6" smd rect
		(at 0 -4.15)
		(size 1.1 2)
		(layers "F.Cu" "F.Paste" "F.Mask")
		(uuid "9f7d6bfc-d101-4f0a-a424-a1bfc7491cb4")
	)
	(pad "7" smd rect
		(at -2 4.15)
		(size 1.1 2)
		(layers "F.Cu" "F.Paste" "F.Mask")
		(uuid "358dcc7d-8fdf-4f67-9b11-32cc7fc9bcc8")
	)
	(pad "8" smd rect
		(at -2 -4.15)
		(size 1.1 2)
		(layers "F.Cu" "F.Paste" "F.Mask")
		(uuid "9565f099-fa45-461e-a14f-e46a2e3550da")
	)
	(pad "9" smd rect
		(at -4 4.15)
		(size 1.1 2)
		(layers "F.Cu" "F.Paste" "F.Mask")
		(uuid "9b9bcca3-597e-4295-8959-fc14a5ec7d24")
	)
	(pad "10" smd rect
		(at -4 -4.15)
		(size 1.1 2)
		(layers "F.Cu" "F.Paste" "F.Mask")
		(uuid "3eecdcbc-1dce-4469-a52b-5b78a6441447")
	)
	(model "${LSF_KICAD_LIB}/lsf-kicad-lib.3dshapes/hrs-df11c-10dp-2v.wrl"
		(offset
			(xyz 0 0 0)
		)
		(scale
			(xyz 1 1 1)
		)
		(rotate
			(xyz 0 0 0)
		)
	)
)
