(footprint "hrs-df11-4dp-2dsa"
	(version 20240108)
	(generator "pcbnew")
	(generator_version "8.0")
	(layer "F.Cu")
	(descr "Hirose DF11, https://www.hirose.com/product/en/download_file/key_name/DF11-4DP-2DSA%2801%29/category/Catalog/doc_file_id/31688/?file_category_id=5&item_id=05430517501&is_series=")
	(tags "Header")
	(property "Reference" "REF**"
		(at -2 -4.5 0)
		(layer "F.SilkS")
		(uuid "c8b7d562-c813-469f-b433-1d85281e4177")
		(effects
			(font
				(size 1 1)
				(thickness 0.15)
			)
		)
	)
	(property "Value" "hrs-df11-4dp-2dsa"
		(at -1 2.5 0)
		(layer "F.Fab")
		(uuid "1a86241c-675e-41c2-9ba6-3dca9b4a9182")
		(effects
			(font
				(size 1 1)
				(thickness 0.15)
			)
		)
	)
	(property "Footprint" ""
		(at 0 0 0)
		(layer "F.Fab")
		(hide yes)
		(uuid "77a9a4ec-a87a-4ba4-a3ca-a737c2e20ed0")
		(effects
			(font
				(size 1.27 1.27)
				(thickness 0.15)
			)
		)
	)
	(property "Datasheet" ""
		(at 0 0 0)
		(layer "F.Fab")
		(hide yes)
		(uuid "231fc3e7-71ce-4cd2-b229-0d1278778e73")
		(effects
			(font
				(size 1.27 1.27)
				(thickness 0.15)
			)
		)
	)
	(property "Description" ""
		(at 0 0 0)
		(layer "F.Fab")
		(hide yes)
		(uuid "151dafbd-c9fd-4162-8961-c71d55839c0b")
		(effects
			(font
				(size 1.27 1.27)
				(thickness 0.15)
			)
		)
	)
	(attr through_hole)
	(fp_line
		(start -4 -3.5)
		(end 2 -3.5)
		(stroke
			(width 0.12)
			(type solid)
		)
		(layer "F.SilkS")
		(uuid "899efc56-01f7-45c5-8fb8-ba2abf79c659")
	)
	(fp_line
		(start -4 -2.5)
		(end -3.5 -2.5)
		(stroke
			(width 0.12)
			(type solid)
		)
		(layer "F.SilkS")
		(uuid "9085fac5-ecf0-4ba3-a566-24905b21e30b")
	)
	(fp_line
		(start -4 1.5)
		(end -4 -3.5)
		(stroke
			(width 0.12)
			(type solid)
		)
		(layer "F.SilkS")
		(uuid "67568772-97cb-47e6-aa4e-f872da0f1589")
	)
	(fp_line
		(start -3.5 -2.5)
		(end -3.5 -1)
		(stroke
			(width 0.12)
			(type solid)
		)
		(layer "F.SilkS")
		(uuid "cda6ab6b-d328-4fbc-81b6-10279b4725a3")
	)
	(fp_line
		(start -3.5 -1)
		(end -4 -1)
		(stroke
			(width 0.12)
			(type solid)
		)
		(layer "F.SilkS")
		(uuid "b62c5a93-80b8-4d60-8809-3c14b0874174")
	)
	(fp_line
		(start 1.5 -2.5)
		(end 1.5 -1)
		(stroke
			(width 0.12)
			(type solid)
		)
		(layer "F.SilkS")
		(uuid "12e87347-f746-48e5-8523-6db8978e118c")
	)
	(fp_line
		(start 1.5 -1)
		(end 2 -1)
		(stroke
			(width 0.12)
			(type solid)
		)
		(layer "F.SilkS")
		(uuid "8fbfca13-5772-4204-a258-df016cc611b1")
	)
	(fp_line
		(start 2 -3.5)
		(end 2 1.5)
		(stroke
			(width 0.12)
			(type solid)
		)
		(layer "F.SilkS")
		(uuid "5bead831-91a8-4106-a0a5-2e82920362c3")
	)
	(fp_line
		(start 2 -2.5)
		(end 1.5 -2.5)
		(stroke
			(width 0.12)
			(type solid)
		)
		(layer "F.SilkS")
		(uuid "3f6f69cf-7dc2-49b1-b176-15434b639c2c")
	)
	(fp_line
		(start 2 1.5)
		(end -4 1.5)
		(stroke
			(width 0.12)
			(type solid)
		)
		(layer "F.SilkS")
		(uuid "83918b39-f362-495c-b602-73645f5f673a")
	)
	(fp_line
		(start -4.1 -3.6)
		(end 2.1 -3.6)
		(stroke
			(width 0.05)
			(type solid)
		)
		(layer "F.CrtYd")
		(uuid "eacc1c63-5dd2-48be-8459-31a51a76c3bb")
	)
	(fp_line
		(start -4.1 1.6)
		(end -4.1 -3.6)
		(stroke
			(width 0.05)
			(type solid)
		)
		(layer "F.CrtYd")
		(uuid "567cba62-79bf-4539-8d36-e23bc8c6b29d")
	)
	(fp_line
		(start 2.1 -3.6)
		(end 2.1 1.6)
		(stroke
			(width 0.05)
			(type solid)
		)
		(layer "F.CrtYd")
		(uuid "71abd152-bcbc-4ff0-8a46-406b6609fa7d")
	)
	(fp_line
		(start 2.1 1.6)
		(end -4.1 1.6)
		(stroke
			(width 0.05)
			(type solid)
		)
		(layer "F.CrtYd")
		(uuid "5cb03f12-3455-4290-b46d-1112b8b730fd")
	)
	(fp_line
		(start -4 -3.5)
		(end 2 -3.5)
		(stroke
			(width 0.1)
			(type solid)
		)
		(layer "F.Fab")
		(uuid "8edff287-edef-4260-a20a-ff884fd8b856")
	)
	(fp_line
		(start -4 1.5)
		(end -4 -3.5)
		(stroke
			(width 0.1)
			(type solid)
		)
		(layer "F.Fab")
		(uuid "13cb8dcb-e677-488a-a00e-f3cfcce4f3bf")
	)
	(fp_line
		(start 2 -3.5)
		(end 2 1.5)
		(stroke
			(width 0.1)
			(type solid)
		)
		(layer "F.Fab")
		(uuid "c818c278-6bc7-4d13-bdce-c5f585dcfa6d")
	)
	(fp_line
		(start 2 1.5)
		(end -4 1.5)
		(stroke
			(width 0.1)
			(type solid)
		)
		(layer "F.Fab")
		(uuid "986199a8-d072-44f6-a5ef-14afa0f660c6")
	)
	(fp_text user "${REFERENCE}"
		(at -2 -4.5 0)
		(layer "F.Fab")
		(uuid "1d87a37c-683d-4fd8-b2d6-107ba92fc9d3")
		(effects
			(font
				(size 1 1)
				(thickness 0.15)
			)
		)
	)
	(pad "1" thru_hole rect
		(at 0 0)
		(size 1.3 1.3)
		(drill 0.8)
		(layers "*.Cu" "*.Mask")
		(remove_unused_layers no)
		(uuid "2c1577c9-4cc2-4732-86eb-d350dbee77ba")
	)
	(pad "2" thru_hole circle
		(at 0 -2)
		(size 1.3 1.3)
		(drill 0.8)
		(layers "*.Cu" "*.Mask")
		(remove_unused_layers no)
		(uuid "a3b85f96-faeb-4fd4-a831-54efa7f4c2b3")
	)
	(pad "3" thru_hole circle
		(at -2 0)
		(size 1.3 1.3)
		(drill 0.8)
		(layers "*.Cu" "*.Mask")
		(remove_unused_layers no)
		(uuid "fc068518-a71c-4a3b-ac92-d8e450d6e294")
	)
	(pad "4" thru_hole circle
		(at -2 -2)
		(size 1.3 1.3)
		(drill 0.8)
		(layers "*.Cu" "*.Mask")
		(remove_unused_layers no)
		(uuid "48747e75-33d6-4267-ab86-8be686272f50")
	)
	(model "${LSF_KICAD_LIB}/lsf-kicad-lib.3dshapes/hrs-df11-4dp-2dsa.wrl"
		(offset
			(xyz 0 0 0)
		)
		(scale
			(xyz 1 1 1)
		)
		(rotate
			(xyz 0 0 0)
		)
	)
)
