(footprint "hrs-df40c-70ds-0.4v"
	(version 20240108)
	(generator "pcbnew")
	(generator_version "8.0")
	(layer "F.Cu")
	(descr "Hirose DF40, https://www.hirose.com/product/en/download_file/key_name/DF40C-70DS-0.4V%2851%29/category/Catalog/doc_file_id/31649/?file_category_id=5&item_id=06844016551&is_series=")
	(tags "Receptacle")
	(property "Reference" "REF**"
		(at 0 -3 0)
		(layer "F.SilkS")
		(uuid "21a30b2b-b830-406a-a7fa-afc206ea1670")
		(effects
			(font
				(size 1 1)
				(thickness 0.15)
			)
		)
	)
	(property "Value" "hrs-df40c-70ds-0.4v"
		(at 0 3 0)
		(layer "F.Fab")
		(uuid "86f4e2a1-39be-4e77-b3e5-81f6e3f9f2d1")
		(effects
			(font
				(size 1 1)
				(thickness 0.15)
			)
		)
	)
	(property "Footprint" ""
		(at 0 0 0)
		(layer "F.Fab")
		(hide yes)
		(uuid "236ff6da-0616-440b-8619-553e2b819017")
		(effects
			(font
				(size 1.27 1.27)
				(thickness 0.15)
			)
		)
	)
	(property "Datasheet" ""
		(at 0 0 0)
		(layer "F.Fab")
		(hide yes)
		(uuid "0f48749a-d12b-4363-89cf-0e0e7fd275dd")
		(effects
			(font
				(size 1.27 1.27)
				(thickness 0.15)
			)
		)
	)
	(property "Description" ""
		(at 0 0 0)
		(layer "F.Fab")
		(hide yes)
		(uuid "1073ad5e-2e22-4096-adfc-11c5f244b8db")
		(effects
			(font
				(size 1.27 1.27)
				(thickness 0.15)
			)
		)
	)
	(attr smd)
	(fp_line
		(start -8.6 -1.6)
		(end -8.6 1.6)
		(stroke
			(width 0.12)
			(type solid)
		)
		(layer "F.SilkS")
		(uuid "ac0cbe35-f116-47f0-99b1-34db338bf396")
	)
	(fp_line
		(start -8.6 1.6)
		(end -7.2 1.6)
		(stroke
			(width 0.12)
			(type solid)
		)
		(layer "F.SilkS")
		(uuid "b56fa35e-89c9-4968-94c7-37f322f660cd")
	)
	(fp_line
		(start -7.2 -1.6)
		(end -8.6 -1.6)
		(stroke
			(width 0.12)
			(type solid)
		)
		(layer "F.SilkS")
		(uuid "11b4ed1f-3194-4b6e-9d47-e5751165e5a5")
	)
	(fp_line
		(start 7.2 -1.6)
		(end 8.6 -1.6)
		(stroke
			(width 0.12)
			(type solid)
		)
		(layer "F.SilkS")
		(uuid "83876b8e-0249-4302-a621-02fee2af190f")
	)
	(fp_line
		(start 8.6 -1.6)
		(end 8.6 1.6)
		(stroke
			(width 0.12)
			(type solid)
		)
		(layer "F.SilkS")
		(uuid "7c98c8c8-fdd0-4182-ad56-72f608b62d51")
	)
	(fp_line
		(start 8.6 1.6)
		(end 7.2 1.6)
		(stroke
			(width 0.12)
			(type solid)
		)
		(layer "F.SilkS")
		(uuid "17eff798-0989-4381-a519-d23d41ba6938")
	)
	(fp_line
		(start -8.7 -1.9)
		(end -8.7 1.9)
		(stroke
			(width 0.05)
			(type solid)
		)
		(layer "F.CrtYd")
		(uuid "5894ec61-9ec7-412e-bb3c-36031141b07e")
	)
	(fp_line
		(start -8.7 1.9)
		(end 8.7 1.9)
		(stroke
			(width 0.05)
			(type solid)
		)
		(layer "F.CrtYd")
		(uuid "ae101a7d-9eb9-41c4-b1a2-8c3aeb32ec40")
	)
	(fp_line
		(start 8.7 -1.9)
		(end -8.7 -1.9)
		(stroke
			(width 0.05)
			(type solid)
		)
		(layer "F.CrtYd")
		(uuid "9f0fd6d5-eb89-46ea-a543-fa6b24e3075a")
	)
	(fp_line
		(start 8.7 1.9)
		(end 8.7 -1.9)
		(stroke
			(width 0.05)
			(type solid)
		)
		(layer "F.CrtYd")
		(uuid "91b3ed89-5432-4272-b30e-596621860969")
	)
	(fp_line
		(start -8.6 -1.6)
		(end 8.6 -1.6)
		(stroke
			(width 0.1)
			(type solid)
		)
		(layer "F.Fab")
		(uuid "7ee542eb-0612-454f-acf8-25faf98b1da3")
	)
	(fp_line
		(start -8.6 1.6)
		(end -8.6 -1.55)
		(stroke
			(width 0.1)
			(type solid)
		)
		(layer "F.Fab")
		(uuid "ffcdd589-7bbe-4499-b6e4-ea2edc373cb2")
	)
	(fp_line
		(start -6.8 -0.4)
		(end -6.8 0.4)
		(stroke
			(width 0.1)
			(type solid)
		)
		(layer "F.Fab")
		(uuid "76454c4d-8ae6-40ae-8c23-3f592b4a730f")
	)
	(fp_line
		(start -6.8 -0.4)
		(end 6.8 -0.4)
		(stroke
			(width 0.1)
			(type solid)
		)
		(layer "F.Fab")
		(uuid "1e30b80f-2f5f-4918-82f5-6b41a846a6d8")
	)
	(fp_line
		(start 6.8 0.4)
		(end -6.8 0.4)
		(stroke
			(width 0.1)
			(type solid)
		)
		(layer "F.Fab")
		(uuid "fb2ea29e-6eb5-4669-afe5-a9b6153a0a3f")
	)
	(fp_line
		(start 6.8 0.4)
		(end 6.8 -0.4)
		(stroke
			(width 0.1)
			(type solid)
		)
		(layer "F.Fab")
		(uuid "6fcb279e-7a6c-4bc7-a90f-860a7b66ebc7")
	)
	(fp_line
		(start 8.6 -1.6)
		(end 8.6 1.6)
		(stroke
			(width 0.1)
			(type solid)
		)
		(layer "F.Fab")
		(uuid "c37f77c1-31b6-41dd-af98-0b1c187127aa")
	)
	(fp_line
		(start 8.6 1.6)
		(end -8.6 1.6)
		(stroke
			(width 0.1)
			(type solid)
		)
		(layer "F.Fab")
		(uuid "905b2841-187f-476f-8273-e086545c9120")
	)
	(fp_text user "${REFERENCE}"
		(at 0 -3 0)
		(layer "F.Fab")
		(uuid "d49d84d8-ac26-404f-b518-ebbb962338bf")
		(effects
			(font
				(size 1 1)
				(thickness 0.15)
			)
		)
	)
	(pad "1" smd rect
		(at 6.8 1.54)
		(size 0.2 0.7)
		(layers "F.Cu" "F.Paste" "F.Mask")
		(uuid "3249dff4-1300-4096-a7dc-db695c25aada")
	)
	(pad "2" smd rect
		(at 6.4 1.54)
		(size 0.2 0.7)
		(layers "F.Cu" "F.Paste" "F.Mask")
		(uuid "a5cb2a48-2091-458d-b88a-1fcb5c12d784")
	)
	(pad "3" smd rect
		(at 6 1.54)
		(size 0.2 0.7)
		(layers "F.Cu" "F.Paste" "F.Mask")
		(uuid "d3cc50d0-da6a-47a6-bcd2-a856f3d4f92b")
	)
	(pad "4" smd rect
		(at 5.6 1.54)
		(size 0.2 0.7)
		(layers "F.Cu" "F.Paste" "F.Mask")
		(uuid "2fae1779-0ae4-4a45-9787-0fb8b612d6d4")
	)
	(pad "5" smd rect
		(at 5.2 1.54)
		(size 0.2 0.7)
		(layers "F.Cu" "F.Paste" "F.Mask")
		(uuid "970119aa-9085-4a2d-ba14-66e92c50ff83")
	)
	(pad "6" smd rect
		(at 4.8 1.54)
		(size 0.2 0.7)
		(layers "F.Cu" "F.Paste" "F.Mask")
		(uuid "0a045f25-eaac-48cf-9330-115863a8b4ab")
	)
	(pad "7" smd rect
		(at 4.4 1.54)
		(size 0.2 0.7)
		(layers "F.Cu" "F.Paste" "F.Mask")
		(uuid "f8b94900-3557-4fa4-9f49-6150ad137cb3")
	)
	(pad "8" smd rect
		(at 4 1.54)
		(size 0.2 0.7)
		(layers "F.Cu" "F.Paste" "F.Mask")
		(uuid "5fe8b708-83f6-4c4d-98c0-afec6dc0c170")
	)
	(pad "9" smd rect
		(at 3.6 1.54)
		(size 0.2 0.7)
		(layers "F.Cu" "F.Paste" "F.Mask")
		(uuid "a5a7a567-ef31-4835-a281-276ef2f1fdb2")
	)
	(pad "10" smd rect
		(at 3.2 1.54)
		(size 0.2 0.7)
		(layers "F.Cu" "F.Paste" "F.Mask")
		(uuid "646b60fa-c249-4d6e-94e8-ab7414b5b46e")
	)
	(pad "11" smd rect
		(at 2.8 1.54)
		(size 0.2 0.7)
		(layers "F.Cu" "F.Paste" "F.Mask")
		(uuid "ddff825c-410e-4e27-8b77-910950cd3ed8")
	)
	(pad "12" smd rect
		(at 2.4 1.54)
		(size 0.2 0.7)
		(layers "F.Cu" "F.Paste" "F.Mask")
		(uuid "c68696c4-3ed1-428d-8190-11907a195ef2")
	)
	(pad "13" smd rect
		(at 2 1.54)
		(size 0.2 0.7)
		(layers "F.Cu" "F.Paste" "F.Mask")
		(uuid "f007cd19-dca1-416a-bf55-54ae54821d51")
	)
	(pad "14" smd rect
		(at 1.6 1.54)
		(size 0.2 0.7)
		(layers "F.Cu" "F.Paste" "F.Mask")
		(uuid "d973e044-d383-49c7-8feb-8ceee4099819")
	)
	(pad "15" smd rect
		(at 1.2 1.54)
		(size 0.2 0.7)
		(layers "F.Cu" "F.Paste" "F.Mask")
		(uuid "e3058184-fe6c-47fe-86a7-ab99268b3ddb")
	)
	(pad "16" smd rect
		(at 0.8 1.54)
		(size 0.2 0.7)
		(layers "F.Cu" "F.Paste" "F.Mask")
		(uuid "17feaf11-c48b-4a22-8934-c6327840276e")
	)
	(pad "17" smd rect
		(at 0.4 1.54)
		(size 0.2 0.7)
		(layers "F.Cu" "F.Paste" "F.Mask")
		(uuid "01cc6151-8a1d-49c7-b53c-2d52a834c99a")
	)
	(pad "18" smd rect
		(at 0 1.54)
		(size 0.2 0.7)
		(layers "F.Cu" "F.Paste" "F.Mask")
		(uuid "542ba5a9-c564-4511-9fcf-59d2290345d0")
	)
	(pad "19" smd rect
		(at -0.4 1.54)
		(size 0.2 0.7)
		(layers "F.Cu" "F.Paste" "F.Mask")
		(uuid "90477c09-ef67-4ea9-9d6a-1d3c9d88a2e9")
	)
	(pad "20" smd rect
		(at -0.8 1.54)
		(size 0.2 0.7)
		(layers "F.Cu" "F.Paste" "F.Mask")
		(uuid "c2a225c5-fd9f-4278-a98f-30380696b18b")
	)
	(pad "21" smd rect
		(at -1.2 1.54)
		(size 0.2 0.7)
		(layers "F.Cu" "F.Paste" "F.Mask")
		(uuid "f3e8c59f-1d54-40d8-923e-8d83c53bd413")
	)
	(pad "22" smd rect
		(at -1.6 1.54)
		(size 0.2 0.7)
		(layers "F.Cu" "F.Paste" "F.Mask")
		(uuid "3983d600-777d-49d3-ab81-57946bbeb014")
	)
	(pad "23" smd rect
		(at -2 1.54)
		(size 0.2 0.7)
		(layers "F.Cu" "F.Paste" "F.Mask")
		(uuid "ea4ebf77-4a14-46ef-b456-7aadd524eb05")
	)
	(pad "24" smd rect
		(at -2.4 1.54)
		(size 0.2 0.7)
		(layers "F.Cu" "F.Paste" "F.Mask")
		(uuid "3054be48-9a49-42a5-afe0-717c20d21da2")
	)
	(pad "25" smd rect
		(at -2.8 1.54)
		(size 0.2 0.7)
		(layers "F.Cu" "F.Paste" "F.Mask")
		(uuid "c9d72f2a-5388-4f6a-8e93-32dc64593cbf")
	)
	(pad "26" smd rect
		(at -3.2 1.54)
		(size 0.2 0.7)
		(layers "F.Cu" "F.Paste" "F.Mask")
		(uuid "84a0d526-c52e-48bc-95e9-2acaf7d13e23")
	)
	(pad "27" smd rect
		(at -3.6 1.54)
		(size 0.2 0.7)
		(layers "F.Cu" "F.Paste" "F.Mask")
		(uuid "9c2f5e16-ff62-4cad-bf9b-42a63ea04723")
	)
	(pad "28" smd rect
		(at -4 1.54)
		(size 0.2 0.7)
		(layers "F.Cu" "F.Paste" "F.Mask")
		(uuid "e3d48759-41b5-4a99-af76-51ddbd4d79ea")
	)
	(pad "29" smd rect
		(at -4.4 1.54)
		(size 0.2 0.7)
		(layers "F.Cu" "F.Paste" "F.Mask")
		(uuid "244a58eb-436f-41eb-ad38-0bd60feb5ae5")
	)
	(pad "30" smd rect
		(at -4.8 1.54)
		(size 0.2 0.7)
		(layers "F.Cu" "F.Paste" "F.Mask")
		(uuid "dd80265c-b270-4444-a27d-b4490492d7cf")
	)
	(pad "31" smd rect
		(at -5.2 1.54)
		(size 0.2 0.7)
		(layers "F.Cu" "F.Paste" "F.Mask")
		(uuid "214db888-afd6-4abb-8fc0-e4f19b2746cf")
	)
	(pad "32" smd rect
		(at -5.6 1.54)
		(size 0.2 0.7)
		(layers "F.Cu" "F.Paste" "F.Mask")
		(uuid "8e6e5152-31ef-48d7-bce0-250a1e5c9864")
	)
	(pad "33" smd rect
		(at -6 1.54)
		(size 0.2 0.7)
		(layers "F.Cu" "F.Paste" "F.Mask")
		(uuid "a3867987-ede5-436d-93ee-c894857bbd5c")
	)
	(pad "34" smd rect
		(at -6.4 1.54)
		(size 0.2 0.7)
		(layers "F.Cu" "F.Paste" "F.Mask")
		(uuid "0fa24bf1-182a-471b-b6a1-c2a0860d1983")
	)
	(pad "35" smd rect
		(at -6.8 1.54)
		(size 0.2 0.7)
		(layers "F.Cu" "F.Paste" "F.Mask")
		(uuid "6e1f6573-f26b-4b82-b67e-e6ddb3e06d16")
	)
	(pad "36" smd rect
		(at 6.8 -1.54)
		(size 0.2 0.7)
		(layers "F.Cu" "F.Paste" "F.Mask")
		(uuid "71998f9c-b685-4a81-b781-381b280fb004")
	)
	(pad "37" smd rect
		(at 6.4 -1.54)
		(size 0.2 0.7)
		(layers "F.Cu" "F.Paste" "F.Mask")
		(uuid "a57c84b5-5d55-414c-b5d7-cf18bbcbc814")
	)
	(pad "38" smd rect
		(at 6 -1.54)
		(size 0.2 0.7)
		(layers "F.Cu" "F.Paste" "F.Mask")
		(uuid "dc4c8e49-f50e-418c-9aef-d9f553c059c9")
	)
	(pad "39" smd rect
		(at 5.6 -1.54)
		(size 0.2 0.7)
		(layers "F.Cu" "F.Paste" "F.Mask")
		(uuid "4eabf6a8-69d4-4b45-a8e5-17b06cb15c15")
	)
	(pad "40" smd rect
		(at 5.2 -1.54)
		(size 0.2 0.7)
		(layers "F.Cu" "F.Paste" "F.Mask")
		(uuid "9cb3265b-be35-4ecd-ac02-f70a52983d02")
	)
	(pad "41" smd rect
		(at 4.8 -1.54)
		(size 0.2 0.7)
		(layers "F.Cu" "F.Paste" "F.Mask")
		(uuid "27b699f0-2807-42cb-8522-d7beeae60bb1")
	)
	(pad "42" smd rect
		(at 4.4 -1.54)
		(size 0.2 0.7)
		(layers "F.Cu" "F.Paste" "F.Mask")
		(uuid "8fe9508a-b957-4a79-83d5-f84d5a6ee0d4")
	)
	(pad "43" smd rect
		(at 4 -1.54)
		(size 0.2 0.7)
		(layers "F.Cu" "F.Paste" "F.Mask")
		(uuid "2f63c037-ffe7-44fb-8c17-1b38129876c3")
	)
	(pad "44" smd rect
		(at 3.6 -1.54)
		(size 0.2 0.7)
		(layers "F.Cu" "F.Paste" "F.Mask")
		(uuid "aacd52d1-e922-4ddb-a15b-5aee73de5778")
	)
	(pad "45" smd rect
		(at 3.2 -1.54)
		(size 0.2 0.7)
		(layers "F.Cu" "F.Paste" "F.Mask")
		(uuid "0a541a2d-3ed5-4cca-8bb2-c14ee73317f7")
	)
	(pad "46" smd rect
		(at 2.8 -1.54)
		(size 0.2 0.7)
		(layers "F.Cu" "F.Paste" "F.Mask")
		(uuid "7f4c6cb5-985a-428d-a7e3-ff9ef218b0c4")
	)
	(pad "47" smd rect
		(at 2.4 -1.54)
		(size 0.2 0.7)
		(layers "F.Cu" "F.Paste" "F.Mask")
		(uuid "e9400979-7b5b-4b3b-b663-733f86588d50")
	)
	(pad "48" smd rect
		(at 2 -1.54)
		(size 0.2 0.7)
		(layers "F.Cu" "F.Paste" "F.Mask")
		(uuid "a7b43e64-b44c-4459-bbee-727a76511541")
	)
	(pad "49" smd rect
		(at 1.6 -1.54)
		(size 0.2 0.7)
		(layers "F.Cu" "F.Paste" "F.Mask")
		(uuid "48b8ec73-6ed7-48c6-a7b4-b3906c94a5c1")
	)
	(pad "50" smd rect
		(at 1.2 -1.54)
		(size 0.2 0.7)
		(layers "F.Cu" "F.Paste" "F.Mask")
		(uuid "547a720c-4b59-44eb-be5c-a68053efc8e1")
	)
	(pad "51" smd rect
		(at 0.8 -1.54)
		(size 0.2 0.7)
		(layers "F.Cu" "F.Paste" "F.Mask")
		(uuid "e3a7e870-1117-4b01-bbe5-2a37eb48abfe")
	)
	(pad "52" smd rect
		(at 0.4 -1.54)
		(size 0.2 0.7)
		(layers "F.Cu" "F.Paste" "F.Mask")
		(uuid "42611832-1347-4f02-ad65-0f26c0e48ae9")
	)
	(pad "53" smd rect
		(at 0 -1.54)
		(size 0.2 0.7)
		(layers "F.Cu" "F.Paste" "F.Mask")
		(uuid "9ea9d829-896b-49c0-89ca-e4ab4e804d52")
	)
	(pad "54" smd rect
		(at -0.4 -1.54)
		(size 0.2 0.7)
		(layers "F.Cu" "F.Paste" "F.Mask")
		(uuid "1252ce4b-1a3b-41fd-82bd-2ee553e2e9af")
	)
	(pad "55" smd rect
		(at -0.8 -1.54)
		(size 0.2 0.7)
		(layers "F.Cu" "F.Paste" "F.Mask")
		(uuid "cc18ac36-53b9-483a-af5e-0888e17c55ea")
	)
	(pad "56" smd rect
		(at -1.2 -1.54)
		(size 0.2 0.7)
		(layers "F.Cu" "F.Paste" "F.Mask")
		(uuid "9930412b-0015-47cd-9002-27901dbd434c")
	)
	(pad "57" smd rect
		(at -1.6 -1.54)
		(size 0.2 0.7)
		(layers "F.Cu" "F.Paste" "F.Mask")
		(uuid "647419b6-989c-4767-8d16-72b5c58b01f2")
	)
	(pad "58" smd rect
		(at -2 -1.54)
		(size 0.2 0.7)
		(layers "F.Cu" "F.Paste" "F.Mask")
		(uuid "457e2944-3875-449a-9354-9769ce6ced78")
	)
	(pad "59" smd rect
		(at -2.4 -1.54)
		(size 0.2 0.7)
		(layers "F.Cu" "F.Paste" "F.Mask")
		(uuid "f7819dce-c631-45fe-9acc-8d5fcc51c91d")
	)
	(pad "60" smd rect
		(at -2.8 -1.54)
		(size 0.2 0.7)
		(layers "F.Cu" "F.Paste" "F.Mask")
		(uuid "d229650e-bcb4-4cd3-9310-0030964c82ba")
	)
	(pad "61" smd rect
		(at -3.2 -1.54)
		(size 0.2 0.7)
		(layers "F.Cu" "F.Paste" "F.Mask")
		(uuid "b7767c4b-4319-45bf-9fc8-e7035b177062")
	)
	(pad "62" smd rect
		(at -3.6 -1.54)
		(size 0.2 0.7)
		(layers "F.Cu" "F.Paste" "F.Mask")
		(uuid "b230171d-5943-4a7b-855e-b785dcb21b54")
	)
	(pad "63" smd rect
		(at -4 -1.54)
		(size 0.2 0.7)
		(layers "F.Cu" "F.Paste" "F.Mask")
		(uuid "23aecb1a-e4b6-4172-b951-64b8ac962073")
	)
	(pad "64" smd rect
		(at -4.4 -1.54)
		(size 0.2 0.7)
		(layers "F.Cu" "F.Paste" "F.Mask")
		(uuid "c7daa851-7640-422f-aab7-30ac4cd0ca65")
	)
	(pad "65" smd rect
		(at -4.8 -1.54)
		(size 0.2 0.7)
		(layers "F.Cu" "F.Paste" "F.Mask")
		(uuid "5c46d0d1-b19a-41ac-a0bc-4a4954853dca")
	)
	(pad "66" smd rect
		(at -5.2 -1.54)
		(size 0.2 0.7)
		(layers "F.Cu" "F.Paste" "F.Mask")
		(uuid "aa07f847-e0f7-46ca-85c0-f6fcbd98f621")
	)
	(pad "67" smd rect
		(at -5.6 -1.54)
		(size 0.2 0.7)
		(layers "F.Cu" "F.Paste" "F.Mask")
		(uuid "215b0171-6f0b-484e-ad3f-ca80fda04cbb")
	)
	(pad "68" smd rect
		(at -6 -1.54)
		(size 0.2 0.7)
		(layers "F.Cu" "F.Paste" "F.Mask")
		(uuid "df0011f2-5071-4d2e-a4b8-680c5a51a230")
	)
	(pad "69" smd rect
		(at -6.4 -1.54)
		(size 0.2 0.7)
		(layers "F.Cu" "F.Paste" "F.Mask")
		(uuid "3e62bbeb-43b7-4be6-8c4e-696e34567082")
	)
	(pad "70" smd rect
		(at -6.8 -1.54)
		(size 0.2 0.7)
		(layers "F.Cu" "F.Paste" "F.Mask")
		(uuid "e489ebc1-ffee-451b-9eab-7200def9339c")
	)
	(model "${LSF_KICAD_LIB}/lsf-kicad-lib.3dshapes/hrs-df40c-70ds-0.4v.wrl"
		(offset
			(xyz 0 0 0)
		)
		(scale
			(xyz 1 1 1)
		)
		(rotate
			(xyz 0 0 0)
		)
	)
)
