(footprint "murata-dzb4-b"
	(version 20240108)
	(generator "pcbnew")
	(generator_version "8.0")
	(layer "F.Cu")
	(descr "Murata Inductor, https://")
	(tags "Murata Inductor")
	(property "Reference" "REF**"
		(at 0 0 0)
		(layer "F.SilkS")
		(uuid "9de1d690-dfca-4b6f-a53b-edd989d8aa4c")
		(effects
			(font
				(size 1 1)
				(thickness 0.15)
			)
		)
	)
	(property "Value" "murata-dzb4-b"
		(at 0 -3.5 0)
		(layer "F.Fab")
		(uuid "ed3b48c9-bba2-4d45-9363-55494058e29a")
		(effects
			(font
				(size 1 1)
				(thickness 0.15)
			)
		)
	)
	(property "Footprint" ""
		(at 0 0 0)
		(layer "F.Fab")
		(hide yes)
		(uuid "f90e979f-d038-4d6b-9402-622b295c6867")
		(effects
			(font
				(size 1.27 1.27)
				(thickness 0.15)
			)
		)
	)
	(property "Datasheet" ""
		(at 0 0 0)
		(layer "F.Fab")
		(hide yes)
		(uuid "3e92aa21-b9ae-41a6-9794-a398635665f5")
		(effects
			(font
				(size 1.27 1.27)
				(thickness 0.15)
			)
		)
	)
	(property "Description" ""
		(at 0 0 0)
		(layer "F.Fab")
		(hide yes)
		(uuid "fe4f711a-1c6b-46ba-a600-ff347cc81e80")
		(effects
			(font
				(size 1.27 1.27)
				(thickness 0.15)
			)
		)
	)
	(attr smd)
	(fp_line
		(start -2.5 -2.5)
		(end 2.5 -2.5)
		(stroke
			(width 0.12)
			(type solid)
		)
		(layer "F.SilkS")
		(uuid "2e275b22-904e-4cbb-bdfa-e64d79cd3655")
	)
	(fp_line
		(start -2.5 -1)
		(end -2.5 -2.5)
		(stroke
			(width 0.12)
			(type solid)
		)
		(layer "F.SilkS")
		(uuid "5653b163-46a8-4dd6-a51e-c96863157cb7")
	)
	(fp_line
		(start -2.5 1)
		(end -2.5 2.5)
		(stroke
			(width 0.12)
			(type solid)
		)
		(layer "F.SilkS")
		(uuid "e36e0f12-0f77-4d0e-8703-af7a9d8d05a6")
	)
	(fp_line
		(start -2.5 2.5)
		(end 2.5 2.5)
		(stroke
			(width 0.12)
			(type solid)
		)
		(layer "F.SilkS")
		(uuid "d01c9698-6258-407b-8c23-98ead5725797")
	)
	(fp_line
		(start 2.5 -2.5)
		(end 2.5 -1)
		(stroke
			(width 0.12)
			(type solid)
		)
		(layer "F.SilkS")
		(uuid "5314c12e-f415-488c-b9b6-bb6f43c787f1")
	)
	(fp_line
		(start 2.5 2.5)
		(end 2.5 1)
		(stroke
			(width 0.12)
			(type solid)
		)
		(layer "F.SilkS")
		(uuid "d4c95fdb-f79c-4e1f-8efa-88d89cba5bc6")
	)
	(fp_line
		(start -4 -2.6)
		(end -4 2.6)
		(stroke
			(width 0.05)
			(type solid)
		)
		(layer "F.CrtYd")
		(uuid "bad1ed5f-caeb-43dc-8b59-e80a48abd88b")
	)
	(fp_line
		(start -4 2.6)
		(end 4 2.6)
		(stroke
			(width 0.05)
			(type solid)
		)
		(layer "F.CrtYd")
		(uuid "b8904cc5-ff52-46ed-9389-8ae310ef1fbe")
	)
	(fp_line
		(start 4 -2.6)
		(end -4 -2.6)
		(stroke
			(width 0.05)
			(type solid)
		)
		(layer "F.CrtYd")
		(uuid "f817e45c-cf51-4d19-84fd-1f14fcb844da")
	)
	(fp_line
		(start 4 -2.6)
		(end 4 2.6)
		(stroke
			(width 0.05)
			(type solid)
		)
		(layer "F.CrtYd")
		(uuid "f943867a-e7ff-4660-9ba3-79079bd53118")
	)
	(fp_line
		(start -2.5 -2.5)
		(end 2.5 -2.5)
		(stroke
			(width 0.1)
			(type solid)
		)
		(layer "F.Fab")
		(uuid "ccb3f85f-fc66-4741-88fd-6b0428ecc950")
	)
	(fp_line
		(start -2.5 2.5)
		(end -2.5 -2.5)
		(stroke
			(width 0.1)
			(type solid)
		)
		(layer "F.Fab")
		(uuid "bdf3e169-dfb4-41bd-b1e4-5a835f94ccf6")
	)
	(fp_line
		(start 2.5 -2.5)
		(end 2.5 2.5)
		(stroke
			(width 0.1)
			(type solid)
		)
		(layer "F.Fab")
		(uuid "5eb175cb-6dd6-4f2c-8565-4bb424674805")
	)
	(fp_line
		(start 2.5 2.5)
		(end -2.5 2.5)
		(stroke
			(width 0.1)
			(type solid)
		)
		(layer "F.Fab")
		(uuid "3efd3b84-f628-4891-a9d4-352b6e1fc0c5")
	)
	(fp_text user "${REFERENCE}"
		(at 0 0 0)
		(layer "F.Fab")
		(uuid "b798cfa6-ffd9-4825-bedc-247ad07aa18e")
		(effects
			(font
				(size 1 1)
				(thickness 0.15)
			)
		)
	)
	(pad "1" smd rect
		(at 3 0)
		(size 2 1.6)
		(layers "F.Cu" "F.Paste" "F.Mask")
		(uuid "aff57249-5a61-428a-a9dd-1e2174c829bb")
	)
	(pad "2" smd rect
		(at -3 0)
		(size 2 1.6)
		(layers "F.Cu" "F.Paste" "F.Mask")
		(uuid "413e2c4a-61fa-47f8-94c1-76239d8a46ce")
	)
	(model "${LSF_KICAD_LIB}/lsf-kicad-lib.3dshapes/murata-dzb4-b.wrl"
		(offset
			(xyz 0 0 0)
		)
		(scale
			(xyz 1 1 1)
		)
		(rotate
			(xyz 0 0 0)
		)
	)
)
