(footprint "Panasonic_AXK_AXK6A2337YG_2x60_P0.50mm_Vertical"
	(version 20240108)
	(generator "pcbnew")
	(generator_version "8.0")
	(layer "F.Cu")
	(descr "AXK(5(S)/6(S))series 120 pin header, https://www3.panasonic.biz/ac/e/search_num/index.jsp?c=detail&part_no=AXK6A2337YG")
	(tags "AXK(5(S)/6(S)) header")
	(property "Reference" "REF**"
		(at 0 -4.45 0)
		(layer "F.SilkS")
		(uuid "67af449d-464b-4704-8bd2-bea05b0f23be")
		(effects
			(font
				(size 1 1)
				(thickness 0.15)
			)
		)
	)
	(property "Value" "Panasonic_AXK_AXK6A2337YG_2x60_P0.50mm_Vertical"
		(at 0 4.45 0)
		(layer "F.Fab")
		(uuid "be9a8780-7a6e-4e47-a28d-1ce1396c383a")
		(effects
			(font
				(size 1 1)
				(thickness 0.15)
			)
		)
	)
	(property "Footprint" ""
		(at 0 0 0)
		(unlocked yes)
		(layer "F.Fab")
		(hide yes)
		(uuid "608d7954-746d-4ceb-9578-40f543922678")
		(effects
			(font
				(size 1.27 1.27)
				(thickness 0.15)
			)
		)
	)
	(property "Datasheet" ""
		(at 0 0 0)
		(unlocked yes)
		(layer "F.Fab")
		(hide yes)
		(uuid "bb302e4d-3077-46f3-884b-688edd1f2908")
		(effects
			(font
				(size 1.27 1.27)
				(thickness 0.15)
			)
		)
	)
	(property "Description" ""
		(at 0 0 0)
		(unlocked yes)
		(layer "F.Fab")
		(hide yes)
		(uuid "ed457c0d-0dd0-46b0-a00c-6ff8005429bf")
		(effects
			(font
				(size 1.27 1.27)
				(thickness 0.15)
			)
		)
	)
	(attr smd)
	(fp_line
		(start -17 -2.3)
		(end -17 -1.5)
		(stroke
			(width 0.12)
			(type solid)
		)
		(layer "F.SilkS")
		(uuid "9afe2f8c-fd15-4eff-9942-74f1858199b8")
	)
	(fp_line
		(start -17 0.5)
		(end -17 0.8)
		(stroke
			(width 0.12)
			(type solid)
		)
		(layer "F.SilkS")
		(uuid "bb000f2f-5719-4a4f-b130-653edd01260e")
	)
	(fp_line
		(start -17 0.8)
		(end -15.7 2.1)
		(stroke
			(width 0.12)
			(type solid)
		)
		(layer "F.SilkS")
		(uuid "4e3fe202-8629-471c-bb0e-560d86686055")
	)
	(fp_line
		(start -15.6 -2.3)
		(end -17 -2.3)
		(stroke
			(width 0.12)
			(type solid)
		)
		(layer "F.SilkS")
		(uuid "6ec84ef4-c4ff-4aaa-9c87-ded35c0c463d")
	)
	(fp_line
		(start 15.6 -2.3)
		(end 17 -2.3)
		(stroke
			(width 0.12)
			(type solid)
		)
		(layer "F.SilkS")
		(uuid "ec63287c-65e8-4aaa-b188-589fc684dced")
	)
	(fp_line
		(start 17 -2.3)
		(end 17 -1.5)
		(stroke
			(width 0.12)
			(type solid)
		)
		(layer "F.SilkS")
		(uuid "9aa09aec-cf04-48ef-9311-7331fcf45d42")
	)
	(fp_line
		(start 17 0.5)
		(end 17 0.8)
		(stroke
			(width 0.12)
			(type solid)
		)
		(layer "F.SilkS")
		(uuid "eba55999-a795-4a58-8105-b30bf7aae47a")
	)
	(fp_line
		(start 17 0.8)
		(end 15.7 2.1)
		(stroke
			(width 0.12)
			(type solid)
		)
		(layer "F.SilkS")
		(uuid "72334559-c1c0-482e-b71b-0e0d441a145d")
	)
	(fp_circle
		(center -16.5 2.75)
		(end -15.985218 2.75)
		(stroke
			(width 0.12)
			(type solid)
		)
		(fill solid)
		(layer "F.SilkS")
		(uuid "5c829fa1-a06d-4f9c-8bba-36dad6475f28")
	)
	(fp_line
		(start -17.1 -3.45)
		(end 17.1 -3.45)
		(stroke
			(width 0.05)
			(type solid)
		)
		(layer "F.CrtYd")
		(uuid "3c2bccb3-7b7b-4721-9930-bdad38bd0013")
	)
	(fp_line
		(start -17.1 3.45)
		(end -17.1 -3.45)
		(stroke
			(width 0.05)
			(type solid)
		)
		(layer "F.CrtYd")
		(uuid "942fea8b-6162-4b23-ae39-ed9ba43d53b6")
	)
	(fp_line
		(start 17.1 -3.45)
		(end 17.1 3.45)
		(stroke
			(width 0.05)
			(type solid)
		)
		(layer "F.CrtYd")
		(uuid "587b37a7-615f-41cd-8df8-91116183ee74")
	)
	(fp_line
		(start 17.1 3.45)
		(end -17.1 3.45)
		(stroke
			(width 0.05)
			(type solid)
		)
		(layer "F.CrtYd")
		(uuid "ecd1270b-feca-4123-adf0-c63eebdd8a74")
	)
	(fp_line
		(start -16.6 -1.9)
		(end -16.6 0.7)
		(stroke
			(width 0.1)
			(type solid)
		)
		(layer "F.Fab")
		(uuid "125ef787-0f05-44ad-92d5-85f24658e6fa")
	)
	(fp_line
		(start -16.2 -1.5)
		(end 16.2 -1.5)
		(stroke
			(width 0.1)
			(type solid)
		)
		(layer "F.Fab")
		(uuid "4052dadc-2350-4643-a327-e336c8abed96")
	)
	(fp_line
		(start -16.2 0.7)
		(end -16.2 -1.5)
		(stroke
			(width 0.1)
			(type solid)
		)
		(layer "F.Fab")
		(uuid "3029bddd-2356-4dd6-9033-0c0269794770")
	)
	(fp_line
		(start -15.4 1.5)
		(end -16.2 0.7)
		(stroke
			(width 0.1)
			(type solid)
		)
		(layer "F.Fab")
		(uuid "1af6eaa7-d132-4f96-b0e0-b0c94de66fa7")
	)
	(fp_line
		(start -15.4 1.9)
		(end -16.6 0.7)
		(stroke
			(width 0.1)
			(type solid)
		)
		(layer "F.Fab")
		(uuid "63f92404-3f6a-446c-8090-3038857c8d54")
	)
	(fp_line
		(start -15.4 1.9)
		(end 15.5 1.9)
		(stroke
			(width 0.1)
			(type solid)
		)
		(layer "F.Fab")
		(uuid "e9c40bb3-be70-4a91-ac6a-6ecc9e9df269")
	)
	(fp_line
		(start 15.5 1.5)
		(end -15.4 1.5)
		(stroke
			(width 0.1)
			(type solid)
		)
		(layer "F.Fab")
		(uuid "fcf2ceaa-54ee-4e80-8a8e-922d3c0def0a")
	)
	(fp_line
		(start 15.5 1.9)
		(end 16.6 0.8)
		(stroke
			(width 0.1)
			(type solid)
		)
		(layer "F.Fab")
		(uuid "6b9f20d7-9c54-487d-bbbd-5c996166bbed")
	)
	(fp_line
		(start 16.2 -1.5)
		(end 16.2 0.8)
		(stroke
			(width 0.1)
			(type solid)
		)
		(layer "F.Fab")
		(uuid "9bdcf52c-af45-4c48-9e3e-a9d135508414")
	)
	(fp_line
		(start 16.2 0.8)
		(end 15.5 1.5)
		(stroke
			(width 0.1)
			(type solid)
		)
		(layer "F.Fab")
		(uuid "6f959d84-8ab5-44c5-98eb-58a7b61454de")
	)
	(fp_line
		(start 16.6 -1.9)
		(end -16.6 -1.9)
		(stroke
			(width 0.1)
			(type solid)
		)
		(layer "F.Fab")
		(uuid "f85416d8-b972-427e-8e3e-97e586864128")
	)
	(fp_line
		(start 16.6 0.8)
		(end 16.6 -1.9)
		(stroke
			(width 0.1)
			(type solid)
		)
		(layer "F.Fab")
		(uuid "5f3f7917-1fbb-4ed5-a55d-5d9912244dfd")
	)
	(fp_text user "${REFERENCE}"
		(at 0 -4.4 0)
		(unlocked yes)
		(layer "F.Fab")
		(uuid "76192ce3-1fdc-4b2f-ae4e-bafed2c5fce3")
		(effects
			(font
				(size 1 1)
				(thickness 0.15)
			)
		)
	)
	(pad "" np_thru_hole circle
		(at -16.05 -1.2 180)
		(size 0.8 0.8)
		(drill 0.8)
		(layers "F&B.Cu" "*.Mask")
		(uuid "23422a18-796e-4778-86b2-1403946f8740")
	)
	(pad "" smd rect
		(at -14.81 -1.65 180)
		(size 0.35 1.55)
		(layers "F.Paste")
		(uuid "96cae164-3b62-4898-af47-f3988df105da")
	)
	(pad "" smd rect
		(at -14.81 1.65 180)
		(size 0.35 1.55)
		(layers "F.Paste")
		(uuid "53d7abcc-e4a0-452b-adc0-1fef0c892a9b")
	)
	(pad "" smd rect
		(at -14.25 -1.65 180)
		(size 0.23 1.55)
		(layers "F.Paste")
		(uuid "b935105b-c8b2-4ca6-a294-ba3f98827bff")
	)
	(pad "" smd rect
		(at -14.25 1.65 180)
		(size 0.23 1.55)
		(layers "F.Paste")
		(uuid "e16a5506-6cbd-46c1-9176-20c73f3404a6")
	)
	(pad "" smd rect
		(at -13.75 -1.65 180)
		(size 0.23 1.55)
		(layers "F.Paste")
		(uuid "cb24efdd-07c6-4317-9277-131625b065ac")
	)
	(pad "" smd rect
		(at -13.75 -1.65 180)
		(size 0.25 2.3)
		(layers "F.Cu" "F.Mask")
		(uuid "55adc451-997e-496d-9ea8-1dbb2ac46b83")
	)
	(pad "" smd rect
		(at -13.75 1.65 180)
		(size 0.23 1.55)
		(layers "F.Paste")
		(uuid "b33915f1-896a-4971-bf05-1a91d75ab3fc")
	)
	(pad "" smd rect
		(at -13.25 -1.65 180)
		(size 0.23 1.55)
		(layers "F.Paste")
		(uuid "926001fd-2747-4639-8c0f-4fc46ff7218d")
	)
	(pad "" smd rect
		(at -13.25 -1.65 180)
		(size 0.25 2.3)
		(layers "F.Cu" "F.Mask")
		(uuid "151966b6-b035-436c-8ad4-ad2fbf3256a7")
	)
	(pad "" smd rect
		(at -13.25 1.65 180)
		(size 0.23 1.55)
		(layers "F.Paste")
		(uuid "2aa993cf-8d94-4933-945f-a8ecf80ac0d1")
	)
	(pad "" smd rect
		(at -12.75 -1.65 180)
		(size 0.23 1.55)
		(layers "F.Paste")
		(uuid "af347946-e3da-4427-87ab-77b747929f50")
	)
	(pad "" smd rect
		(at -12.75 1.65 180)
		(size 0.23 1.55)
		(layers "F.Paste")
		(uuid "ac8d1beb-8064-452d-b2a7-337a1c8f4c29")
	)
	(pad "" smd rect
		(at -12.25 -1.65 180)
		(size 0.23 1.55)
		(layers "F.Paste")
		(uuid "22bb6c80-05a9-4d89-98b0-f4c23fe6c1ce")
	)
	(pad "" smd rect
		(at -12.25 1.65 180)
		(size 0.23 1.55)
		(layers "F.Paste")
		(uuid "4824cc17-4fe1-4945-ad51-0aeea24cae8e")
	)
	(pad "" smd rect
		(at -11.75 -1.65 180)
		(size 0.23 1.55)
		(layers "F.Paste")
		(uuid "283c990c-ae5a-4e41-a3ad-b40ca29fe90e")
	)
	(pad "" smd rect
		(at -11.75 1.65 180)
		(size 0.23 1.55)
		(layers "F.Paste")
		(uuid "aa6ef6ac-68c2-4840-9d51-c5640cd77ca8")
	)
	(pad "" smd rect
		(at -11.25 -1.65 180)
		(size 0.23 1.55)
		(layers "F.Paste")
		(uuid "a7f2e97b-29f3-44fd-bf8a-97a3c1528b61")
	)
	(pad "" smd rect
		(at -11.25 1.65 180)
		(size 0.23 1.55)
		(layers "F.Paste")
		(uuid "fe42ae90-db4c-434c-84ff-afc19cdb6192")
	)
	(pad "" smd rect
		(at -10.75 -1.65 180)
		(size 0.23 1.55)
		(layers "F.Paste")
		(uuid "02f8904b-a7b2-49dd-b392-764e7e29fb51")
	)
	(pad "" smd rect
		(at -10.75 1.65 180)
		(size 0.23 1.55)
		(layers "F.Paste")
		(uuid "f33c1be6-4001-4ece-aa46-3a20267b8ad4")
	)
	(pad "" smd rect
		(at -10.25 -1.65 180)
		(size 0.23 1.55)
		(layers "F.Paste")
		(uuid "26a22c19-4cc5-4237-9651-0edc4f854154")
	)
	(pad "" smd rect
		(at -10.25 1.65 180)
		(size 0.23 1.55)
		(layers "F.Paste")
		(uuid "d4b6492f-ea43-4aae-99e0-bfb2aa20b67f")
	)
	(pad "" smd rect
		(at -9.75 -1.65 180)
		(size 0.23 1.55)
		(layers "F.Paste")
		(uuid "fe6d9604-2924-4f38-950b-a31e8a281973")
	)
	(pad "" smd rect
		(at -9.75 1.65 180)
		(size 0.23 1.55)
		(layers "F.Paste")
		(uuid "0b9dfbfe-1e19-4396-b6a1-78bceb1cec64")
	)
	(pad "" smd rect
		(at -9.25 -1.65 180)
		(size 0.23 1.55)
		(layers "F.Paste")
		(uuid "15ea3484-2685-47cb-9e01-ec01c6d477b8")
	)
	(pad "" smd rect
		(at -9.25 1.65 180)
		(size 0.23 1.55)
		(layers "F.Paste")
		(uuid "be15977e-08c4-4134-888d-97385a0345d6")
	)
	(pad "" smd rect
		(at -8.75 -1.65 180)
		(size 0.23 1.55)
		(layers "F.Paste")
		(uuid "6e9883d7-9642-4425-a248-b92a09f0624c")
	)
	(pad "" smd rect
		(at -8.75 1.65 180)
		(size 0.23 1.55)
		(layers "F.Paste")
		(uuid "e190fba0-e981-4ba2-ab8c-03bfc45a7fcd")
	)
	(pad "" smd rect
		(at -8.25 -1.65 180)
		(size 0.23 1.55)
		(layers "F.Paste")
		(uuid "1765d6b9-ca0e-49c2-8c3c-8ab35eb3909b")
	)
	(pad "" smd rect
		(at -8.25 1.65 180)
		(size 0.23 1.55)
		(layers "F.Paste")
		(uuid "8c075ab2-581c-4b41-9bc0-3411079784fb")
	)
	(pad "" smd rect
		(at -7.75 -1.65 180)
		(size 0.23 1.55)
		(layers "F.Paste")
		(uuid "c8b93f12-bc5c-4ce5-b954-377d903895f1")
	)
	(pad "" smd rect
		(at -7.75 1.65 180)
		(size 0.23 1.55)
		(layers "F.Paste")
		(uuid "9f3fe97e-1e9e-485d-9bc4-cdfd2b3b791e")
	)
	(pad "" smd rect
		(at -7.25 -1.65 180)
		(size 0.23 1.55)
		(layers "F.Paste")
		(uuid "61a18b62-4111-4a9d-8fca-04c4c6f90cc3")
	)
	(pad "" smd rect
		(at -7.25 1.65 180)
		(size 0.23 1.55)
		(layers "F.Paste")
		(uuid "a83fc53b-f2e4-4a01-9c00-7538b050eb9c")
	)
	(pad "" smd rect
		(at -6.75 -1.65 180)
		(size 0.23 1.55)
		(layers "F.Paste")
		(uuid "9a458d6a-a84c-4faf-913e-90bab231d3f8")
	)
	(pad "" smd rect
		(at -6.75 1.65 180)
		(size 0.23 1.55)
		(layers "F.Paste")
		(uuid "51e081dd-14da-453b-ad0a-f912cce13100")
	)
	(pad "" smd rect
		(at -6.25 -1.65 180)
		(size 0.23 1.55)
		(layers "F.Paste")
		(uuid "835d4ac3-3fb1-48d9-8c28-6093fe917376")
	)
	(pad "" smd rect
		(at -6.25 1.65 180)
		(size 0.23 1.55)
		(layers "F.Paste")
		(uuid "ce052e62-9895-4eaf-b763-02bb1f2f2fc0")
	)
	(pad "" smd rect
		(at -5.75 -1.65 180)
		(size 0.23 1.55)
		(layers "F.Paste")
		(uuid "e8558fbd-ea42-43a6-966a-7bd304bdfaad")
	)
	(pad "" smd rect
		(at -5.75 1.65 180)
		(size 0.23 1.55)
		(layers "F.Paste")
		(uuid "0ada491f-7b3a-4275-b2ca-22fca6089023")
	)
	(pad "" smd rect
		(at -5.25 -1.65 180)
		(size 0.23 1.55)
		(layers "F.Paste")
		(uuid "a8470270-920a-4fed-9691-22526135f92c")
	)
	(pad "" smd rect
		(at -5.25 1.65 180)
		(size 0.23 1.55)
		(layers "F.Paste")
		(uuid "27ffb4d8-9026-4ae6-9928-ea9707dfcbd9")
	)
	(pad "" smd rect
		(at -4.75 -1.65 180)
		(size 0.23 1.55)
		(layers "F.Paste")
		(uuid "42688fc6-3e24-4a56-9963-828da46dcdfb")
	)
	(pad "" smd rect
		(at -4.75 1.65 180)
		(size 0.23 1.55)
		(layers "F.Paste")
		(uuid "1c6e452a-3519-4b92-98f5-9c74f0717054")
	)
	(pad "" smd rect
		(at -4.25 -1.65 180)
		(size 0.23 1.55)
		(layers "F.Paste")
		(uuid "26edc121-4167-44e5-9aaf-65f4ac255233")
	)
	(pad "" smd rect
		(at -4.25 1.65 180)
		(size 0.23 1.55)
		(layers "F.Paste")
		(uuid "6c237791-d668-4ad2-b63f-2fe5ae10a9e5")
	)
	(pad "" smd rect
		(at -3.75 -1.65 180)
		(size 0.23 1.55)
		(layers "F.Paste")
		(uuid "856c0384-2dfc-47d2-a66c-a145c3149f14")
	)
	(pad "" smd rect
		(at -3.75 1.65 180)
		(size 0.23 1.55)
		(layers "F.Paste")
		(uuid "7ab03275-c9ff-4f53-a683-5b84029f7ff5")
	)
	(pad "" smd rect
		(at -3.25 -1.65 180)
		(size 0.23 1.55)
		(layers "F.Paste")
		(uuid "acb025c1-3784-47d1-b5e9-772bcda8c549")
	)
	(pad "" smd rect
		(at -3.25 1.65 180)
		(size 0.23 1.55)
		(layers "F.Paste")
		(uuid "22e6b722-f353-48a3-8b94-904b9f7c9138")
	)
	(pad "" smd rect
		(at -2.75 -1.65 180)
		(size 0.23 1.55)
		(layers "F.Paste")
		(uuid "c5ef9b89-6cfe-4b79-a0bb-48d12c79b541")
	)
	(pad "" smd rect
		(at -2.75 1.65 180)
		(size 0.23 1.55)
		(layers "F.Paste")
		(uuid "f2227206-4c84-434c-b85d-b3d50163b425")
	)
	(pad "" smd rect
		(at -2.25 -1.65 180)
		(size 0.23 1.55)
		(layers "F.Paste")
		(uuid "2f58dd1b-258a-4fb6-a155-4e2931ab012c")
	)
	(pad "" smd rect
		(at -2.25 1.65 180)
		(size 0.23 1.55)
		(layers "F.Paste")
		(uuid "c8433008-0d24-4e18-80ed-1ae1b5db5976")
	)
	(pad "" smd rect
		(at -1.75 -1.65 180)
		(size 0.23 1.55)
		(layers "F.Paste")
		(uuid "28aab436-a04a-4f1d-a887-4f09513fdc8a")
	)
	(pad "" smd rect
		(at -1.75 1.65 180)
		(size 0.23 1.55)
		(layers "F.Paste")
		(uuid "bee5c5bf-c27a-44af-96ec-441e050091a2")
	)
	(pad "" smd rect
		(at -1.25 -1.65 180)
		(size 0.23 1.55)
		(layers "F.Paste")
		(uuid "139dad75-0222-4e43-bc59-5c28bfe18b85")
	)
	(pad "" smd rect
		(at -1.25 1.65 180)
		(size 0.23 1.55)
		(layers "F.Paste")
		(uuid "d8b0ff31-7470-40f0-bc24-bdf69a8dcefa")
	)
	(pad "" smd rect
		(at -0.75 -1.65 180)
		(size 0.23 1.55)
		(layers "F.Paste")
		(uuid "9c8b409b-0d1b-49e5-8fed-acd83e0e8b3e")
	)
	(pad "" smd rect
		(at -0.75 1.65 180)
		(size 0.23 1.55)
		(layers "F.Paste")
		(uuid "bf3dac99-ac50-4ac6-bfbd-9ed628e3720e")
	)
	(pad "" smd rect
		(at -0.25 -1.65 180)
		(size 0.23 1.55)
		(layers "F.Paste")
		(uuid "53d63574-d294-4160-8943-1f901b80728f")
	)
	(pad "" smd rect
		(at -0.25 1.65 180)
		(size 0.23 1.55)
		(layers "F.Paste")
		(uuid "208852a4-c92a-4457-a020-d509b402d330")
	)
	(pad "" smd rect
		(at 0.25 -1.65 180)
		(size 0.23 1.55)
		(layers "F.Paste")
		(uuid "4e26d1df-a557-446c-8724-16a2959e6714")
	)
	(pad "" smd rect
		(at 0.25 1.65 180)
		(size 0.23 1.55)
		(layers "F.Paste")
		(uuid "0822003a-4943-41d2-9c41-77d7bd200eaa")
	)
	(pad "" smd rect
		(at 0.75 -1.65 180)
		(size 0.23 1.55)
		(layers "F.Paste")
		(uuid "9801ccc8-5152-40bb-932d-67072f8cd8ad")
	)
	(pad "" smd rect
		(at 0.75 1.65 180)
		(size 0.23 1.55)
		(layers "F.Paste")
		(uuid "edb123bb-7dba-41db-8cf8-49d551b88892")
	)
	(pad "" smd rect
		(at 1.25 -1.65 180)
		(size 0.23 1.55)
		(layers "F.Paste")
		(uuid "ae3c331f-8808-430e-931c-7d9b2cc37f5b")
	)
	(pad "" smd rect
		(at 1.25 1.65 180)
		(size 0.23 1.55)
		(layers "F.Paste")
		(uuid "9d599c6e-ce87-40a6-8808-1c09f41e6d87")
	)
	(pad "" smd rect
		(at 1.75 -1.65 180)
		(size 0.23 1.55)
		(layers "F.Paste")
		(uuid "6db64f46-9e2d-4604-b932-a6f7a66a0d14")
	)
	(pad "" smd rect
		(at 1.75 1.65 180)
		(size 0.23 1.55)
		(layers "F.Paste")
		(uuid "2d5b3e10-9b65-4abf-803e-969a546fc8e3")
	)
	(pad "" smd rect
		(at 2.25 -1.65 180)
		(size 0.23 1.55)
		(layers "F.Paste")
		(uuid "292c02f1-523d-4844-90f0-a744ec5ae311")
	)
	(pad "" smd rect
		(at 2.25 1.65 180)
		(size 0.23 1.55)
		(layers "F.Paste")
		(uuid "f7f4a858-5dd0-45b8-96db-a2ada69019ef")
	)
	(pad "" smd rect
		(at 2.75 -1.65 180)
		(size 0.23 1.55)
		(layers "F.Paste")
		(uuid "3c0e161b-77de-41cd-8057-090b9a285b00")
	)
	(pad "" smd rect
		(at 2.75 1.65 180)
		(size 0.23 1.55)
		(layers "F.Paste")
		(uuid "79467a30-f83f-4a69-bc32-033df608d42c")
	)
	(pad "" smd rect
		(at 3.25 -1.65 180)
		(size 0.23 1.55)
		(layers "F.Paste")
		(uuid "5a1ce9b7-22a6-4b53-b971-3e729d539c8a")
	)
	(pad "" smd rect
		(at 3.25 1.65 180)
		(size 0.23 1.55)
		(layers "F.Paste")
		(uuid "08bbe74e-336e-46fb-bf46-95e809a2c1f8")
	)
	(pad "" smd rect
		(at 3.75 -1.65 180)
		(size 0.23 1.55)
		(layers "F.Paste")
		(uuid "a658002a-8a7e-43ad-8acb-33b00307f4c4")
	)
	(pad "" smd rect
		(at 3.75 1.65 180)
		(size 0.23 1.55)
		(layers "F.Paste")
		(uuid "ffa2b118-bc4b-4b99-a4fc-58657f2b84da")
	)
	(pad "" smd rect
		(at 4.25 -1.65 180)
		(size 0.23 1.55)
		(layers "F.Paste")
		(uuid "75288219-cb62-4584-bfee-979eec5f882a")
	)
	(pad "" smd rect
		(at 4.25 1.65 180)
		(size 0.23 1.55)
		(layers "F.Paste")
		(uuid "db5b3db1-1522-4f64-8767-8904a5729aa9")
	)
	(pad "" smd rect
		(at 4.75 -1.65 180)
		(size 0.23 1.55)
		(layers "F.Paste")
		(uuid "3b960909-0ba4-465c-b3f3-fd447a704a1b")
	)
	(pad "" smd rect
		(at 4.75 1.65 180)
		(size 0.23 1.55)
		(layers "F.Paste")
		(uuid "c4a49376-0337-41b4-b572-6ebddf88df51")
	)
	(pad "" smd rect
		(at 5.25 -1.65 180)
		(size 0.23 1.55)
		(layers "F.Paste")
		(uuid "55cd752b-c945-4ee3-943d-9a764cf13c98")
	)
	(pad "" smd rect
		(at 5.25 1.65 180)
		(size 0.23 1.55)
		(layers "F.Paste")
		(uuid "a566955d-5910-4abb-bb52-516fbffe2604")
	)
	(pad "" smd rect
		(at 5.75 -1.65 180)
		(size 0.23 1.55)
		(layers "F.Paste")
		(uuid "897136b5-a5d5-4581-a6bf-48c25cde5ca5")
	)
	(pad "" smd rect
		(at 5.75 1.65 180)
		(size 0.23 1.55)
		(layers "F.Paste")
		(uuid "1961fd7e-ea48-4fcd-9643-319fdbe0bda8")
	)
	(pad "" smd rect
		(at 6.25 -1.65 180)
		(size 0.23 1.55)
		(layers "F.Paste")
		(uuid "42460404-dc50-4148-9d5f-cac0b90af438")
	)
	(pad "" smd rect
		(at 6.25 1.65 180)
		(size 0.23 1.55)
		(layers "F.Paste")
		(uuid "91bb8b47-fc6f-4d4f-8ce3-2f186f15a2fe")
	)
	(pad "" smd rect
		(at 6.75 -1.65 180)
		(size 0.23 1.55)
		(layers "F.Paste")
		(uuid "7056f785-c3a5-4410-b6bb-e5d4b16e698a")
	)
	(pad "" smd rect
		(at 6.75 1.65 180)
		(size 0.23 1.55)
		(layers "F.Paste")
		(uuid "e0c15636-d057-4570-9ad9-688d870adc71")
	)
	(pad "" smd rect
		(at 7.25 -1.65 180)
		(size 0.23 1.55)
		(layers "F.Paste")
		(uuid "fb9b0b15-c800-4199-a9df-1e999ba6a70c")
	)
	(pad "" smd rect
		(at 7.25 1.65 180)
		(size 0.23 1.55)
		(layers "F.Paste")
		(uuid "8708cfe9-1765-468c-8dd7-03ec5e4c238c")
	)
	(pad "" smd rect
		(at 7.75 -1.65 180)
		(size 0.23 1.55)
		(layers "F.Paste")
		(uuid "85322b6b-1523-4ed9-b09b-510e91ab3a2d")
	)
	(pad "" smd rect
		(at 7.75 1.65 180)
		(size 0.23 1.55)
		(layers "F.Paste")
		(uuid "44aa0d60-164f-4aed-b896-c988740fd182")
	)
	(pad "" smd rect
		(at 8.25 -1.65 180)
		(size 0.23 1.55)
		(layers "F.Paste")
		(uuid "8967a184-9ee6-4ceb-8e38-09ca452dd23c")
	)
	(pad "" smd rect
		(at 8.25 1.65 180)
		(size 0.23 1.55)
		(layers "F.Paste")
		(uuid "efbd3197-cbc9-408a-a2b5-e8292a952aae")
	)
	(pad "" smd rect
		(at 8.75 -1.65 180)
		(size 0.23 1.55)
		(layers "F.Paste")
		(uuid "f157df02-fcb0-4ae7-85ca-bfc4444eda90")
	)
	(pad "" smd rect
		(at 8.75 1.65 180)
		(size 0.23 1.55)
		(layers "F.Paste")
		(uuid "7cffe4c2-f26d-4fcb-b1af-4916ea13e751")
	)
	(pad "" smd rect
		(at 9.25 -1.65 180)
		(size 0.23 1.55)
		(layers "F.Paste")
		(uuid "4e0c64dd-f348-4f5d-bdb3-f38525a89a3b")
	)
	(pad "" smd rect
		(at 9.25 1.65 180)
		(size 0.23 1.55)
		(layers "F.Paste")
		(uuid "6b636d0a-0dff-42e7-bbe9-686722679f54")
	)
	(pad "" smd rect
		(at 9.75 -1.65 180)
		(size 0.23 1.55)
		(layers "F.Paste")
		(uuid "0df6109b-09d2-45fb-ae96-95a5ff5e96e3")
	)
	(pad "" smd rect
		(at 9.75 1.65 180)
		(size 0.23 1.55)
		(layers "F.Paste")
		(uuid "3b2bac1a-1ef0-450e-9597-a68fe8adac05")
	)
	(pad "" smd rect
		(at 10.25 -1.65 180)
		(size 0.23 1.55)
		(layers "F.Paste")
		(uuid "e84fc25e-a81d-4015-bf9c-a56f90ec2647")
	)
	(pad "" smd rect
		(at 10.25 1.65 180)
		(size 0.23 1.55)
		(layers "F.Paste")
		(uuid "19fbe35e-7125-477c-9a61-cbd629d6d687")
	)
	(pad "" smd rect
		(at 10.75 -1.65 180)
		(size 0.23 1.55)
		(layers "F.Paste")
		(uuid "39b32332-d6eb-4066-9c5a-784c77cb509f")
	)
	(pad "" smd rect
		(at 10.75 1.65 180)
		(size 0.23 1.55)
		(layers "F.Paste")
		(uuid "ede82a11-8f5c-4b80-9a2f-e6845171235f")
	)
	(pad "" smd rect
		(at 11.25 -1.65 180)
		(size 0.23 1.55)
		(layers "F.Paste")
		(uuid "4e8df529-8d47-4e77-865b-b182783e5fc5")
	)
	(pad "" smd rect
		(at 11.25 1.65 180)
		(size 0.23 1.55)
		(layers "F.Paste")
		(uuid "25ad2632-b253-4ec8-acc6-610649cc2496")
	)
	(pad "" smd rect
		(at 11.75 -1.65 180)
		(size 0.23 1.55)
		(layers "F.Paste")
		(uuid "56a51644-b55f-492b-aa38-d2c3e210984a")
	)
	(pad "" smd rect
		(at 11.75 1.65 180)
		(size 0.23 1.55)
		(layers "F.Paste")
		(uuid "bab293be-84e7-44d3-8bb3-d23ed8a48dea")
	)
	(pad "" smd rect
		(at 12.25 -1.65 180)
		(size 0.23 1.55)
		(layers "F.Paste")
		(uuid "585736d9-0c4d-4680-b9f1-4e1d167377d5")
	)
	(pad "" smd rect
		(at 12.25 1.65 180)
		(size 0.23 1.55)
		(layers "F.Paste")
		(uuid "df3b493d-e01e-4e84-8bfa-52213610299c")
	)
	(pad "" smd rect
		(at 12.75 -1.65 180)
		(size 0.23 1.55)
		(layers "F.Paste")
		(uuid "eb560573-fc0d-47fa-9a61-bcf0833493fd")
	)
	(pad "" smd rect
		(at 12.75 1.65 180)
		(size 0.23 1.55)
		(layers "F.Paste")
		(uuid "68ed8682-136b-4079-9e50-a0ddb08f3f1f")
	)
	(pad "" smd rect
		(at 13.25 -1.65 180)
		(size 0.23 1.55)
		(layers "F.Paste")
		(uuid "3ce75223-3147-40f3-b47b-f7fa88e08c27")
	)
	(pad "" smd rect
		(at 13.25 1.65 180)
		(size 0.23 1.55)
		(layers "F.Paste")
		(uuid "92eaba14-1ba6-49d7-8a55-64129d195b8b")
	)
	(pad "" smd rect
		(at 13.75 -1.65 180)
		(size 0.23 1.55)
		(layers "F.Paste")
		(uuid "6586c7bc-7012-4335-b0bd-43918f23a8fd")
	)
	(pad "" smd rect
		(at 13.75 1.65 180)
		(size 0.23 1.55)
		(layers "F.Paste")
		(uuid "eb3dd94f-5032-494c-9000-b327e5febd9d")
	)
	(pad "" smd rect
		(at 14.25 -1.65 180)
		(size 0.23 1.55)
		(layers "F.Paste")
		(uuid "bc600043-b23a-4784-acf2-3275a6d2f518")
	)
	(pad "" smd rect
		(at 14.25 1.65 180)
		(size 0.23 1.55)
		(layers "F.Paste")
		(uuid "207c4811-314a-47bb-ae18-2f9379831b81")
	)
	(pad "" smd rect
		(at 14.81 -1.65 180)
		(size 0.35 1.55)
		(layers "F.Paste")
		(uuid "bcb71876-c270-45b1-942b-f8b7b2e74527")
	)
	(pad "" smd rect
		(at 14.81 1.65 180)
		(size 0.35 1.55)
		(layers "F.Paste")
		(uuid "a9690b8a-291c-4e4b-9507-2678d734eb14")
	)
	(pad "" np_thru_hole circle
		(at 16.05 -1.2 180)
		(size 0.8 0.8)
		(drill 0.8)
		(layers "F&B.Cu" "*.Mask")
		(uuid "04f5e42b-efae-444c-96df-a2809cf5206c")
	)
	(pad "1" smd rect
		(at -15 1.65 180)
		(size 0.75 2.3)
		(layers "F.Cu" "F.Mask")
		(uuid "d0df4110-dd02-4909-9203-30c76f427fd3")
	)
	(pad "2" smd rect
		(at -15 -1.65 180)
		(size 0.75 2.3)
		(layers "F.Cu" "F.Mask")
		(uuid "9b2dd3a1-5d53-47cf-aac6-c1f3102225e2")
	)
	(pad "3" smd rect
		(at -14.25 1.65 180)
		(size 0.25 2.3)
		(layers "F.Cu" "F.Mask")
		(uuid "486e20e1-9c0d-439c-a981-b0ca305ff652")
	)
	(pad "4" smd rect
		(at -14.25 -1.65 180)
		(size 0.25 2.3)
		(layers "F.Cu" "F.Mask")
		(uuid "c544a1a7-97af-467a-91bf-fd8093358f04")
	)
	(pad "5" smd rect
		(at -13.75 1.65 180)
		(size 0.25 2.3)
		(layers "F.Cu" "F.Mask")
		(uuid "3b9623d5-f630-4566-beef-77bdb9db8f82")
	)
	(pad "6" smd rect
		(at -13.75 -1.65 180)
		(size 0.25 2.3)
		(layers "F.Cu" "F.Mask")
		(uuid "a2ecb788-4ab9-4106-85d3-f7848111c96a")
	)
	(pad "7" smd rect
		(at -13.25 1.65 180)
		(size 0.25 2.3)
		(layers "F.Cu" "F.Mask")
		(uuid "b8b11fb2-afec-4a5b-9979-b64036814951")
	)
	(pad "8" smd rect
		(at -13.25 -1.65 180)
		(size 0.25 2.3)
		(layers "F.Cu" "F.Mask")
		(uuid "d0419ae5-4fc6-4d50-a210-c11add695f04")
	)
	(pad "9" smd rect
		(at -12.75 1.65 180)
		(size 0.25 2.3)
		(layers "F.Cu" "F.Mask")
		(uuid "cec91811-c66f-4ae2-bd60-b9b40f9bda85")
	)
	(pad "10" smd rect
		(at -12.75 -1.65 180)
		(size 0.25 2.3)
		(layers "F.Cu" "F.Mask")
		(uuid "f28cc75b-02bc-4e24-96e5-b31a2a7c8916")
	)
	(pad "11" smd rect
		(at -12.25 1.65 180)
		(size 0.25 2.3)
		(layers "F.Cu" "F.Mask")
		(uuid "d49e0c9b-2915-40b3-98c1-5675552e9a44")
	)
	(pad "12" smd rect
		(at -12.25 -1.65 180)
		(size 0.25 2.3)
		(layers "F.Cu" "F.Mask")
		(uuid "82390447-b9af-45f0-be1a-9d7d95289918")
	)
	(pad "13" smd rect
		(at -11.75 1.65 180)
		(size 0.25 2.3)
		(layers "F.Cu" "F.Mask")
		(uuid "d05ae706-61dd-4b9e-8f0a-cb2fbe5b1e28")
	)
	(pad "14" smd rect
		(at -11.75 -1.65 180)
		(size 0.25 2.3)
		(layers "F.Cu" "F.Mask")
		(uuid "904dc04d-e920-4480-b67a-a87abbb000bf")
	)
	(pad "15" smd rect
		(at -11.25 1.65 180)
		(size 0.25 2.3)
		(layers "F.Cu" "F.Mask")
		(uuid "fcc17a8b-1e3f-49bc-8420-c24e24ebece3")
	)
	(pad "16" smd rect
		(at -11.25 -1.65 180)
		(size 0.25 2.3)
		(layers "F.Cu" "F.Mask")
		(uuid "b93bb512-ca88-4cb8-8934-250c8ad759e9")
	)
	(pad "17" smd rect
		(at -10.75 1.65 180)
		(size 0.25 2.3)
		(layers "F.Cu" "F.Mask")
		(uuid "f53a6bc4-f079-44ff-8333-e3b5ae202c06")
	)
	(pad "18" smd rect
		(at -10.75 -1.65 180)
		(size 0.25 2.3)
		(layers "F.Cu" "F.Mask")
		(uuid "b9438b1e-3e99-4f1d-9582-31d9215ee806")
	)
	(pad "19" smd rect
		(at -10.25 1.65 180)
		(size 0.25 2.3)
		(layers "F.Cu" "F.Mask")
		(uuid "9e5857f2-67eb-4d4e-8211-23f88d5c830e")
	)
	(pad "20" smd rect
		(at -10.25 -1.65 180)
		(size 0.25 2.3)
		(layers "F.Cu" "F.Mask")
		(uuid "f9f13b56-9001-4df4-ac1a-c4a4d5cbdda6")
	)
	(pad "21" smd rect
		(at -9.75 1.65 180)
		(size 0.25 2.3)
		(layers "F.Cu" "F.Mask")
		(uuid "a7347608-1db0-40f7-b100-03f3f5c5b2f9")
	)
	(pad "22" smd rect
		(at -9.75 -1.65 180)
		(size 0.25 2.3)
		(layers "F.Cu" "F.Mask")
		(uuid "b7f2ff26-e404-4fff-9107-024d9f99a4a3")
	)
	(pad "23" smd rect
		(at -9.25 1.65 180)
		(size 0.25 2.3)
		(layers "F.Cu" "F.Mask")
		(uuid "cc09f494-0913-48f7-a626-abb993c23de5")
	)
	(pad "24" smd rect
		(at -9.25 -1.65 180)
		(size 0.25 2.3)
		(layers "F.Cu" "F.Mask")
		(uuid "124ee410-b8d9-425f-9dfc-c18a87e6042e")
	)
	(pad "25" smd rect
		(at -8.75 1.65 180)
		(size 0.25 2.3)
		(layers "F.Cu" "F.Mask")
		(uuid "f0e65fa8-1162-4604-85cc-1b709fd37eb9")
	)
	(pad "26" smd rect
		(at -8.75 -1.65 180)
		(size 0.25 2.3)
		(layers "F.Cu" "F.Mask")
		(uuid "7da2ed81-0872-4e7b-b6bf-322ecf931491")
	)
	(pad "27" smd rect
		(at -8.25 1.65 180)
		(size 0.25 2.3)
		(layers "F.Cu" "F.Mask")
		(uuid "c6458895-0c2b-4953-882a-14483af8e61b")
	)
	(pad "28" smd rect
		(at -8.25 -1.65 180)
		(size 0.25 2.3)
		(layers "F.Cu" "F.Mask")
		(uuid "52d5e407-dbb0-4e64-b3f7-450f4ed62a6b")
	)
	(pad "29" smd rect
		(at -7.75 1.65 180)
		(size 0.25 2.3)
		(layers "F.Cu" "F.Mask")
		(uuid "d291416d-8081-4e0f-854e-51dfcd702dce")
	)
	(pad "30" smd rect
		(at -7.75 -1.65 180)
		(size 0.25 2.3)
		(layers "F.Cu" "F.Mask")
		(uuid "18c9a10a-3996-4014-a8ed-23082d68b7b1")
	)
	(pad "31" smd rect
		(at -7.25 1.65 180)
		(size 0.25 2.3)
		(layers "F.Cu" "F.Mask")
		(uuid "9b7b973a-7e0e-470b-b363-84ade47a71b3")
	)
	(pad "32" smd rect
		(at -7.25 -1.65 180)
		(size 0.25 2.3)
		(layers "F.Cu" "F.Mask")
		(uuid "91c5687e-99d3-49a1-b2ec-665e6206cec8")
	)
	(pad "33" smd rect
		(at -6.75 1.65 180)
		(size 0.25 2.3)
		(layers "F.Cu" "F.Mask")
		(uuid "80d7a209-1f84-432e-9a4b-96faa77588b2")
	)
	(pad "34" smd rect
		(at -6.75 -1.65 180)
		(size 0.25 2.3)
		(layers "F.Cu" "F.Mask")
		(uuid "59906101-023d-4043-99c6-2dcd9c91ea22")
	)
	(pad "35" smd rect
		(at -6.25 1.65 180)
		(size 0.25 2.3)
		(layers "F.Cu" "F.Mask")
		(uuid "1ef08d8f-be9b-4d62-8802-2146509f2794")
	)
	(pad "36" smd rect
		(at -6.25 -1.65 180)
		(size 0.25 2.3)
		(layers "F.Cu" "F.Mask")
		(uuid "55c8b2c9-9464-4e0d-96d2-9b9f9397022b")
	)
	(pad "37" smd rect
		(at -5.75 1.65 180)
		(size 0.25 2.3)
		(layers "F.Cu" "F.Mask")
		(uuid "802c114d-5c08-48de-912b-7abf155ad4d8")
	)
	(pad "38" smd rect
		(at -5.75 -1.65 180)
		(size 0.25 2.3)
		(layers "F.Cu" "F.Mask")
		(uuid "e0e5b845-55f1-497a-a4d8-ff319ee47395")
	)
	(pad "39" smd rect
		(at -5.25 1.65 180)
		(size 0.25 2.3)
		(layers "F.Cu" "F.Mask")
		(uuid "78e93202-9b55-4177-be55-7f5d27dfa9a5")
	)
	(pad "40" smd rect
		(at -5.25 -1.65 180)
		(size 0.25 2.3)
		(layers "F.Cu" "F.Mask")
		(uuid "909b1a80-811d-4883-bfb4-01d0f6961e9e")
	)
	(pad "41" smd rect
		(at -4.75 1.65 180)
		(size 0.25 2.3)
		(layers "F.Cu" "F.Mask")
		(uuid "a14ab64c-3c08-42d6-9b11-873d679dd2f5")
	)
	(pad "42" smd rect
		(at -4.75 -1.65 180)
		(size 0.25 2.3)
		(layers "F.Cu" "F.Mask")
		(uuid "3af1b65a-e55e-4d21-b1c8-fc0d92609810")
	)
	(pad "43" smd rect
		(at -4.25 1.65 180)
		(size 0.25 2.3)
		(layers "F.Cu" "F.Mask")
		(uuid "0f129e54-f8fa-46b9-b387-19a7f338ae4b")
	)
	(pad "44" smd rect
		(at -4.25 -1.65 180)
		(size 0.25 2.3)
		(layers "F.Cu" "F.Mask")
		(uuid "7abbb7f8-6646-457b-a5d2-9d01260f9be7")
	)
	(pad "45" smd rect
		(at -3.75 1.65 180)
		(size 0.25 2.3)
		(layers "F.Cu" "F.Mask")
		(uuid "f0ba1c39-e98c-449a-b409-f252067948ad")
	)
	(pad "46" smd rect
		(at -3.75 -1.65 180)
		(size 0.25 2.3)
		(layers "F.Cu" "F.Mask")
		(uuid "6d6ba11a-4181-4201-ba51-5c5bc7464a19")
	)
	(pad "47" smd rect
		(at -3.25 1.65 180)
		(size 0.25 2.3)
		(layers "F.Cu" "F.Mask")
		(uuid "872ec396-e746-4319-a283-06d8f0bdcaa0")
	)
	(pad "48" smd rect
		(at -3.25 -1.65 180)
		(size 0.25 2.3)
		(layers "F.Cu" "F.Mask")
		(uuid "77794c14-e57c-4cad-985f-5c9f72e22aca")
	)
	(pad "49" smd rect
		(at -2.75 1.65 180)
		(size 0.25 2.3)
		(layers "F.Cu" "F.Mask")
		(uuid "d02c4405-f7b5-4df2-ac8b-ab4179e37878")
	)
	(pad "50" smd rect
		(at -2.75 -1.65 180)
		(size 0.25 2.3)
		(layers "F.Cu" "F.Mask")
		(uuid "bd0b2c27-4b1f-49cb-bfb0-bb67a78a85d6")
	)
	(pad "51" smd rect
		(at -2.25 1.65 180)
		(size 0.25 2.3)
		(layers "F.Cu" "F.Mask")
		(uuid "7842e8ba-ac36-4129-919c-f90de6ae2699")
	)
	(pad "52" smd rect
		(at -2.25 -1.65 180)
		(size 0.25 2.3)
		(layers "F.Cu" "F.Mask")
		(uuid "95baf946-af1d-4ddc-9f74-0bee7bf8899b")
	)
	(pad "53" smd rect
		(at -1.75 1.65 180)
		(size 0.25 2.3)
		(layers "F.Cu" "F.Mask")
		(uuid "471f2989-1b34-4d29-8987-8f1158b42c85")
	)
	(pad "54" smd rect
		(at -1.75 -1.65 180)
		(size 0.25 2.3)
		(layers "F.Cu" "F.Mask")
		(uuid "d0d81cb7-4443-4d41-9f47-135224f99fe5")
	)
	(pad "55" smd rect
		(at -1.25 1.65 180)
		(size 0.25 2.3)
		(layers "F.Cu" "F.Mask")
		(uuid "1596cb4c-3d1c-4bb6-afec-f0122e2bf40c")
	)
	(pad "56" smd rect
		(at -1.25 -1.65 180)
		(size 0.25 2.3)
		(layers "F.Cu" "F.Mask")
		(uuid "b3cfd08c-89e9-4972-af73-d68b2c3f133d")
	)
	(pad "57" smd rect
		(at -0.75 1.65 180)
		(size 0.25 2.3)
		(layers "F.Cu" "F.Mask")
		(uuid "96f4b96d-c112-4576-902c-2e9990304ae2")
	)
	(pad "58" smd rect
		(at -0.75 -1.65 180)
		(size 0.25 2.3)
		(layers "F.Cu" "F.Mask")
		(uuid "6e688afb-15e0-4d96-a7e0-df79d58976b9")
	)
	(pad "59" smd rect
		(at -0.25 1.65 180)
		(size 0.25 2.3)
		(layers "F.Cu" "F.Mask")
		(uuid "6fc50f72-02ac-460a-a5bc-3297f6f62bbf")
	)
	(pad "60" smd rect
		(at -0.25 -1.65 180)
		(size 0.25 2.3)
		(layers "F.Cu" "F.Mask")
		(uuid "ed5db4ee-391d-41c7-8d27-04f4839ee3b2")
	)
	(pad "61" smd rect
		(at 0.25 1.65 180)
		(size 0.25 2.3)
		(layers "F.Cu" "F.Mask")
		(uuid "ac4b4c7d-6458-4cdc-9f5e-9483e1934c94")
	)
	(pad "62" smd rect
		(at 0.25 -1.65 180)
		(size 0.25 2.3)
		(layers "F.Cu" "F.Mask")
		(uuid "42307000-6cbf-4c2d-b24b-9acaa6d9cc93")
	)
	(pad "63" smd rect
		(at 0.75 1.65 180)
		(size 0.25 2.3)
		(layers "F.Cu" "F.Mask")
		(uuid "0c38f0c8-e246-4e31-9d2c-ba0d203bd696")
	)
	(pad "64" smd rect
		(at 0.75 -1.65 180)
		(size 0.25 2.3)
		(layers "F.Cu" "F.Mask")
		(uuid "b89e5326-4d33-4741-833f-3fe951d2cd84")
	)
	(pad "65" smd rect
		(at 1.25 1.65 180)
		(size 0.25 2.3)
		(layers "F.Cu" "F.Mask")
		(uuid "569ab8ba-b8c8-4007-a811-89ff0122d5ea")
	)
	(pad "66" smd rect
		(at 1.25 -1.65 180)
		(size 0.25 2.3)
		(layers "F.Cu" "F.Mask")
		(uuid "977fdc2f-3776-4ff4-943d-26b0025da18a")
	)
	(pad "67" smd rect
		(at 1.75 1.65 180)
		(size 0.25 2.3)
		(layers "F.Cu" "F.Mask")
		(uuid "9c3d9ccc-ecab-4114-916c-9f612b4e2881")
	)
	(pad "68" smd rect
		(at 1.75 -1.65 180)
		(size 0.25 2.3)
		(layers "F.Cu" "F.Mask")
		(uuid "a6f73932-78a4-4c4f-a70a-3e9d91db9c48")
	)
	(pad "69" smd rect
		(at 2.25 1.65 180)
		(size 0.25 2.3)
		(layers "F.Cu" "F.Mask")
		(uuid "42fb535c-c848-46fe-b0d0-255d437e5ee6")
	)
	(pad "70" smd rect
		(at 2.25 -1.65 180)
		(size 0.25 2.3)
		(layers "F.Cu" "F.Mask")
		(uuid "81876245-c976-44ff-a9be-ce5808954d88")
	)
	(pad "71" smd rect
		(at 2.75 1.65 180)
		(size 0.25 2.3)
		(layers "F.Cu" "F.Mask")
		(uuid "0313dad8-6558-449a-941d-ef51a8cc2f01")
	)
	(pad "72" smd rect
		(at 2.75 -1.65 180)
		(size 0.25 2.3)
		(layers "F.Cu" "F.Mask")
		(uuid "e9889d64-8c6e-4558-9eeb-cf3e951f0ebd")
	)
	(pad "73" smd rect
		(at 3.25 1.65 180)
		(size 0.25 2.3)
		(layers "F.Cu" "F.Mask")
		(uuid "8a90af68-e779-497b-a493-a5a477d44cfe")
	)
	(pad "74" smd rect
		(at 3.25 -1.65 180)
		(size 0.25 2.3)
		(layers "F.Cu" "F.Mask")
		(uuid "02ce6385-1c0e-4b2e-9e11-7ec8374bfe49")
	)
	(pad "75" smd rect
		(at 3.75 1.65 180)
		(size 0.25 2.3)
		(layers "F.Cu" "F.Mask")
		(uuid "62009c27-ecc0-4630-8b1b-999b6e3d08de")
	)
	(pad "76" smd rect
		(at 3.75 -1.65 180)
		(size 0.25 2.3)
		(layers "F.Cu" "F.Mask")
		(uuid "4fe1721f-083e-4d0b-bd54-11bf979bdf20")
	)
	(pad "77" smd rect
		(at 4.25 1.65 180)
		(size 0.25 2.3)
		(layers "F.Cu" "F.Mask")
		(uuid "e74125b2-37dc-4ce8-811f-1f2b5065651e")
	)
	(pad "78" smd rect
		(at 4.25 -1.65 180)
		(size 0.25 2.3)
		(layers "F.Cu" "F.Mask")
		(uuid "58a6697b-5483-491e-92f2-5fab2b679dee")
	)
	(pad "79" smd rect
		(at 4.75 1.65 180)
		(size 0.25 2.3)
		(layers "F.Cu" "F.Mask")
		(uuid "938e83c5-022a-435a-b2c3-086b6ead3d98")
	)
	(pad "80" smd rect
		(at 4.75 -1.65 180)
		(size 0.25 2.3)
		(layers "F.Cu" "F.Mask")
		(uuid "a080d8dd-2a9b-4021-8671-d8d81b395447")
	)
	(pad "81" smd rect
		(at 5.25 1.65 180)
		(size 0.25 2.3)
		(layers "F.Cu" "F.Mask")
		(uuid "ba7911e3-3e7a-4175-a849-6cababf3ea9d")
	)
	(pad "82" smd rect
		(at 5.25 -1.65 180)
		(size 0.25 2.3)
		(layers "F.Cu" "F.Mask")
		(uuid "ec1c3a29-f851-4f0b-ac24-ff96c6285e5e")
	)
	(pad "83" smd rect
		(at 5.75 1.65 180)
		(size 0.25 2.3)
		(layers "F.Cu" "F.Mask")
		(uuid "c636edd5-d5a1-450d-8eea-1448785be3ae")
	)
	(pad "84" smd rect
		(at 5.75 -1.65 180)
		(size 0.25 2.3)
		(layers "F.Cu" "F.Mask")
		(uuid "d7d97a2a-4875-4dbf-8185-8f1a9cd30a1a")
	)
	(pad "85" smd rect
		(at 6.25 1.65 180)
		(size 0.25 2.3)
		(layers "F.Cu" "F.Mask")
		(uuid "513f843e-5f2f-4c24-953c-66a5bb00e773")
	)
	(pad "86" smd rect
		(at 6.25 -1.65 180)
		(size 0.25 2.3)
		(layers "F.Cu" "F.Mask")
		(uuid "1d895f07-c12a-461f-ad29-8cc9d9590036")
	)
	(pad "87" smd rect
		(at 6.75 1.65 180)
		(size 0.25 2.3)
		(layers "F.Cu" "F.Mask")
		(uuid "3ed3de31-006e-4044-8ee7-2c9bd655e931")
	)
	(pad "88" smd rect
		(at 6.75 -1.65 180)
		(size 0.25 2.3)
		(layers "F.Cu" "F.Mask")
		(uuid "255317b1-7b0b-407b-a33e-23b84ba52849")
	)
	(pad "89" smd rect
		(at 7.25 1.65 180)
		(size 0.25 2.3)
		(layers "F.Cu" "F.Mask")
		(uuid "a78a52ef-41de-401c-b5a3-8596e704a769")
	)
	(pad "90" smd rect
		(at 7.25 -1.65 180)
		(size 0.25 2.3)
		(layers "F.Cu" "F.Mask")
		(uuid "8be3e1c1-0680-4f5f-a1ef-e47fd93ceb5f")
	)
	(pad "91" smd rect
		(at 7.75 1.65 180)
		(size 0.25 2.3)
		(layers "F.Cu" "F.Mask")
		(uuid "921f8a16-235e-4a70-8d56-c389ae996ae2")
	)
	(pad "92" smd rect
		(at 7.75 -1.65 180)
		(size 0.25 2.3)
		(layers "F.Cu" "F.Mask")
		(uuid "e8e5a511-6188-4998-b675-189637964eb1")
	)
	(pad "93" smd rect
		(at 8.25 1.65 180)
		(size 0.25 2.3)
		(layers "F.Cu" "F.Mask")
		(uuid "fd3128a8-fdca-4da0-8877-974faf02f102")
	)
	(pad "94" smd rect
		(at 8.25 -1.65 180)
		(size 0.25 2.3)
		(layers "F.Cu" "F.Mask")
		(uuid "ad0a5e6a-58ee-42d3-a669-15d6aef27002")
	)
	(pad "95" smd rect
		(at 8.75 1.65 180)
		(size 0.25 2.3)
		(layers "F.Cu" "F.Mask")
		(uuid "57dd3ad0-556d-48f0-95a1-9dca2b61cce3")
	)
	(pad "96" smd rect
		(at 8.75 -1.65 180)
		(size 0.25 2.3)
		(layers "F.Cu" "F.Mask")
		(uuid "d9091307-00f6-4074-8e2a-de253306bd83")
	)
	(pad "97" smd rect
		(at 9.25 1.65 180)
		(size 0.25 2.3)
		(layers "F.Cu" "F.Mask")
		(uuid "e73fc5f8-e950-4fd0-8d12-11b3b4b19775")
	)
	(pad "98" smd rect
		(at 9.25 -1.65 180)
		(size 0.25 2.3)
		(layers "F.Cu" "F.Mask")
		(uuid "53d8d082-bcb8-477b-a00b-043a5d6aa65e")
	)
	(pad "99" smd rect
		(at 9.75 1.65 180)
		(size 0.25 2.3)
		(layers "F.Cu" "F.Mask")
		(uuid "37706284-c825-4013-b1f6-fe21e659ce79")
	)
	(pad "100" smd rect
		(at 9.75 -1.65 180)
		(size 0.25 2.3)
		(layers "F.Cu" "F.Mask")
		(uuid "e69e963c-742b-4816-a338-6e788bc8ca31")
	)
	(pad "101" smd rect
		(at 10.25 1.65 180)
		(size 0.25 2.3)
		(layers "F.Cu" "F.Mask")
		(uuid "2c29193c-0b68-4ffd-a355-8db533c644f0")
	)
	(pad "102" smd rect
		(at 10.25 -1.65 180)
		(size 0.25 2.3)
		(layers "F.Cu" "F.Mask")
		(uuid "198b52aa-c91f-4bac-8582-bc5688d59824")
	)
	(pad "103" smd rect
		(at 10.75 1.65 180)
		(size 0.25 2.3)
		(layers "F.Cu" "F.Mask")
		(uuid "d60074fa-abb7-43d1-82ae-90b9570347db")
	)
	(pad "104" smd rect
		(at 10.75 -1.65 180)
		(size 0.25 2.3)
		(layers "F.Cu" "F.Mask")
		(uuid "e7ac7cb7-4e7b-424c-a8ec-176dab8e0cd6")
	)
	(pad "105" smd rect
		(at 11.25 1.65 180)
		(size 0.25 2.3)
		(layers "F.Cu" "F.Mask")
		(uuid "1cc469cf-9aa9-40c4-b501-2a4e1b2d7fe2")
	)
	(pad "106" smd rect
		(at 11.25 -1.65 180)
		(size 0.25 2.3)
		(layers "F.Cu" "F.Mask")
		(uuid "ff79a3e8-2ad9-4aaf-acae-6a83f9fcec1f")
	)
	(pad "107" smd rect
		(at 11.75 1.65 180)
		(size 0.25 2.3)
		(layers "F.Cu" "F.Mask")
		(uuid "2b59503b-04b3-46e7-aa09-a74b74454b4e")
	)
	(pad "108" smd rect
		(at 11.75 -1.65 180)
		(size 0.25 2.3)
		(layers "F.Cu" "F.Mask")
		(uuid "5530354c-4c61-4510-8ada-f3233a4ec7f1")
	)
	(pad "109" smd rect
		(at 12.25 1.65 180)
		(size 0.25 2.3)
		(layers "F.Cu" "F.Mask")
		(uuid "831812c1-b5d5-4017-8fcb-735a6f59f92c")
	)
	(pad "110" smd rect
		(at 12.25 -1.65 180)
		(size 0.25 2.3)
		(layers "F.Cu" "F.Mask")
		(uuid "fdbb4d94-87b8-4cbe-8828-60dae4c48756")
	)
	(pad "111" smd rect
		(at 12.75 1.65 180)
		(size 0.25 2.3)
		(layers "F.Cu" "F.Mask")
		(uuid "bfe97b86-8104-4fdd-aad8-6b73f767c9a6")
	)
	(pad "112" smd rect
		(at 12.75 -1.65 180)
		(size 0.25 2.3)
		(layers "F.Cu" "F.Mask")
		(uuid "eeb2c659-1234-4efb-b29e-744004e9b00e")
	)
	(pad "113" smd rect
		(at 13.25 1.65 180)
		(size 0.25 2.3)
		(layers "F.Cu" "F.Mask")
		(uuid "d92bf9a8-bfef-4080-947b-b46eb977a813")
	)
	(pad "114" smd rect
		(at 13.25 -1.65 180)
		(size 0.25 2.3)
		(layers "F.Cu" "F.Mask")
		(uuid "6bcbd7ea-e4d9-4dfd-a656-c62c37886a18")
	)
	(pad "115" smd rect
		(at 13.75 1.65 180)
		(size 0.25 2.3)
		(layers "F.Cu" "F.Mask")
		(uuid "78cf9fea-58bf-43c6-b4c1-a97f1e5ba511")
	)
	(pad "116" smd rect
		(at 13.75 -1.65 180)
		(size 0.25 2.3)
		(layers "F.Cu" "F.Mask")
		(uuid "74441418-abee-42a4-a9d0-9815911e1a2b")
	)
	(pad "117" smd rect
		(at 14.25 1.65 180)
		(size 0.25 2.3)
		(layers "F.Cu" "F.Mask")
		(uuid "d57366ac-905c-42f2-bc63-3035dcdbc328")
	)
	(pad "118" smd rect
		(at 14.25 -1.65 180)
		(size 0.25 2.3)
		(layers "F.Cu" "F.Mask")
		(uuid "c83e2f47-8920-4794-936a-26d6bcd82b2a")
	)
	(pad "119" smd rect
		(at 15 1.65 180)
		(size 0.75 2.3)
		(layers "F.Cu" "F.Mask")
		(uuid "7725c007-5f0f-4f2d-8fe7-6341fbd93ff7")
	)
	(pad "120" smd rect
		(at 15 -1.65 180)
		(size 0.75 2.3)
		(layers "F.Cu" "F.Mask")
		(uuid "f7b9df71-994f-4ff3-80d7-70ebf61bbbff")
	)
	(model "${LSF_KICAD_LIB}/lsf-kicad-lib.3dshapes/Panasonic_AXK_AXK6A2337YG_2x60_P0.50mm_Vertical.wrl"
		(offset
			(xyz 0 0 0)
		)
		(scale
			(xyz 1 1 1)
		)
		(rotate
			(xyz 0 0 0)
		)
	)
)
