(footprint "SAMTEC-SQT-107-01-X-D-RA"
	(version 20240108)
	(generator "pcbnew")
	(generator_version "8.0")
	(layer "F.Cu")
	(descr "SAMTEC PCB Socket 2.00mm pitch 02x07, https://gr.mouser.com/datasheet/2/527/sqt_th-2854651.pdf")
	(tags "SAMTEC Socket 02x07")
	(property "Reference" "REF**"
		(at 5.99 6.295 0)
		(layer "F.SilkS")
		(uuid "bc7d00fe-5032-4b79-8c7f-7f6561a12fd3")
		(effects
			(font
				(size 1 1)
				(thickness 0.15)
			)
		)
	)
	(property "Value" "SAMTEC-SQT-107-01-X-D-RA"
		(at 6 1.3825 0)
		(layer "F.Fab")
		(uuid "19307f5e-6069-4958-b46a-f3d967e5cd56")
		(effects
			(font
				(size 0.5 0.5)
				(thickness 0.125)
			)
		)
	)
	(property "Footprint" ""
		(at 6 -4.445 0)
		(unlocked yes)
		(layer "F.Fab")
		(hide yes)
		(uuid "aeb4f02e-be4e-436a-b890-86ab4c4206de")
		(effects
			(font
				(size 1.27 1.27)
			)
		)
	)
	(property "Datasheet" ""
		(at 6 -4.445 0)
		(unlocked yes)
		(layer "F.Fab")
		(hide yes)
		(uuid "9b7627d1-fbf1-427e-b0bf-985b3fb2efd4")
		(effects
			(font
				(size 1.27 1.27)
			)
		)
	)
	(property "Description" ""
		(at 6 -4.445 0)
		(unlocked yes)
		(layer "F.Fab")
		(hide yes)
		(uuid "a50e1fc1-cfe1-4e5b-a64c-3d087abad0c2")
		(effects
			(font
				(size 1.27 1.27)
			)
		)
	)
	(attr through_hole)
	(fp_poly
		(pts
			(xy -0.255 2.98) (xy -0.255 3.97) (xy 0.255 3.97) (xy 0.255 2.98) (xy 0.25549 2.96867) (xy 0.25697 2.95743)
			(xy 0.25943 2.94635) (xy 0.26284 2.93554) (xy 0.26718 2.92506) (xy 0.27242 2.915) (xy 0.27851 2.90543)
			(xy 0.28542 2.89644) (xy 0.29308 2.88808) (xy 0.30144 2.88041) (xy 0.31044 2.87351) (xy 0.32 2.86742)
			(xy 0.33006 2.86218) (xy 0.34054 2.85784) (xy 0.35136 2.85443) (xy 0.36243 2.85197) (xy 0.37367 2.85049)
			(xy 0.385 2.85) (xy 0.85 2.85) (xy 0.85 1.15) (xy -0.85 1.15) (xy -0.85 2.85) (xy -0.385 2.85) (xy -0.37367 2.85049)
			(xy -0.36242 2.85197) (xy -0.35135 2.85443) (xy -0.34054 2.85784) (xy -0.33006 2.86218) (xy -0.32 2.86742)
			(xy -0.31043 2.87351) (xy -0.30144 2.88042) (xy -0.29307 2.88808) (xy -0.28541 2.89644) (xy -0.27851 2.90544)
			(xy -0.27242 2.915) (xy -0.26718 2.92506) (xy -0.26284 2.93554) (xy -0.25943 2.94636) (xy -0.25697 2.95743)
			(xy -0.25549 2.96867) (xy -0.255 2.98)
		)
		(stroke
			(width 0)
			(type solid)
		)
		(fill solid)
		(layer "F.Paste")
		(uuid "d861d414-3c83-45bb-b9b8-1a811b319398")
	)
	(fp_poly
		(pts
			(xy 0.255 -0.98) (xy 0.255 -1.97) (xy -0.255 -1.97) (xy -0.255 -0.98) (xy -0.25549 -0.96867) (xy -0.25697 -0.95742)
			(xy -0.25943 -0.94635) (xy -0.26284 -0.93554) (xy -0.26718 -0.92506) (xy -0.27242 -0.915) (xy -0.27851 -0.90543)
			(xy -0.28542 -0.89644) (xy -0.29308 -0.88807) (xy -0.30144 -0.88041) (xy -0.31044 -0.87351) (xy -0.32 -0.86742)
			(xy -0.33006 -0.86218) (xy -0.34054 -0.85784) (xy -0.35136 -0.85443) (xy -0.36243 -0.85198) (xy -0.37367 -0.85049)
			(xy -0.385 -0.85) (xy -0.85 -0.85) (xy -0.85 0.85) (xy 0.85 0.85) (xy 0.85 -0.85) (xy 0.385 -0.85)
			(xy 0.37367 -0.8505) (xy 0.36242 -0.85198) (xy 0.35135 -0.85443) (xy 0.34054 -0.85784) (xy 0.33006 -0.86218)
			(xy 0.32 -0.86742) (xy 0.31043 -0.87351) (xy 0.30144 -0.88042) (xy 0.29307 -0.88808) (xy 0.28541 -0.89644)
			(xy 0.27851 -0.90544) (xy 0.27242 -0.915) (xy 0.26718 -0.92506) (xy 0.26284 -0.93554) (xy 0.25943 -0.94636)
			(xy 0.25697 -0.95743) (xy 0.25549 -0.96867) (xy 0.255 -0.98)
		)
		(stroke
			(width 0)
			(type solid)
		)
		(fill solid)
		(layer "F.Paste")
		(uuid "1cee05ab-61de-41f2-801b-40786b54f1d7")
	)
	(fp_poly
		(pts
			(xy 1.745 2.98) (xy 1.745 3.97) (xy 2.255 3.97) (xy 2.255 2.98) (xy 2.25549 2.96867) (xy 2.25698 2.95743)
			(xy 2.25943 2.94635) (xy 2.26284 2.93554) (xy 2.26718 2.92506) (xy 2.27242 2.915) (xy 2.27851 2.90543)
			(xy 2.28542 2.89644) (xy 2.29308 2.88808) (xy 2.30144 2.88041) (xy 2.31044 2.87351) (xy 2.32 2.86742)
			(xy 2.33006 2.86218) (xy 2.34054 2.85784) (xy 2.35136 2.85443) (xy 2.36243 2.85197) (xy 2.37367 2.85049)
			(xy 2.385 2.85) (xy 2.85 2.85) (xy 2.85 1.15) (xy 1.15 1.15) (xy 1.15 2.85) (xy 1.615 2.85) (xy 1.62633 2.85049)
			(xy 1.63758 2.85197) (xy 1.64865 2.85443) (xy 1.65946 2.85784) (xy 1.66994 2.86218) (xy 1.68 2.86742)
			(xy 1.68957 2.87351) (xy 1.69856 2.88042) (xy 1.70693 2.88808) (xy 1.71459 2.89644) (xy 1.72149 2.90544)
			(xy 1.72758 2.915) (xy 1.73282 2.92506) (xy 1.73716 2.93554) (xy 1.74057 2.94636) (xy 1.74303 2.95743)
			(xy 1.74451 2.96867) (xy 1.745 2.98)
		)
		(stroke
			(width 0)
			(type solid)
		)
		(fill solid)
		(layer "F.Paste")
		(uuid "892f97d0-cc6c-472f-9376-1863b74d2dc9")
	)
	(fp_poly
		(pts
			(xy 2.255 -0.98) (xy 2.255 -1.97) (xy 1.745 -1.97) (xy 1.745 -0.98) (xy 1.74451 -0.96867) (xy 1.74303 -0.95742)
			(xy 1.74057 -0.94635) (xy 1.73716 -0.93554) (xy 1.73282 -0.92506) (xy 1.72758 -0.915) (xy 1.72149 -0.90543)
			(xy 1.71458 -0.89644) (xy 1.70692 -0.88807) (xy 1.69856 -0.88041) (xy 1.68956 -0.87351) (xy 1.68 -0.86742)
			(xy 1.66994 -0.86218) (xy 1.65946 -0.85784) (xy 1.64864 -0.85443) (xy 1.63757 -0.85198) (xy 1.62633 -0.85049)
			(xy 1.615 -0.85) (xy 1.15 -0.85) (xy 1.15 0.85) (xy 2.85 0.85) (xy 2.85 -0.85) (xy 2.385 -0.85) (xy 2.37367 -0.8505)
			(xy 2.36242 -0.85198) (xy 2.35135 -0.85443) (xy 2.34054 -0.85784) (xy 2.33006 -0.86218) (xy 2.32 -0.86742)
			(xy 2.31043 -0.87351) (xy 2.30144 -0.88042) (xy 2.29307 -0.88808) (xy 2.28541 -0.89644) (xy 2.27851 -0.90544)
			(xy 2.27242 -0.915) (xy 2.26718 -0.92506) (xy 2.26284 -0.93554) (xy 2.25943 -0.94636) (xy 2.25698 -0.95743)
			(xy 2.25549 -0.96867) (xy 2.255 -0.98)
		)
		(stroke
			(width 0)
			(type solid)
		)
		(fill solid)
		(layer "F.Paste")
		(uuid "c12aab83-edc3-49b9-8ac1-1a2c5115b689")
	)
	(fp_poly
		(pts
			(xy 3.745 2.98) (xy 3.745 3.97) (xy 4.255 3.97) (xy 4.255 2.98) (xy 4.2555 2.96867) (xy 4.25697 2.95743)
			(xy 4.25943 2.94635) (xy 4.26284 2.93554) (xy 4.26718 2.92506) (xy 4.27242 2.915) (xy 4.27851 2.90543)
			(xy 4.28542 2.89644) (xy 4.29308 2.88808) (xy 4.30144 2.88041) (xy 4.31044 2.87351) (xy 4.32 2.86742)
			(xy 4.33006 2.86218) (xy 4.34054 2.85784) (xy 4.35136 2.85443) (xy 4.36243 2.85197) (xy 4.37367 2.85049)
			(xy 4.385 2.85) (xy 4.85 2.85) (xy 4.85 1.15) (xy 3.15 1.15) (xy 3.15 2.85) (xy 3.615 2.85) (xy 3.62633 2.85049)
			(xy 3.63758 2.85197) (xy 3.64865 2.85443) (xy 3.65946 2.85784) (xy 3.66994 2.86218) (xy 3.68 2.86742)
			(xy 3.68957 2.87351) (xy 3.69856 2.88042) (xy 3.70693 2.88808) (xy 3.71459 2.89644) (xy 3.72149 2.90544)
			(xy 3.72758 2.915) (xy 3.73282 2.92506) (xy 3.73716 2.93554) (xy 3.74057 2.94636) (xy 3.74302 2.95743)
			(xy 3.74451 2.96867) (xy 3.745 2.98)
		)
		(stroke
			(width 0)
			(type solid)
		)
		(fill solid)
		(layer "F.Paste")
		(uuid "b19c3d0a-b1d9-4d58-a940-c3ee58f55c7e")
	)
	(fp_poly
		(pts
			(xy 4.255 -0.98) (xy 4.255 -1.97) (xy 3.745 -1.97) (xy 3.745 -0.98) (xy 3.74451 -0.96867) (xy 3.74302 -0.95742)
			(xy 3.74057 -0.94635) (xy 3.73716 -0.93554) (xy 3.73282 -0.92506) (xy 3.72758 -0.915) (xy 3.72149 -0.90543)
			(xy 3.71458 -0.89644) (xy 3.70692 -0.88807) (xy 3.69856 -0.88041) (xy 3.68956 -0.87351) (xy 3.68 -0.86742)
			(xy 3.66994 -0.86218) (xy 3.65946 -0.85784) (xy 3.64864 -0.85443) (xy 3.63757 -0.85198) (xy 3.62633 -0.85049)
			(xy 3.615 -0.85) (xy 3.15 -0.85) (xy 3.15 0.85) (xy 4.85 0.85) (xy 4.85 -0.85) (xy 4.385 -0.85) (xy 4.37367 -0.8505)
			(xy 4.36242 -0.85198) (xy 4.35135 -0.85443) (xy 4.34054 -0.85784) (xy 4.33006 -0.86218) (xy 4.32 -0.86742)
			(xy 4.31043 -0.87351) (xy 4.30144 -0.88042) (xy 4.29307 -0.88808) (xy 4.28541 -0.89644) (xy 4.27851 -0.90544)
			(xy 4.27242 -0.915) (xy 4.26718 -0.92506) (xy 4.26284 -0.93554) (xy 4.25943 -0.94636) (xy 4.25697 -0.95743)
			(xy 4.25549 -0.96867) (xy 4.255 -0.98)
		)
		(stroke
			(width 0)
			(type solid)
		)
		(fill solid)
		(layer "F.Paste")
		(uuid "a8847818-79a5-4960-abd9-84a16c7e05cb")
	)
	(fp_poly
		(pts
			(xy 5.745 2.98) (xy 5.745 3.97) (xy 6.255 3.97) (xy 6.255 2.98) (xy 6.255495 2.96867) (xy 6.256975 2.95743)
			(xy 6.25943 2.94635) (xy 6.262841 2.93554) (xy 6.267181 2.92506) (xy 6.272418 2.915) (xy 6.278512 2.90543)
			(xy 6.285416 2.89644) (xy 6.293078 2.88808) (xy 6.30144 2.88041) (xy 6.310438 2.87351) (xy 6.320003 2.86742)
			(xy 6.330063 2.86218) (xy 6.340541 2.85784) (xy 6.351358 2.85443) (xy 6.36243 2.85197) (xy 6.373674 2.85049)
			(xy 6.385 2.85) (xy 6.85 2.85) (xy 6.85 1.15) (xy 5.15 1.15) (xy 5.15 2.85) (xy 5.615 2.85) (xy 5.62633 2.85049)
			(xy 5.637575 2.85197) (xy 5.648647 2.85443) (xy 5.659463 2.85784) (xy 5.669941 2.86218) (xy 5.680001 2.86742)
			(xy 5.689566 2.87351) (xy 5.698563 2.88042) (xy 5.706925 2.88808) (xy 5.714587 2.89644) (xy 5.721491 2.90544)
			(xy 5.727584 2.915) (xy 5.732821 2.92506) (xy 5.737161 2.93554) (xy 5.740571 2.94636) (xy 5.743025 2.95743)
			(xy 5.744506 2.96867) (xy 5.745 2.98)
		)
		(stroke
			(width 0)
			(type solid)
		)
		(fill solid)
		(layer "F.Paste")
		(uuid "b3ca4260-d8f0-4d8f-9f8e-818908fb319d")
	)
	(fp_poly
		(pts
			(xy 6.255 -0.98) (xy 6.255 -1.97) (xy 5.745 -1.97) (xy 5.745 -0.98) (xy 5.744505 -0.96867) (xy 5.743025 -0.95742)
			(xy 5.74057 -0.94635) (xy 5.737159 -0.93554) (xy 5.732819 -0.92506) (xy 5.727582 -0.915) (xy 5.721488 -0.90543)
			(xy 5.714584 -0.89644) (xy 5.706922 -0.88807) (xy 5.69856 -0.88041) (xy 5.689562 -0.87351) (xy 5.679997 -0.86742)
			(xy 5.669937 -0.86218) (xy 5.659459 -0.85784) (xy 5.648642 -0.85443) (xy 5.63757 -0.85198) (xy 5.626326 -0.85049)
			(xy 5.615 -0.85) (xy 5.15 -0.85) (xy 5.15 0.85) (xy 6.85 0.85) (xy 6.85 -0.85) (xy 6.385 -0.85) (xy 6.37367 -0.8505)
			(xy 6.362425 -0.85198) (xy 6.351353 -0.85443) (xy 6.340537 -0.85784) (xy 6.330059 -0.86218) (xy 6.319999 -0.86742)
			(xy 6.310434 -0.87351) (xy 6.301437 -0.88042) (xy 6.293075 -0.88808) (xy 6.285413 -0.89644) (xy 6.278509 -0.90544)
			(xy 6.272416 -0.915) (xy 6.267179 -0.92506) (xy 6.262839 -0.93554) (xy 6.259429 -0.94636) (xy 6.256975 -0.95743)
			(xy 6.255494 -0.96867) (xy 6.255 -0.98)
		)
		(stroke
			(width 0)
			(type solid)
		)
		(fill solid)
		(layer "F.Paste")
		(uuid "35c9b81c-6306-43bd-9bc6-c899dc627571")
	)
	(fp_poly
		(pts
			(xy 7.745 2.98) (xy 7.745 3.97) (xy 8.255 3.97) (xy 8.255 2.98) (xy 8.25549 2.96867) (xy 8.25698 2.95743)
			(xy 8.25943 2.94635) (xy 8.26284 2.93554) (xy 8.26718 2.92506) (xy 8.27242 2.915) (xy 8.27851 2.90543)
			(xy 8.28542 2.89644) (xy 8.29308 2.88808) (xy 8.30144 2.88041) (xy 8.31044 2.87351) (xy 8.32 2.86742)
			(xy 8.33006 2.86218) (xy 8.34054 2.85784) (xy 8.35136 2.85443) (xy 8.36243 2.85197) (xy 8.37367 2.85049)
			(xy 8.385 2.85) (xy 8.85 2.85) (xy 8.85 1.15) (xy 7.15 1.15) (xy 7.15 2.85) (xy 7.615 2.85) (xy 7.62633 2.85049)
			(xy 7.63758 2.85197) (xy 7.64865 2.85443) (xy 7.65946 2.85784) (xy 7.66994 2.86218) (xy 7.68 2.86742)
			(xy 7.68957 2.87351) (xy 7.69856 2.88042) (xy 7.70693 2.88808) (xy 7.71459 2.89644) (xy 7.72149 2.90544)
			(xy 7.72758 2.915) (xy 7.73282 2.92506) (xy 7.73716 2.93554) (xy 7.74057 2.94636) (xy 7.74303 2.95743)
			(xy 7.74451 2.96867) (xy 7.745 2.98)
		)
		(stroke
			(width 0)
			(type solid)
		)
		(fill solid)
		(layer "F.Paste")
		(uuid "59dfc151-0ed6-4a69-9dfd-7b1cde6f4e49")
	)
	(fp_poly
		(pts
			(xy 8.255 -0.98) (xy 8.255 -1.97) (xy 7.745 -1.97) (xy 7.745 -0.98) (xy 7.7445 -0.96867) (xy 7.74303 -0.95742)
			(xy 7.74057 -0.94635) (xy 7.73716 -0.93554) (xy 7.73282 -0.92506) (xy 7.72758 -0.915) (xy 7.72149 -0.90543)
			(xy 7.71458 -0.89644) (xy 7.70692 -0.88807) (xy 7.69856 -0.88041) (xy 7.68956 -0.87351) (xy 7.68 -0.86742)
			(xy 7.66994 -0.86218) (xy 7.65946 -0.85784) (xy 7.64864 -0.85443) (xy 7.63757 -0.85198) (xy 7.62633 -0.85049)
			(xy 7.615 -0.85) (xy 7.15 -0.85) (xy 7.15 0.85) (xy 8.85 0.85) (xy 8.85 -0.85) (xy 8.385 -0.85) (xy 8.37367 -0.8505)
			(xy 8.36242 -0.85198) (xy 8.35135 -0.85443) (xy 8.34054 -0.85784) (xy 8.33006 -0.86218) (xy 8.32 -0.86742)
			(xy 8.31043 -0.87351) (xy 8.30144 -0.88042) (xy 8.29307 -0.88808) (xy 8.28541 -0.89644) (xy 8.27851 -0.90544)
			(xy 8.27242 -0.915) (xy 8.26718 -0.92506) (xy 8.26284 -0.93554) (xy 8.25943 -0.94636) (xy 8.25698 -0.95743)
			(xy 8.25549 -0.96867) (xy 8.255 -0.98)
		)
		(stroke
			(width 0)
			(type solid)
		)
		(fill solid)
		(layer "F.Paste")
		(uuid "d24467e8-dc38-40d0-b988-50450551f8f1")
	)
	(fp_poly
		(pts
			(xy 9.745 2.98) (xy 9.745 3.97) (xy 10.255 3.97) (xy 10.255 2.98) (xy 10.25549 2.96867) (xy 10.25697 2.95743)
			(xy 10.25943 2.94635) (xy 10.26284 2.93554) (xy 10.26718 2.92506) (xy 10.27242 2.915) (xy 10.27851 2.90543)
			(xy 10.28542 2.89644) (xy 10.29308 2.88808) (xy 10.30144 2.88041) (xy 10.31044 2.87351) (xy 10.32 2.86742)
			(xy 10.33006 2.86218) (xy 10.34054 2.85784) (xy 10.35136 2.85443) (xy 10.36243 2.85197) (xy 10.37367 2.85049)
			(xy 10.385 2.85) (xy 10.85 2.85) (xy 10.85 1.15) (xy 9.15 1.15) (xy 9.15 2.85) (xy 9.615 2.85) (xy 9.62633 2.85049)
			(xy 9.63758 2.85197) (xy 9.64865 2.85443) (xy 9.65946 2.85784) (xy 9.66994 2.86218) (xy 9.68 2.86742)
			(xy 9.68957 2.87351) (xy 9.69856 2.88042) (xy 9.70693 2.88808) (xy 9.71459 2.89644) (xy 9.72149 2.90544)
			(xy 9.72758 2.915) (xy 9.73282 2.92506) (xy 9.73716 2.93554) (xy 9.74057 2.94636) (xy 9.74302 2.95743)
			(xy 9.74451 2.96867) (xy 9.745 2.98)
		)
		(stroke
			(width 0)
			(type solid)
		)
		(fill solid)
		(layer "F.Paste")
		(uuid "10b8e0cf-3003-497f-873b-49f2894e13aa")
	)
	(fp_poly
		(pts
			(xy 10.255 -0.98) (xy 10.255 -1.97) (xy 9.745 -1.97) (xy 9.745 -0.98) (xy 9.74451 -0.96867) (xy 9.74302 -0.95742)
			(xy 9.74057 -0.94635) (xy 9.73716 -0.93554) (xy 9.73282 -0.92506) (xy 9.72758 -0.915) (xy 9.72149 -0.90543)
			(xy 9.71458 -0.89644) (xy 9.70692 -0.88807) (xy 9.69856 -0.88041) (xy 9.68956 -0.87351) (xy 9.68 -0.86742)
			(xy 9.66994 -0.86218) (xy 9.65946 -0.85784) (xy 9.64864 -0.85443) (xy 9.63757 -0.85198) (xy 9.62633 -0.85049)
			(xy 9.615 -0.85) (xy 9.15 -0.85) (xy 9.15 0.85) (xy 10.85 0.85) (xy 10.85 -0.85) (xy 10.385 -0.85)
			(xy 10.37367 -0.8505) (xy 10.36242 -0.85198) (xy 10.35135 -0.85443) (xy 10.34054 -0.85784) (xy 10.33006 -0.86218)
			(xy 10.32 -0.86742) (xy 10.31043 -0.87351) (xy 10.30144 -0.88042) (xy 10.29307 -0.88808) (xy 10.28541 -0.89644)
			(xy 10.27851 -0.90544) (xy 10.27242 -0.915) (xy 10.26718 -0.92506) (xy 10.26284 -0.93554) (xy 10.25943 -0.94636)
			(xy 10.25697 -0.95743) (xy 10.25549 -0.96867) (xy 10.255 -0.98)
		)
		(stroke
			(width 0)
			(type solid)
		)
		(fill solid)
		(layer "F.Paste")
		(uuid "9601988b-a48a-4805-a1cf-d5a8febfd887")
	)
	(fp_poly
		(pts
			(xy 11.745 2.98) (xy 11.745 3.97) (xy 12.255 3.97) (xy 12.255 2.98) (xy 12.25549 2.96867) (xy 12.25697 2.95743)
			(xy 12.25943 2.94635) (xy 12.26284 2.93554) (xy 12.26718 2.92506) (xy 12.27242 2.915) (xy 12.27851 2.90543)
			(xy 12.28542 2.89644) (xy 12.29308 2.88808) (xy 12.30144 2.88041) (xy 12.31044 2.87351) (xy 12.32 2.86742)
			(xy 12.33006 2.86218) (xy 12.34054 2.85784) (xy 12.35136 2.85443) (xy 12.36243 2.85197) (xy 12.37367 2.85049)
			(xy 12.385 2.85) (xy 12.85 2.85) (xy 12.85 1.15) (xy 11.15 1.15) (xy 11.15 2.85) (xy 11.615 2.85)
			(xy 11.62633 2.85049) (xy 11.63758 2.85197) (xy 11.64865 2.85443) (xy 11.65946 2.85784) (xy 11.66994 2.86218)
			(xy 11.68 2.86742) (xy 11.68957 2.87351) (xy 11.69856 2.88042) (xy 11.70693 2.88808) (xy 11.71459 2.89644)
			(xy 11.72149 2.90544) (xy 11.72758 2.915) (xy 11.73282 2.92506) (xy 11.73716 2.93554) (xy 11.74057 2.94636)
			(xy 11.74303 2.95743) (xy 11.74451 2.96867) (xy 11.745 2.98)
		)
		(stroke
			(width 0)
			(type solid)
		)
		(fill solid)
		(layer "F.Paste")
		(uuid "20f6e724-3293-435b-b7b3-cc2c4e7af442")
	)
	(fp_poly
		(pts
			(xy 12.255 -0.98) (xy 12.255 -1.97) (xy 11.745 -1.97) (xy 11.745 -0.98) (xy 11.74451 -0.96867) (xy 11.74303 -0.95742)
			(xy 11.74057 -0.94635) (xy 11.73716 -0.93554) (xy 11.73282 -0.92506) (xy 11.72758 -0.915) (xy 11.72149 -0.90543)
			(xy 11.71458 -0.89644) (xy 11.70692 -0.88807) (xy 11.69856 -0.88041) (xy 11.68956 -0.87351) (xy 11.68 -0.86742)
			(xy 11.66994 -0.86218) (xy 11.65946 -0.85784) (xy 11.64864 -0.85443) (xy 11.63757 -0.85198) (xy 11.62633 -0.85049)
			(xy 11.615 -0.85) (xy 11.15 -0.85) (xy 11.15 0.85) (xy 12.85 0.85) (xy 12.85 -0.85) (xy 12.385 -0.85)
			(xy 12.37367 -0.8505) (xy 12.36242 -0.85198) (xy 12.35135 -0.85443) (xy 12.34054 -0.85784) (xy 12.33006 -0.86218)
			(xy 12.32 -0.86742) (xy 12.31043 -0.87351) (xy 12.30144 -0.88042) (xy 12.29307 -0.88808) (xy 12.28541 -0.89644)
			(xy 12.27851 -0.90544) (xy 12.27242 -0.915) (xy 12.26718 -0.92506) (xy 12.26284 -0.93554) (xy 12.25943 -0.94636)
			(xy 12.25697 -0.95743) (xy 12.25549 -0.96867) (xy 12.255 -0.98)
		)
		(stroke
			(width 0)
			(type solid)
		)
		(fill solid)
		(layer "F.Paste")
		(uuid "950528c5-5e60-4df4-bdf4-479fe1b10876")
	)
	(fp_line
		(start -1.254 -7.62)
		(end 13.246 -7.62)
		(stroke
			(width 0.12)
			(type default)
		)
		(layer "F.SilkS")
		(uuid "8b35a911-fd9b-4154-851e-e240bb33a967")
	)
	(fp_line
		(start -1.254 -1.27)
		(end -1.254 -7.62)
		(stroke
			(width 0.12)
			(type default)
		)
		(layer "F.SilkS")
		(uuid "362f8ea0-6890-432b-a7eb-1f643e9c4ba5")
	)
	(fp_line
		(start 13.246 -7.62)
		(end 13.246 -1.27)
		(stroke
			(width 0.12)
			(type default)
		)
		(layer "F.SilkS")
		(uuid "e9d3dab5-a40a-42b1-869e-d956141f443d")
	)
	(fp_circle
		(center 0 0)
		(end 0.806 0)
		(stroke
			(width 0)
			(type solid)
		)
		(fill solid)
		(layer "B.Mask")
		(uuid "a17c9e0c-a70b-4c40-b479-5f135e06885e")
	)
	(fp_circle
		(center 0 2)
		(end 0.806 2)
		(stroke
			(width 0)
			(type solid)
		)
		(fill solid)
		(layer "B.Mask")
		(uuid "f6963ed6-2894-47ce-8ca5-774079876d55")
	)
	(fp_circle
		(center 2 0)
		(end 2.806 0)
		(stroke
			(width 0)
			(type solid)
		)
		(fill solid)
		(layer "B.Mask")
		(uuid "e9f1fe12-9c90-4cdf-aa2f-09222cf5a1ee")
	)
	(fp_circle
		(center 2 2)
		(end 2.806 2)
		(stroke
			(width 0)
			(type solid)
		)
		(fill solid)
		(layer "B.Mask")
		(uuid "d1e38c2d-ef23-4673-95df-ab519c146ea2")
	)
	(fp_circle
		(center 4 0)
		(end 4.806 0)
		(stroke
			(width 0)
			(type solid)
		)
		(fill solid)
		(layer "B.Mask")
		(uuid "4d96240b-71f0-462c-b16d-3b91b8f7b7af")
	)
	(fp_circle
		(center 4 2)
		(end 4.806 2)
		(stroke
			(width 0)
			(type solid)
		)
		(fill solid)
		(layer "B.Mask")
		(uuid "4b097c71-8677-49fa-9277-89c06651c7d5")
	)
	(fp_circle
		(center 6 0)
		(end 6.806 0)
		(stroke
			(width 0)
			(type solid)
		)
		(fill solid)
		(layer "B.Mask")
		(uuid "1bd18419-b752-4814-b09b-2e1cc3db57ec")
	)
	(fp_circle
		(center 6 2)
		(end 6.806 2)
		(stroke
			(width 0)
			(type solid)
		)
		(fill solid)
		(layer "B.Mask")
		(uuid "a8d1f028-15c9-49ec-b6a6-d9d230059fe5")
	)
	(fp_circle
		(center 8 0)
		(end 8.806 0)
		(stroke
			(width 0)
			(type solid)
		)
		(fill solid)
		(layer "B.Mask")
		(uuid "b203fd0a-5510-4ece-ab09-47595d5f6c8b")
	)
	(fp_circle
		(center 8 2)
		(end 8.806 2)
		(stroke
			(width 0)
			(type solid)
		)
		(fill solid)
		(layer "B.Mask")
		(uuid "ac372527-be54-4ae1-a2ca-b06f29a94295")
	)
	(fp_circle
		(center 10 0)
		(end 10.806 0)
		(stroke
			(width 0)
			(type solid)
		)
		(fill solid)
		(layer "B.Mask")
		(uuid "afda86a1-89ac-4bb6-b75a-fb3403fe5e07")
	)
	(fp_circle
		(center 10 2)
		(end 10.806 2)
		(stroke
			(width 0)
			(type solid)
		)
		(fill solid)
		(layer "B.Mask")
		(uuid "3bcc72c3-990e-4c4d-b8da-bbcaf290ae9a")
	)
	(fp_circle
		(center 12 0)
		(end 12.806 0)
		(stroke
			(width 0)
			(type solid)
		)
		(fill solid)
		(layer "B.Mask")
		(uuid "603d94c7-ba79-4903-9f74-4b7719b34d3f")
	)
	(fp_circle
		(center 12 2)
		(end 12.806 2)
		(stroke
			(width 0)
			(type solid)
		)
		(fill solid)
		(layer "B.Mask")
		(uuid "ab44675e-ad6f-4d1a-9c93-1115580d1f9a")
	)
	(fp_circle
		(center 0 0)
		(end 0.806 0)
		(stroke
			(width 0)
			(type solid)
		)
		(fill solid)
		(layer "F.Mask")
		(uuid "6feeb5ab-20a1-4b18-997b-e97849fbcfb7")
	)
	(fp_circle
		(center 0 2)
		(end 0.806 2)
		(stroke
			(width 0)
			(type solid)
		)
		(fill solid)
		(layer "F.Mask")
		(uuid "e4513fa5-8d19-4b36-88a4-5db3503828d9")
	)
	(fp_circle
		(center 2 0)
		(end 2.806 0)
		(stroke
			(width 0)
			(type solid)
		)
		(fill solid)
		(layer "F.Mask")
		(uuid "75342ff9-d141-4345-8cb9-dba83d88f124")
	)
	(fp_circle
		(center 2 2)
		(end 2.806 2)
		(stroke
			(width 0)
			(type solid)
		)
		(fill solid)
		(layer "F.Mask")
		(uuid "e863d74c-a759-4aac-9516-059cde6908ee")
	)
	(fp_circle
		(center 4 0)
		(end 4.806 0)
		(stroke
			(width 0)
			(type solid)
		)
		(fill solid)
		(layer "F.Mask")
		(uuid "964d0827-1884-4569-83b1-11b96c0d1623")
	)
	(fp_circle
		(center 4 2)
		(end 4.806 2)
		(stroke
			(width 0)
			(type solid)
		)
		(fill solid)
		(layer "F.Mask")
		(uuid "919dbff9-3ef7-4fe9-b205-351118ef0378")
	)
	(fp_circle
		(center 6 0)
		(end 6.806 0)
		(stroke
			(width 0)
			(type solid)
		)
		(fill solid)
		(layer "F.Mask")
		(uuid "41f20f45-1d86-4308-9955-70725a7ae372")
	)
	(fp_circle
		(center 6 2)
		(end 6.806 2)
		(stroke
			(width 0)
			(type solid)
		)
		(fill solid)
		(layer "F.Mask")
		(uuid "9e5d2887-a480-4cb3-a06e-c91f354f773b")
	)
	(fp_circle
		(center 8 0)
		(end 8.806 0)
		(stroke
			(width 0)
			(type solid)
		)
		(fill solid)
		(layer "F.Mask")
		(uuid "c0a325d7-6754-4613-9985-deae3ecbeaba")
	)
	(fp_circle
		(center 8 2)
		(end 8.806 2)
		(stroke
			(width 0)
			(type solid)
		)
		(fill solid)
		(layer "F.Mask")
		(uuid "f5497c2d-7745-4edf-b3a3-96c6ac3aba1b")
	)
	(fp_circle
		(center 10 0)
		(end 10.806 0)
		(stroke
			(width 0)
			(type solid)
		)
		(fill solid)
		(layer "F.Mask")
		(uuid "6dd9dbaa-3e1d-4b63-938a-5199c29c6be5")
	)
	(fp_circle
		(center 10 2)
		(end 10.806 2)
		(stroke
			(width 0)
			(type solid)
		)
		(fill solid)
		(layer "F.Mask")
		(uuid "1188ce1e-8544-4724-9510-e3282d876fba")
	)
	(fp_circle
		(center 12 0)
		(end 12.806 0)
		(stroke
			(width 0)
			(type solid)
		)
		(fill solid)
		(layer "F.Mask")
		(uuid "6df515da-e563-42f4-9ee8-42393d6ffcff")
	)
	(fp_circle
		(center 12 2)
		(end 12.806 2)
		(stroke
			(width 0)
			(type solid)
		)
		(fill solid)
		(layer "F.Mask")
		(uuid "674bd2c7-08a4-44ec-98c2-343d4ed17d72")
	)
	(fp_poly
		(pts
			(xy -3.39 6.51) (xy -3.39 -4.51) (xy 15.39 -4.51) (xy 15.39 6.51) (xy -3.39 6.51)
		)
		(stroke
			(width 0.05)
			(type solid)
		)
		(fill none)
		(layer "B.CrtYd")
		(uuid "65224238-afbd-4972-94f4-2cad00e29228")
	)
	(fp_poly
		(pts
			(xy 13.84 4.6) (xy 13.84 -8.31) (xy -1.83 -8.31) (xy -1.83 4.6)
		)
		(stroke
			(width 0.05)
			(type solid)
		)
		(fill none)
		(layer "F.CrtYd")
		(uuid "af7066d7-29ae-484b-b0cc-023ae7d7bdbc")
	)
	(fp_line
		(start -1.149 -7.62)
		(end -1.149 -1.651)
		(stroke
			(width 0.1)
			(type solid)
		)
		(layer "F.Fab")
		(uuid "d18c68b5-a3c6-41f1-baba-83380a43870d")
	)
	(fp_line
		(start -1.149 -1.651)
		(end -1.149 -1.27)
		(stroke
			(width 0.1)
			(type solid)
		)
		(layer "F.Fab")
		(uuid "31599231-8043-4253-9df4-05710da403b0")
	)
	(fp_line
		(start -1.149 -1.651)
		(end 1 -1.651)
		(stroke
			(width 0.1)
			(type solid)
		)
		(layer "F.Fab")
		(uuid "86d66afe-b60a-437f-a695-3503f1b47ddf")
	)
	(fp_line
		(start -1.149 -1.27)
		(end -0.514 -1.27)
		(stroke
			(width 0.1)
			(type solid)
		)
		(layer "F.Fab")
		(uuid "9c72fd50-0784-4996-b006-793a0573f9ff")
	)
	(fp_line
		(start -0.514 -1.27)
		(end -0.514 -1.651)
		(stroke
			(width 0.1)
			(type solid)
		)
		(layer "F.Fab")
		(uuid "ba69d97b-3f1a-4ae4-b032-27997a7058b4")
	)
	(fp_line
		(start -0.25 -1.651)
		(end -0.25 2.25)
		(stroke
			(width 0.1)
			(type solid)
		)
		(layer "F.Fab")
		(uuid "d12ff377-e2b8-46c4-91e4-065887df0613")
	)
	(fp_line
		(start -0.25 2.25)
		(end 0.25 2.25)
		(stroke
			(width 0.1)
			(type solid)
		)
		(layer "F.Fab")
		(uuid "70968fa4-d73d-4d1d-91f5-e8f3d05c56b7")
	)
	(fp_line
		(start 0.25 2.25)
		(end 0.25 -1.651)
		(stroke
			(width 0.1)
			(type solid)
		)
		(layer "F.Fab")
		(uuid "3a64aec9-2db8-42d1-a8e6-984866d0aa6e")
	)
	(fp_line
		(start 0.514 -1.651)
		(end 0.514 -1.27)
		(stroke
			(width 0.1)
			(type solid)
		)
		(layer "F.Fab")
		(uuid "572e2ec8-a76f-4a82-a365-6c983506b1e8")
	)
	(fp_line
		(start 0.514 -1.27)
		(end 1 -1.27)
		(stroke
			(width 0.1)
			(type solid)
		)
		(layer "F.Fab")
		(uuid "0b1cd66d-c9e4-4e5a-a361-03f84f1ae137")
	)
	(fp_line
		(start 1 -7.62)
		(end -1.149 -7.62)
		(stroke
			(width 0.1)
			(type solid)
		)
		(layer "F.Fab")
		(uuid "606ea9b1-7c04-401c-b125-650eb98835cf")
	)
	(fp_line
		(start 1 -7.62)
		(end 3 -7.62)
		(stroke
			(width 0.1)
			(type solid)
		)
		(layer "F.Fab")
		(uuid "ee5d6942-b5ed-4a98-a324-f937e744facb")
	)
	(fp_line
		(start 1 -1.651)
		(end 3 -1.651)
		(stroke
			(width 0.1)
			(type solid)
		)
		(layer "F.Fab")
		(uuid "31c1863f-08ce-4337-b0a6-3d24aa5cc4f6")
	)
	(fp_line
		(start 1.486 -1.651)
		(end 1.486 -1.27)
		(stroke
			(width 0.1)
			(type solid)
		)
		(layer "F.Fab")
		(uuid "f8df2e55-4cf5-4d9f-b9ba-fdd27d98f7dc")
	)
	(fp_line
		(start 1.486 -1.27)
		(end 1 -1.27)
		(stroke
			(width 0.1)
			(type solid)
		)
		(layer "F.Fab")
		(uuid "3505084b-ed81-4e59-b4b6-f69675bcd7b6")
	)
	(fp_line
		(start 1.75 -1.651)
		(end 1.75 2.25)
		(stroke
			(width 0.1)
			(type solid)
		)
		(layer "F.Fab")
		(uuid "fd982a4e-643f-40db-9f26-f5765d4170df")
	)
	(fp_line
		(start 1.75 2.25)
		(end 2.25 2.25)
		(stroke
			(width 0.1)
			(type solid)
		)
		(layer "F.Fab")
		(uuid "54d0e771-cd1a-4e38-bbcf-0cdbc4a4a830")
	)
	(fp_line
		(start 2.25 2.25)
		(end 2.25 -1.651)
		(stroke
			(width 0.1)
			(type solid)
		)
		(layer "F.Fab")
		(uuid "246965f6-67c2-456c-bd41-3924b496c607")
	)
	(fp_line
		(start 2.514 -1.651)
		(end 2.514 -1.27)
		(stroke
			(width 0.1)
			(type solid)
		)
		(layer "F.Fab")
		(uuid "b43075ea-8f8e-4bc6-8da8-7eed628dcac1")
	)
	(fp_line
		(start 2.514 -1.27)
		(end 3 -1.27)
		(stroke
			(width 0.1)
			(type solid)
		)
		(layer "F.Fab")
		(uuid "8104a0a9-e272-4d57-b35f-47702aedcde7")
	)
	(fp_line
		(start 3 -7.62)
		(end 5 -7.62)
		(stroke
			(width 0.1)
			(type solid)
		)
		(layer "F.Fab")
		(uuid "32c4c171-5c51-4161-8046-4b517464d90a")
	)
	(fp_line
		(start 3 -1.651)
		(end 5 -1.651)
		(stroke
			(width 0.1)
			(type solid)
		)
		(layer "F.Fab")
		(uuid "3f0c8cca-c457-4f83-b8e7-628c367291c1")
	)
	(fp_line
		(start 3.486 -1.651)
		(end 3.486 -1.27)
		(stroke
			(width 0.1)
			(type solid)
		)
		(layer "F.Fab")
		(uuid "5d930a7b-579d-4091-aaa4-c655e593e57e")
	)
	(fp_line
		(start 3.486 -1.27)
		(end 3 -1.27)
		(stroke
			(width 0.1)
			(type solid)
		)
		(layer "F.Fab")
		(uuid "453e124b-a4a3-4ba2-a6ba-e2bc3bc350a1")
	)
	(fp_line
		(start 3.75 -1.651)
		(end 3.75 2.25)
		(stroke
			(width 0.1)
			(type solid)
		)
		(layer "F.Fab")
		(uuid "41b4b337-41d8-4d82-aabb-dc77a9875688")
	)
	(fp_line
		(start 3.75 2.25)
		(end 4.25 2.25)
		(stroke
			(width 0.1)
			(type solid)
		)
		(layer "F.Fab")
		(uuid "681f39bc-ab82-41e6-ab42-8669bd80e38e")
	)
	(fp_line
		(start 4.25 2.25)
		(end 4.25 -1.651)
		(stroke
			(width 0.1)
			(type solid)
		)
		(layer "F.Fab")
		(uuid "1000629e-41ec-47b7-9de6-53ce46852fbf")
	)
	(fp_line
		(start 4.514 -1.651)
		(end 4.514 -1.27)
		(stroke
			(width 0.1)
			(type solid)
		)
		(layer "F.Fab")
		(uuid "57ee5126-298e-4f6a-8ac8-eb51b34319cb")
	)
	(fp_line
		(start 4.514 -1.27)
		(end 5 -1.27)
		(stroke
			(width 0.1)
			(type solid)
		)
		(layer "F.Fab")
		(uuid "849a75c9-68be-40da-a823-879b644f7651")
	)
	(fp_line
		(start 5 -7.62)
		(end 7 -7.62)
		(stroke
			(width 0.1)
			(type solid)
		)
		(layer "F.Fab")
		(uuid "f9794fc8-7653-4522-b6ff-71877bd066c7")
	)
	(fp_line
		(start 5 -1.651)
		(end 7 -1.651)
		(stroke
			(width 0.1)
			(type solid)
		)
		(layer "F.Fab")
		(uuid "cb9b6823-9c08-4f84-bd9b-02a76213cf87")
	)
	(fp_line
		(start 5.486 -1.651)
		(end 5.486 -1.27)
		(stroke
			(width 0.1)
			(type solid)
		)
		(layer "F.Fab")
		(uuid "2908e1d7-42d6-4a59-89ca-c310486f0936")
	)
	(fp_line
		(start 5.486 -1.27)
		(end 5 -1.27)
		(stroke
			(width 0.1)
			(type solid)
		)
		(layer "F.Fab")
		(uuid "c952eb68-4188-4ec9-95d0-8127672d4e76")
	)
	(fp_line
		(start 5.75 -1.651)
		(end 5.75 2.25)
		(stroke
			(width 0.1)
			(type solid)
		)
		(layer "F.Fab")
		(uuid "bbadd15b-c4d4-4b59-b29e-a8ee4145239e")
	)
	(fp_line
		(start 5.75 2.25)
		(end 6.25 2.25)
		(stroke
			(width 0.1)
			(type solid)
		)
		(layer "F.Fab")
		(uuid "f4474dce-f00a-474a-9132-1dbe8c2acfac")
	)
	(fp_line
		(start 6.25 2.25)
		(end 6.25 -1.651)
		(stroke
			(width 0.1)
			(type solid)
		)
		(layer "F.Fab")
		(uuid "bd250b7a-50fa-42e3-9314-a6baed72b361")
	)
	(fp_line
		(start 6.514 -1.651)
		(end 6.514 -1.27)
		(stroke
			(width 0.1)
			(type solid)
		)
		(layer "F.Fab")
		(uuid "a75144d6-41e7-4412-ab17-437be477547c")
	)
	(fp_line
		(start 6.514 -1.27)
		(end 7 -1.27)
		(stroke
			(width 0.1)
			(type solid)
		)
		(layer "F.Fab")
		(uuid "1e5f3723-63f2-403c-bf86-5dd3984156ef")
	)
	(fp_line
		(start 7 -7.62)
		(end 9 -7.62)
		(stroke
			(width 0.1)
			(type solid)
		)
		(layer "F.Fab")
		(uuid "15d71ccc-4a30-4ef7-b0e5-e989b1b6559b")
	)
	(fp_line
		(start 7 -1.651)
		(end 9 -1.651)
		(stroke
			(width 0.1)
			(type solid)
		)
		(layer "F.Fab")
		(uuid "1b825d10-022c-4d3b-999d-ac9bc05f8c64")
	)
	(fp_line
		(start 7.486 -1.651)
		(end 7.486 -1.27)
		(stroke
			(width 0.1)
			(type solid)
		)
		(layer "F.Fab")
		(uuid "e92024ca-80da-4d2a-b288-54b472560bf2")
	)
	(fp_line
		(start 7.486 -1.27)
		(end 7 -1.27)
		(stroke
			(width 0.1)
			(type solid)
		)
		(layer "F.Fab")
		(uuid "71903eb4-b56b-4d6f-91b3-a2795bee8c8d")
	)
	(fp_line
		(start 7.75 -1.651)
		(end 7.75 2.25)
		(stroke
			(width 0.1)
			(type solid)
		)
		(layer "F.Fab")
		(uuid "edc9b3df-39e6-421c-866e-9f9486dae4ad")
	)
	(fp_line
		(start 7.75 2.25)
		(end 8.25 2.25)
		(stroke
			(width 0.1)
			(type solid)
		)
		(layer "F.Fab")
		(uuid "bfc93be7-ac1a-4b75-90ea-434a700db7f9")
	)
	(fp_line
		(start 8.25 2.25)
		(end 8.25 -1.651)
		(stroke
			(width 0.1)
			(type solid)
		)
		(layer "F.Fab")
		(uuid "29c5e8e4-2d87-42ab-a75b-858cb496adb3")
	)
	(fp_line
		(start 8.514 -1.651)
		(end 8.514 -1.27)
		(stroke
			(width 0.1)
			(type solid)
		)
		(layer "F.Fab")
		(uuid "25f7de33-e101-4bd2-822e-145407433c57")
	)
	(fp_line
		(start 8.514 -1.27)
		(end 9 -1.27)
		(stroke
			(width 0.1)
			(type solid)
		)
		(layer "F.Fab")
		(uuid "9ab5e756-e566-4fb7-90d7-001345ffd72d")
	)
	(fp_line
		(start 9 -7.62)
		(end 11 -7.62)
		(stroke
			(width 0.1)
			(type solid)
		)
		(layer "F.Fab")
		(uuid "92603826-28d7-4ca0-89eb-f7404be97a84")
	)
	(fp_line
		(start 9 -1.651)
		(end 11 -1.651)
		(stroke
			(width 0.1)
			(type solid)
		)
		(layer "F.Fab")
		(uuid "223b7861-98cc-4cd2-9bca-3d7993356b30")
	)
	(fp_line
		(start 9.486 -1.651)
		(end 9.486 -1.27)
		(stroke
			(width 0.1)
			(type solid)
		)
		(layer "F.Fab")
		(uuid "89529486-96e8-4852-9e12-a09068bd8ac7")
	)
	(fp_line
		(start 9.486 -1.27)
		(end 9 -1.27)
		(stroke
			(width 0.1)
			(type solid)
		)
		(layer "F.Fab")
		(uuid "7c269078-a6d5-45f2-8b41-37c8eab2cc88")
	)
	(fp_line
		(start 9.75 -1.651)
		(end 9.75 2.25)
		(stroke
			(width 0.1)
			(type solid)
		)
		(layer "F.Fab")
		(uuid "4447ca25-a0c6-4fc2-969f-f76d1bf7a558")
	)
	(fp_line
		(start 9.75 2.25)
		(end 10.25 2.25)
		(stroke
			(width 0.1)
			(type solid)
		)
		(layer "F.Fab")
		(uuid "92922ec7-cb8c-4fd9-bc87-d7ae2232ad0f")
	)
	(fp_line
		(start 10.25 2.25)
		(end 10.25 -1.651)
		(stroke
			(width 0.1)
			(type solid)
		)
		(layer "F.Fab")
		(uuid "e3eafeed-4fb9-4b77-bab4-b98208a65d33")
	)
	(fp_line
		(start 10.514 -1.651)
		(end 10.514 -1.27)
		(stroke
			(width 0.1)
			(type solid)
		)
		(layer "F.Fab")
		(uuid "7d27dbee-d41a-4c0d-82e7-4086722c8332")
	)
	(fp_line
		(start 10.514 -1.27)
		(end 11 -1.27)
		(stroke
			(width 0.1)
			(type solid)
		)
		(layer "F.Fab")
		(uuid "202a6199-3edb-4bb2-ac3a-459d4eb5af63")
	)
	(fp_line
		(start 11 -7.62)
		(end 13.149 -7.62)
		(stroke
			(width 0.1)
			(type solid)
		)
		(layer "F.Fab")
		(uuid "fafe2544-57ca-4fca-ad93-2545837fc84d")
	)
	(fp_line
		(start 11.486 -1.651)
		(end 11.486 -1.27)
		(stroke
			(width 0.1)
			(type solid)
		)
		(layer "F.Fab")
		(uuid "92b5a781-96b8-45e7-b4c6-ff1fa186c416")
	)
	(fp_line
		(start 11.486 -1.27)
		(end 11 -1.27)
		(stroke
			(width 0.1)
			(type solid)
		)
		(layer "F.Fab")
		(uuid "2c0ced7b-ab72-4063-a7af-c77f2864feed")
	)
	(fp_line
		(start 11.75 2.25)
		(end 11.75 -1.651)
		(stroke
			(width 0.1)
			(type solid)
		)
		(layer "F.Fab")
		(uuid "076244ea-7fda-47a0-97e0-cee635e10ae4")
	)
	(fp_line
		(start 12.25 -1.651)
		(end 12.25 2.25)
		(stroke
			(width 0.1)
			(type solid)
		)
		(layer "F.Fab")
		(uuid "d3a38c2c-7daa-47ce-9162-c4012c66ab29")
	)
	(fp_line
		(start 12.25 2.25)
		(end 11.75 2.25)
		(stroke
			(width 0.1)
			(type solid)
		)
		(layer "F.Fab")
		(uuid "d6cc7482-8a9e-4498-b434-1946cf97039d")
	)
	(fp_line
		(start 12.514 -1.27)
		(end 12.514 -1.651)
		(stroke
			(width 0.1)
			(type solid)
		)
		(layer "F.Fab")
		(uuid "fd62b2bd-c590-4473-afb3-aa926b931401")
	)
	(fp_line
		(start 13.149 -7.62)
		(end 13.149 -1.651)
		(stroke
			(width 0.1)
			(type solid)
		)
		(layer "F.Fab")
		(uuid "37816dd2-121c-4574-8f40-edebacd63d68")
	)
	(fp_line
		(start 13.149 -1.651)
		(end 11 -1.651)
		(stroke
			(width 0.1)
			(type solid)
		)
		(layer "F.Fab")
		(uuid "438919a3-185c-40c5-9007-fc228f5c4ed5")
	)
	(fp_line
		(start 13.149 -1.651)
		(end 13.149 -1.27)
		(stroke
			(width 0.1)
			(type solid)
		)
		(layer "F.Fab")
		(uuid "51f4c670-1bdf-423b-add4-fed2c2dae95f")
	)
	(fp_line
		(start 13.149 -1.27)
		(end 12.514 -1.27)
		(stroke
			(width 0.1)
			(type solid)
		)
		(layer "F.Fab")
		(uuid "994cf204-33f9-47c0-83ea-6e929d665032")
	)
	(fp_text user "2"
		(at -2.43 2.08 0)
		(layer "F.SilkS")
		(uuid "2e7398f9-4637-437b-93c0-13a07ae31f77")
		(effects
			(font
				(size 1 1)
				(thickness 0.15)
			)
		)
	)
	(fp_text user "1"
		(at -2.45 0 0)
		(layer "F.SilkS")
		(uuid "7494b244-be9c-4aba-ad73-2df0d2bfac02")
		(effects
			(font
				(size 1 1)
				(thickness 0.15)
			)
		)
	)
	(fp_text user "2"
		(at -2.43 2.08 0)
		(layer "F.Fab")
		(uuid "5b533ed6-9a1c-4b41-a938-805112226f72")
		(effects
			(font
				(size 1 1)
				(thickness 0.15)
			)
		)
	)
	(fp_text user "1"
		(at -2.45 0 0)
		(layer "F.Fab")
		(uuid "5c05e412-349e-48ce-bc49-123fd3994525")
		(effects
			(font
				(size 1 1)
				(thickness 0.15)
			)
		)
	)
	(fp_text user "${REFERENCE}"
		(at 0 0 0)
		(unlocked yes)
		(layer "F.Fab")
		(uuid "c406c10d-165f-42a5-b0a5-3a272a6ba291")
		(effects
			(font
				(size 1 1)
				(thickness 0.15)
			)
			(justify left bottom)
		)
	)
	(pad "1" thru_hole rect
		(at 0 0)
		(size 1.51 1.51)
		(drill 0.91)
		(layers "*.Cu" "*.Mask")
		(remove_unused_layers no)
		(uuid "32c1b50d-6298-4142-bc34-51c16d031058")
	)
	(pad "2" thru_hole circle
		(at 0 2)
		(size 1.51 1.51)
		(drill 0.91)
		(layers "*.Cu" "*.Mask")
		(remove_unused_layers no)
		(uuid "8c5a4618-a42b-423b-88bc-fa0ebc8f6ad9")
	)
	(pad "3" thru_hole circle
		(at 2 0)
		(size 1.51 1.51)
		(drill 0.91)
		(layers "*.Cu" "*.Mask")
		(remove_unused_layers no)
		(uuid "f5e299f6-a5b4-456a-8b48-7a11215c721f")
	)
	(pad "4" thru_hole circle
		(at 2 2)
		(size 1.51 1.51)
		(drill 0.91)
		(layers "*.Cu" "*.Mask")
		(remove_unused_layers no)
		(uuid "ac37c452-38b2-4b32-a3e3-a3d701a0cea7")
	)
	(pad "5" thru_hole circle
		(at 4 0)
		(size 1.51 1.51)
		(drill 0.91)
		(layers "*.Cu" "*.Mask")
		(remove_unused_layers no)
		(uuid "606901d1-afad-410c-b09a-864e38e9b734")
	)
	(pad "6" thru_hole circle
		(at 4 2)
		(size 1.51 1.51)
		(drill 0.91)
		(layers "*.Cu" "*.Mask")
		(remove_unused_layers no)
		(uuid "e988d254-11b3-4098-a8bc-cf4a61f72b8b")
	)
	(pad "7" thru_hole circle
		(at 6 0)
		(size 1.51 1.51)
		(drill 0.91)
		(layers "*.Cu" "*.Mask")
		(remove_unused_layers no)
		(uuid "96767df5-b825-4512-a632-1a818fa051f7")
	)
	(pad "8" thru_hole circle
		(at 6 2)
		(size 1.51 1.51)
		(drill 0.91)
		(layers "*.Cu" "*.Mask")
		(remove_unused_layers no)
		(uuid "8bdfa5db-4799-4c2e-bf06-15029083dd2a")
	)
	(pad "9" thru_hole circle
		(at 8 0)
		(size 1.51 1.51)
		(drill 0.91)
		(layers "*.Cu" "*.Mask")
		(remove_unused_layers no)
		(uuid "4163bd25-980d-452c-b25d-da4c6fbb39cf")
	)
	(pad "10" thru_hole circle
		(at 8 2)
		(size 1.51 1.51)
		(drill 0.91)
		(layers "*.Cu" "*.Mask")
		(remove_unused_layers no)
		(uuid "d299f6d9-b148-486d-b39c-c1b4f8695ca8")
	)
	(pad "11" thru_hole circle
		(at 10 0)
		(size 1.51 1.51)
		(drill 0.91)
		(layers "*.Cu" "*.Mask")
		(remove_unused_layers no)
		(uuid "23a9334c-985b-48cb-a4ca-3d18bc2153a7")
	)
	(pad "12" thru_hole circle
		(at 10 2)
		(size 1.51 1.51)
		(drill 0.91)
		(layers "*.Cu" "*.Mask")
		(remove_unused_layers no)
		(uuid "96bd4191-35a5-44f8-83db-5dfff901a56a")
	)
	(pad "13" thru_hole circle
		(at 12 0)
		(size 1.51 1.51)
		(drill 0.91)
		(layers "*.Cu" "*.Mask")
		(remove_unused_layers no)
		(uuid "39e5ec05-f4f2-418d-a654-16e9d45acbf6")
	)
	(pad "14" thru_hole circle
		(at 12 2)
		(size 1.51 1.51)
		(drill 0.91)
		(layers "*.Cu" "*.Mask")
		(remove_unused_layers no)
		(uuid "4d1ca9fb-04c0-46f4-b665-0e52afa58061")
	)
	(model "${LSF_KICAD_LIB}/lsf-kicad-lib.3dshapes/SQT-107-01-L-D-RA.wrl"
		(offset
			(xyz 0 0 0)
		)
		(scale
			(xyz 1 1 1)
		)
		(rotate
			(xyz 0 0 0)
		)
	)
)