(footprint "SAMTEC_SSQ-110-22-G-D-RA"
	(version 20240108)
	(generator "pcbnew")
	(generator_version "8.0")
	(layer "F.Cu")
	(descr " Headers & Wire Housings Tiger Buy Socket Strip with Square Tails, 0.100\" Pitch, https://suddendocs.samtec.com/catalog_english/ssq_th.pdf")
	(tags "SAMTEC Connector")
	(property "Reference" "REF**"
		(at 0.65 -11.915 0)
		(layer "F.SilkS")
		(uuid "16cfa2e9-1f16-4541-9344-39ced701b8e6")
		(effects
			(font
				(size 1 1)
				(thickness 0.15)
			)
		)
	)
	(property "Value" "SAMTEC_SSQ-110-22-G-D-RA"
		(at 12.715 5.09 0)
		(layer "F.Fab")
		(uuid "e2dfcca6-8bf8-4002-b641-07bb866cc0b1")
		(effects
			(font
				(size 1 1)
				(thickness 0.15)
			)
		)
	)
	(property "Footprint" ""
		(at 11.43 -5.775 0)
		(unlocked yes)
		(layer "F.Fab")
		(hide yes)
		(uuid "2bac4920-1d8f-41d0-b236-a6c4bbfb3a58")
		(effects
			(font
				(size 1.27 1.27)
			)
		)
	)
	(property "Datasheet" ""
		(at 11.43 -5.775 0)
		(unlocked yes)
		(layer "F.Fab")
		(hide yes)
		(uuid "0d12264a-ff42-4aa1-ad70-b47c6d298de8")
		(effects
			(font
				(size 1.27 1.27)
			)
		)
	)
	(property "Description" ""
		(at 11.43 -5.775 0)
		(unlocked yes)
		(layer "F.Fab")
		(hide yes)
		(uuid "7dcb1c52-e37b-4450-bfbd-30b9f97ddeb1")
		(effects
			(font
				(size 1.27 1.27)
			)
		)
	)
	(attr through_hole)
	(fp_line
		(start -1.525 -1.52)
		(end -1.525 -10.03)
		(stroke
			(width 0.12)
			(type solid)
		)
		(layer "F.SilkS")
		(uuid "0693db77-0b2a-4dbc-be29-ec93f048fd4e")
	)
	(fp_line
		(start 24.385 -10.03)
		(end -1.525 -10.03)
		(stroke
			(width 0.12)
			(type solid)
		)
		(layer "F.SilkS")
		(uuid "8c0407d8-afad-4297-9df7-9e185c9c6f78")
	)
	(fp_line
		(start 24.385 -10.03)
		(end 24.385 -1.52)
		(stroke
			(width 0.12)
			(type solid)
		)
		(layer "F.SilkS")
		(uuid "a649047e-2ff4-42ae-802b-545fbb1952a5")
	)
	(fp_line
		(start 24.385 -1.52)
		(end -1.525 -1.52)
		(stroke
			(width 0.12)
			(type solid)
		)
		(layer "F.SilkS")
		(uuid "6b8ad68a-2a78-4a6e-9cec-c87bf20b4239")
	)
	(fp_poly
		(pts
			(xy -0.955 0.015) (xy -1.56 -0.37) (xy -1.56 0.4)
		)
		(stroke
			(width 0.12)
			(type solid)
		)
		(fill solid)
		(layer "F.SilkS")
		(uuid "3294e158-a56a-4783-9b43-14ce1cd490a1")
	)
	(fp_line
		(start -1.77 -10.28)
		(end 24.63 -10.28)
		(stroke
			(width 0.05)
			(type solid)
		)
		(layer "F.CrtYd")
		(uuid "88019f28-8912-44ca-a3df-e154b2a0feb3")
	)
	(fp_line
		(start -1.77 3.47)
		(end -1.77 -10.28)
		(stroke
			(width 0.05)
			(type solid)
		)
		(layer "F.CrtYd")
		(uuid "a8308cd0-2b3d-46f8-9768-5fd6b9b81431")
	)
	(fp_line
		(start 24.63 -10.28)
		(end 24.63 3.47)
		(stroke
			(width 0.05)
			(type solid)
		)
		(layer "F.CrtYd")
		(uuid "39cf1a6f-840d-4f51-99f2-bdc0289f12cf")
	)
	(fp_line
		(start 24.63 3.47)
		(end -1.77 3.47)
		(stroke
			(width 0.05)
			(type solid)
		)
		(layer "F.CrtYd")
		(uuid "c798b7ff-35f1-4158-b472-458356c583d2")
	)
	(fp_line
		(start -1.525 -10.03)
		(end 24.385 -10.03)
		(stroke
			(width 0.1)
			(type solid)
		)
		(layer "F.Fab")
		(uuid "7108ee73-5c61-466a-b2ca-02fc83d7871c")
	)
	(fp_line
		(start -1.525 -1.52)
		(end -1.525 -10.03)
		(stroke
			(width 0.1)
			(type solid)
		)
		(layer "F.Fab")
		(uuid "c6540c94-5f96-42ab-a5a5-158008313b2e")
	)
	(fp_line
		(start 24.385 -10.03)
		(end 24.385 -1.52)
		(stroke
			(width 0.1)
			(type solid)
		)
		(layer "F.Fab")
		(uuid "3e76ff65-b427-41c7-9dd3-a6f0f22f9560")
	)
	(fp_line
		(start 24.385 -10.03)
		(end 29.385 -10.03)
		(stroke
			(width 0.1)
			(type solid)
		)
		(layer "F.Fab")
		(uuid "068357b5-e38a-42ef-bb52-2b795f7eb920")
	)
	(fp_line
		(start 24.385 -1.52)
		(end -1.525 -1.52)
		(stroke
			(width 0.1)
			(type solid)
		)
		(layer "F.Fab")
		(uuid "73d8c949-5242-4dff-b375-c004659e5828")
	)
	(fp_text user "PCB Edge"
		(at 24.885 -10.53 0)
		(layer "F.Fab")
		(uuid "702a7153-0b28-417d-bd2d-f05ba63bf9ac")
		(effects
			(font
				(size 0.789228 0.789228)
				(thickness 0.15)
			)
		)
	)
	(fp_text user "${REFERENCE}"
		(at 5.78 -1.79 0)
		(unlocked yes)
		(layer "F.Fab")
		(uuid "b6ff09dc-5707-4c91-97c0-1492e765f410")
		(effects
			(font
				(size 1 1)
				(thickness 0.1)
			)
			(justify left bottom)
		)
	)
	(pad "1" thru_hole rect
		(at 0 0)
		(size 1.37 1.37)
		(drill 1.02)
		(layers "*.Cu" "*.Mask")
		(remove_unused_layers no)
		(solder_mask_margin 0.102)
		(uuid "d67c0ba7-9114-4f54-b34a-b2ead493e081")
	)
	(pad "2" thru_hole circle
		(at 0 2.54)
		(size 1.37 1.37)
		(drill 1.02)
		(layers "*.Cu" "*.Mask")
		(remove_unused_layers no)
		(solder_mask_margin 0.102)
		(uuid "c202cf44-47ed-4743-b695-8f3a41e9b274")
	)
	(pad "3" thru_hole circle
		(at 2.54 0)
		(size 1.37 1.37)
		(drill 1.02)
		(layers "*.Cu" "*.Mask")
		(remove_unused_layers no)
		(solder_mask_margin 0.102)
		(uuid "13c3c5c5-4381-4a08-aa60-9582d225f30a")
	)
	(pad "4" thru_hole circle
		(at 2.54 2.54)
		(size 1.37 1.37)
		(drill 1.02)
		(layers "*.Cu" "*.Mask")
		(remove_unused_layers no)
		(solder_mask_margin 0.102)
		(uuid "bf2e7a72-326e-42f7-b54a-b845f4832a3b")
	)
	(pad "5" thru_hole circle
		(at 5.08 0)
		(size 1.37 1.37)
		(drill 1.02)
		(layers "*.Cu" "*.Mask")
		(remove_unused_layers no)
		(solder_mask_margin 0.102)
		(uuid "1a3e9930-ec59-4dac-a92c-90debb1a9c86")
	)
	(pad "6" thru_hole circle
		(at 5.08 2.54)
		(size 1.37 1.37)
		(drill 1.02)
		(layers "*.Cu" "*.Mask")
		(remove_unused_layers no)
		(solder_mask_margin 0.102)
		(uuid "98c8dcb8-0b94-4124-90ca-e44da3d5c4db")
	)
	(pad "7" thru_hole circle
		(at 7.62 0)
		(size 1.37 1.37)
		(drill 1.02)
		(layers "*.Cu" "*.Mask")
		(remove_unused_layers no)
		(solder_mask_margin 0.102)
		(uuid "5f6d312e-45fa-4691-ac56-cb4e3f5a7942")
	)
	(pad "8" thru_hole circle
		(at 7.62 2.54)
		(size 1.37 1.37)
		(drill 1.02)
		(layers "*.Cu" "*.Mask")
		(remove_unused_layers no)
		(solder_mask_margin 0.102)
		(uuid "58326474-dc74-4540-9d6e-cf98c29cd89f")
	)
	(pad "9" thru_hole circle
		(at 10.16 0)
		(size 1.37 1.37)
		(drill 1.02)
		(layers "*.Cu" "*.Mask")
		(remove_unused_layers no)
		(solder_mask_margin 0.102)
		(uuid "1529cab7-afef-4587-8178-3f8fc511b9d9")
	)
	(pad "10" thru_hole circle
		(at 10.16 2.54)
		(size 1.37 1.37)
		(drill 1.02)
		(layers "*.Cu" "*.Mask")
		(remove_unused_layers no)
		(solder_mask_margin 0.102)
		(uuid "4b7e8fab-c1a4-444f-b388-dac8c4d0bfd2")
	)
	(pad "11" thru_hole circle
		(at 12.7 0)
		(size 1.37 1.37)
		(drill 1.02)
		(layers "*.Cu" "*.Mask")
		(remove_unused_layers no)
		(solder_mask_margin 0.102)
		(uuid "4271ee14-e1da-4a95-8ccd-e3506c1bfe13")
	)
	(pad "12" thru_hole circle
		(at 12.7 2.54)
		(size 1.37 1.37)
		(drill 1.02)
		(layers "*.Cu" "*.Mask")
		(remove_unused_layers no)
		(solder_mask_margin 0.102)
		(uuid "9a825231-3b1f-4b6c-be81-c0f6e0b8615d")
	)
	(pad "13" thru_hole circle
		(at 15.24 0)
		(size 1.37 1.37)
		(drill 1.02)
		(layers "*.Cu" "*.Mask")
		(remove_unused_layers no)
		(solder_mask_margin 0.102)
		(uuid "d33ba0e6-14e7-43d6-a4b5-ddc7ea732f98")
	)
	(pad "14" thru_hole circle
		(at 15.24 2.54)
		(size 1.37 1.37)
		(drill 1.02)
		(layers "*.Cu" "*.Mask")
		(remove_unused_layers no)
		(solder_mask_margin 0.102)
		(uuid "4bb80475-1e7b-40c5-b7f9-28f05f0a66a7")
	)
	(pad "15" thru_hole circle
		(at 17.78 0)
		(size 1.37 1.37)
		(drill 1.02)
		(layers "*.Cu" "*.Mask")
		(remove_unused_layers no)
		(solder_mask_margin 0.102)
		(uuid "f7d57ddf-df71-4212-922e-dfa2d57f402c")
	)
	(pad "16" thru_hole circle
		(at 17.78 2.54)
		(size 1.37 1.37)
		(drill 1.02)
		(layers "*.Cu" "*.Mask")
		(remove_unused_layers no)
		(solder_mask_margin 0.102)
		(uuid "d83e8512-6bbb-48b3-9495-eb2c268f07f6")
	)
	(pad "17" thru_hole circle
		(at 20.32 0)
		(size 1.37 1.37)
		(drill 1.02)
		(layers "*.Cu" "*.Mask")
		(remove_unused_layers no)
		(solder_mask_margin 0.102)
		(uuid "da614870-9c46-4d0a-8e19-d5ea516c4ce9")
	)
	(pad "18" thru_hole circle
		(at 20.32 2.54)
		(size 1.37 1.37)
		(drill 1.02)
		(layers "*.Cu" "*.Mask")
		(remove_unused_layers no)
		(solder_mask_margin 0.102)
		(uuid "50269041-1f93-4842-9fa7-f91e3843f186")
	)
	(pad "19" thru_hole circle
		(at 22.86 0)
		(size 1.37 1.37)
		(drill 1.02)
		(layers "*.Cu" "*.Mask")
		(remove_unused_layers no)
		(solder_mask_margin 0.102)
		(uuid "776463ee-70a1-4c08-95ee-b475c76b5a0b")
	)
	(pad "20" thru_hole circle
		(at 22.86 2.54)
		(size 1.37 1.37)
		(drill 1.02)
		(layers "*.Cu" "*.Mask")
		(remove_unused_layers no)
		(solder_mask_margin 0.102)
		(uuid "c9b157ba-837f-4727-acad-22806910a2eb")
	)
	(model "${LSF_KICAD_LIB}/lsf-kicad-lib.3dshapes/SSQ-110-22-G-D-RA.wrl"
		(offset
			(xyz 0 0 0)
		)
		(scale
			(xyz 1 1 1)
		)
		(rotate
			(xyz 0 0 0)
		)
	)
)