(footprint "SOIC-8_3.9x4.9mm_Pitch1.27mm_HandSoldering"
	(version 20240108)
	(generator "pcbnew")
	(generator_version "8.0")
	(layer "F.Cu")
	(descr "8-Lead Plastic Small Outline (SN) - Narrow, 3.90 mm Body [SOIC], https://ww1.microchip.com/downloads/en/PackagingSpec/00000049BQ.pdf")
	(tags "SOIC 1.27")
	(property "Reference" "REF**"
		(at 0 -3.5 0)
		(layer "F.SilkS")
		(uuid "a025d556-c06c-417e-81d4-673ce9bd728e")
		(effects
			(font
				(size 1 1)
				(thickness 0.15)
			)
		)
	)
	(property "Value" "SOIC-8_3.9x4.9mm_Pitch1.27mm_HandSoldering"
		(at 0 3.5 0)
		(layer "F.Fab")
		(uuid "15af663a-ccfd-4f38-837f-ba3b029ace91")
		(effects
			(font
				(size 1 1)
				(thickness 0.15)
			)
		)
	)
	(property "Footprint" ""
		(at 0 0 0)
		(layer "F.Fab")
		(hide yes)
		(uuid "d6342f64-2b9a-497a-8313-b8a213eedc60")
		(effects
			(font
				(size 1.27 1.27)
				(thickness 0.15)
			)
		)
	)
	(property "Datasheet" ""
		(at 0 0 0)
		(layer "F.Fab")
		(hide yes)
		(uuid "bda192b2-6a70-4981-9034-58d798d8be7c")
		(effects
			(font
				(size 1.27 1.27)
				(thickness 0.15)
			)
		)
	)
	(property "Description" ""
		(at 0 0 0)
		(layer "F.Fab")
		(hide yes)
		(uuid "984cb9d3-dfde-471f-9ffa-1c12d5e3f93b")
		(effects
			(font
				(size 1.27 1.27)
				(thickness 0.15)
			)
		)
	)
	(attr smd)
	(fp_line
		(start -2.159 2.667)
		(end -2.159 2.413)
		(stroke
			(width 0.12)
			(type solid)
		)
		(layer "F.SilkS")
		(uuid "c6d8d2c0-feb0-47d0-8580-fafef105dd3b")
	)
	(fp_line
		(start -2.159 2.667)
		(end 2.159 2.667)
		(stroke
			(width 0.12)
			(type solid)
		)
		(layer "F.SilkS")
		(uuid "315afae8-313d-41e0-8c66-942ee8372587")
	)
	(fp_line
		(start -2.032 -2.667)
		(end -2.032 -2.54)
		(stroke
			(width 0.12)
			(type solid)
		)
		(layer "F.SilkS")
		(uuid "4de5963c-64c8-4e19-9425-03dd18dffabc")
	)
	(fp_line
		(start -2.032 -2.667)
		(end 2.159 -2.667)
		(stroke
			(width 0.12)
			(type solid)
		)
		(layer "F.SilkS")
		(uuid "63f94612-51cb-460f-bff0-bd59413fd854")
	)
	(fp_line
		(start -2.032 -2.54)
		(end -3.429 -2.54)
		(stroke
			(width 0.12)
			(type solid)
		)
		(layer "F.SilkS")
		(uuid "f86f87b7-a32e-45e8-9e72-2104335f4de4")
	)
	(fp_line
		(start 2.159 -2.667)
		(end 2.159 -2.413)
		(stroke
			(width 0.12)
			(type solid)
		)
		(layer "F.SilkS")
		(uuid "608ef38b-63fc-4473-aaf6-436d59be28c2")
	)
	(fp_line
		(start 2.159 2.667)
		(end 2.159 2.413)
		(stroke
			(width 0.12)
			(type solid)
		)
		(layer "F.SilkS")
		(uuid "0acfeebe-4275-4e2c-b2cd-c73be31e7494")
	)
	(fp_line
		(start -4.19 -2.79)
		(end -4.19 2.79)
		(stroke
			(width 0.05)
			(type solid)
		)
		(layer "F.CrtYd")
		(uuid "54234b59-a286-4bd1-86c9-bb30d062f3e1")
	)
	(fp_line
		(start -4.19 -2.79)
		(end 4.19 -2.79)
		(stroke
			(width 0.05)
			(type solid)
		)
		(layer "F.CrtYd")
		(uuid "9406a021-abad-4965-9ca4-f6d19872b2a7")
	)
	(fp_line
		(start -4.19 2.79)
		(end 4.19 2.79)
		(stroke
			(width 0.05)
			(type solid)
		)
		(layer "F.CrtYd")
		(uuid "ebe467f6-6aed-4695-b33f-20037fb8e2cf")
	)
	(fp_line
		(start 4.19 -2.79)
		(end 4.19 2.79)
		(stroke
			(width 0.05)
			(type solid)
		)
		(layer "F.CrtYd")
		(uuid "a51a336c-c330-4215-97aa-e81ee59247d8")
	)
	(fp_line
		(start -1.905 -2.413)
		(end 1.905 -2.413)
		(stroke
			(width 0.1)
			(type solid)
		)
		(layer "F.Fab")
		(uuid "5642834d-abdc-46ba-ad1e-72c691b92472")
	)
	(fp_line
		(start -1.905 2.413)
		(end -1.905 -2.413)
		(stroke
			(width 0.1)
			(type solid)
		)
		(layer "F.Fab")
		(uuid "3685bbc1-87e1-47c5-b129-0e637136f199")
	)
	(fp_line
		(start 1.905 -2.413)
		(end 1.905 2.413)
		(stroke
			(width 0.1)
			(type solid)
		)
		(layer "F.Fab")
		(uuid "4abd96c1-02d9-45c4-ba65-4b42c0b26c45")
	)
	(fp_line
		(start 1.905 2.413)
		(end -1.905 2.413)
		(stroke
			(width 0.1)
			(type solid)
		)
		(layer "F.Fab")
		(uuid "d5a95a7c-d773-47f2-bb35-2ffb7ac473a8")
	)
	(fp_text user "${REFERENCE}"
		(at 0 -3.5 0)
		(layer "F.Fab")
		(uuid "06c19346-6966-4147-bbd8-de82efc31f4a")
		(effects
			(font
				(size 1 1)
				(thickness 0.15)
			)
		)
	)
	(pad "1" smd rect
		(at -2.95 -1.905)
		(size 2 0.6)
		(layers "F.Cu" "F.Paste" "F.Mask")
		(uuid "2fe4e669-fd84-41fe-b613-40b7baad415f")
	)
	(pad "2" smd rect
		(at -2.95 -0.635)
		(size 2 0.6)
		(layers "F.Cu" "F.Paste" "F.Mask")
		(uuid "0d611a1c-cf04-4be7-b71c-fbcbd330f212")
	)
	(pad "3" smd rect
		(at -2.95 0.635)
		(size 2 0.6)
		(layers "F.Cu" "F.Paste" "F.Mask")
		(uuid "7609bc01-9a54-4c42-bd8f-d37067b42011")
	)
	(pad "4" smd rect
		(at -2.95 1.905)
		(size 2 0.6)
		(layers "F.Cu" "F.Paste" "F.Mask")
		(uuid "b0d1110c-51bd-4d23-a1f6-6f2d1cf870f8")
	)
	(pad "5" smd rect
		(at 2.95 1.905)
		(size 2 0.6)
		(layers "F.Cu" "F.Paste" "F.Mask")
		(uuid "c987fc2c-f083-4f7b-8f20-cc327120f4f7")
	)
	(pad "6" smd rect
		(at 2.95 0.635)
		(size 2 0.6)
		(layers "F.Cu" "F.Paste" "F.Mask")
		(uuid "6cbdffa3-34d7-4a5e-b25f-b22f73dd5491")
	)
	(pad "7" smd rect
		(at 2.95 -0.635)
		(size 2 0.6)
		(layers "F.Cu" "F.Paste" "F.Mask")
		(uuid "40f17265-70dd-4c78-a1c8-79e938a29a7c")
	)
	(pad "8" smd rect
		(at 2.95 -1.905)
		(size 2 0.6)
		(layers "F.Cu" "F.Paste" "F.Mask")
		(uuid "4daf6a95-bb58-4c30-9694-3991af7d9459")
	)
	(model "${LSF_KICAD_LIB}/lsf-kicad-lib.3dshapes/SOIC-8_3.9x4.9mm_P1.27mm.wrl"
		(offset
			(xyz 0 0 0)
		)
		(scale
			(xyz 1 1 1)
		)
		(rotate
			(xyz 0 0 0)
		)
	)
)
