(footprint "SPPB6A0100"
	(version 20240108)
	(generator "pcbnew")
	(generator_version "8.0")
	(layer "F.Cu")
	(descr "Detector Switches 0.1 Amp at 30 Volts 0.35 N https://tech.alpsalpine.com/e/products/detail/SPPB6A0100/")
	(tags "switch detector")
	(property "Reference" "REF**"
		(at -8.6 -1.4 180)
		(layer "F.SilkS")
		(uuid "a8a1a005-41ac-40dd-8245-0a80d420a84d")
		(effects
			(font
				(size 1 1)
				(thickness 0.15)
			)
		)
	)
	(property "Value" "SPPB6A0100"
		(at -0.25 2.5 180)
		(layer "F.Fab")
		(uuid "71e7eec0-3e8c-46e9-b401-246f4b3e4cf3")
		(effects
			(font
				(size 0.8 0.8)
				(thickness 0.12)
			)
		)
	)
	(property "Footprint" ""
		(at -1.775 -4.218535 180)
		(layer "F.Fab")
		(hide yes)
		(uuid "de82e87a-8c6b-41ea-adc9-d451f915eba3")
		(effects
			(font
				(size 1.27 1.27)
				(thickness 0.15)
			)
		)
	)
	(property "Datasheet" ""
		(at -1.775 -4.218535 180)
		(layer "F.Fab")
		(hide yes)
		(uuid "1e3122a7-9328-4063-9ba0-781324c96f80")
		(effects
			(font
				(size 1.27 1.27)
				(thickness 0.15)
			)
		)
	)
	(property "Description" ""
		(at -1.775 -4.218535 180)
		(layer "F.Fab")
		(hide yes)
		(uuid "c24fe0c7-b96a-4873-91b9-6205cbea3de3")
		(effects
			(font
				(size 1.27 1.27)
				(thickness 0.15)
			)
		)
	)
	(attr through_hole)
	(fp_line
		(start -5.8 -4.2)
		(end -5.8 1.2)
		(stroke
			(width 0.12)
			(type default)
		)
		(layer "F.SilkS")
		(uuid "6a976d64-6740-4d61-aaa0-14b8e143feba")
	)
	(fp_line
		(start -5.8 1.2)
		(end 5.6 1.2)
		(stroke
			(width 0.12)
			(type default)
		)
		(layer "F.SilkS")
		(uuid "d528aed8-e67d-4490-980a-6ada643703db")
	)
	(fp_line
		(start 5.6 1.2)
		(end 5.6 -4.2)
		(stroke
			(width 0.12)
			(type default)
		)
		(layer "F.SilkS")
		(uuid "4dacbb7a-3102-4ee8-a513-f3ba9d53db55")
	)
	(fp_circle
		(center 1.8 0.2)
		(end 2.082843 0.2)
		(stroke
			(width 0.12)
			(type solid)
		)
		(fill solid)
		(layer "F.SilkS")
		(uuid "570e3836-ac0c-446b-8ac0-121720944b34")
	)
	(fp_rect
		(start -5.9 -4.3)
		(end 5.7 1.3)
		(stroke
			(width 0.05)
			(type default)
		)
		(fill none)
		(layer "F.CrtYd")
		(uuid "17cff40c-62a8-4496-a91a-f0e46a5493a8")
	)
	(fp_line
		(start -9.713529 -6.924703)
		(end -9.808273 -7.100838)
		(stroke
			(width 0.1)
			(type solid)
		)
		(layer "F.Fab")
		(uuid "0a6c6f33-7120-4209-89af-562881bb4b17")
	)
	(fp_line
		(start -9.367936 -7.337698)
		(end -6.394173 -8.937303)
		(stroke
			(width 0.1)
			(type solid)
		)
		(layer "F.Fab")
		(uuid "91a0cbcc-922d-4c27-9971-8e7788c2dee1")
	)
	(fp_line
		(start -9.273192 -7.161563)
		(end -9.367936 -7.337698)
		(stroke
			(width 0.1)
			(type solid)
		)
		(layer "F.Fab")
		(uuid "76a62372-8ecc-4fb5-b1e4-83340600b47f")
	)
	(fp_line
		(start -6.299429 -8.761168)
		(end -9.273192 -7.161563)
		(stroke
			(width 0.1)
			(type solid)
		)
		(layer "F.Fab")
		(uuid "cc39096a-b50c-4805-b903-a7547e285ea3")
	)
	(fp_line
		(start -6.25 -7.45)
		(end -9.2 -5.2)
		(stroke
			(width 0.1)
			(type default)
		)
		(layer "F.Fab")
		(uuid "09bc9e8b-7d52-490b-837e-abace8a9fc17")
	)
	(fp_line
		(start -6.25 -6.15)
		(end -8.6 -3.2)
		(stroke
			(width 0.1)
			(type default)
		)
		(layer "F.Fab")
		(uuid "542ec41f-8200-46d6-afd4-81235e6ac914")
	)
	(fp_line
		(start -6.183209 -8.949378)
		(end 4.116077 -4.845811)
		(stroke
			(width 0.1)
			(type solid)
		)
		(layer "F.Fab")
		(uuid "1cb013b3-2111-468c-9cbf-0f8e1dd84397")
	)
	(fp_line
		(start -5.025 -2.65)
		(end -5.025 -1.65)
		(stroke
			(width 0.1)
			(type solid)
		)
		(layer "F.Fab")
		(uuid "51d1274e-f778-4096-b21d-0cefdfa2931f")
	)
	(fp_line
		(start -5.025 -2.65)
		(end -4.925 -2.65)
		(stroke
			(width 0.1)
			(type solid)
		)
		(layer "F.Fab")
		(uuid "a6d37849-eb17-4177-81c3-48bd214d000c")
	)
	(fp_line
		(start -5.025 -1.65)
		(end -4.925 -1.65)
		(stroke
			(width 0.1)
			(type solid)
		)
		(layer "F.Fab")
		(uuid "f38f07d9-f139-4501-b970-df98653bfc19")
	)
	(fp_line
		(start -4.925 -4.35)
		(end -4.414031 -4.35)
		(stroke
			(width 0.1)
			(type solid)
		)
		(layer "F.Fab")
		(uuid "065a0bdd-7a70-4e99-bc3f-6b3265a4277f")
	)
	(fp_line
		(start -4.925 -1.65)
		(end -4.925 -4.35)
		(stroke
			(width 0.1)
			(type solid)
		)
		(layer "F.Fab")
		(uuid "e78f146b-e00f-4c52-8a5c-9cdd372fc8cf")
	)
	(fp_line
		(start -4.925 -1.65)
		(end -4.925 -1.35)
		(stroke
			(width 0.1)
			(type solid)
		)
		(layer "F.Fab")
		(uuid "c90c3063-ddc6-4ce1-8775-61ef3306c40b")
	)
	(fp_line
		(start -4.725 -4.55)
		(end -4.925 -4.35)
		(stroke
			(width 0.1)
			(type solid)
		)
		(layer "F.Fab")
		(uuid "79120001-bd33-4c24-a103-e3d4a53bd9e3")
	)
	(fp_line
		(start -4.6 -7)
		(end -6.25 -7.45)
		(stroke
			(width 0.1)
			(type default)
		)
		(layer "F.Fab")
		(uuid "7c86a38f-744f-4320-b5e9-789e459e6593")
	)
	(fp_line
		(start -4.6 -6.15)
		(end -6.250001 -6.15)
		(stroke
			(width 0.1)
			(type default)
		)
		(layer "F.Fab")
		(uuid "fcc7a0a2-0fbd-476c-a7bc-5a7a5f5917e5")
	)
	(fp_line
		(start -4.56 -1.65)
		(end -4.925 -1.65)
		(stroke
			(width 0.1)
			(type solid)
		)
		(layer "F.Fab")
		(uuid "a1c06c3c-0ad8-44a3-bd91-3d9a14798a1d")
	)
	(fp_line
		(start -4.56 -1.35)
		(end -4.925 -1.35)
		(stroke
			(width 0.1)
			(type solid)
		)
		(layer "F.Fab")
		(uuid "e0f6bda6-6e68-4084-8749-c59a9e91ae2f")
	)
	(fp_line
		(start -4.56 -0.75)
		(end -4.56 -4.15)
		(stroke
			(width 0.1)
			(type solid)
		)
		(layer "F.Fab")
		(uuid "8486f4d5-13e4-4d44-8099-039c1a22a8be")
	)
	(fp_line
		(start -4.56 0.4)
		(end -4.56 -0.75)
		(stroke
			(width 0.1)
			(type solid)
		)
		(layer "F.Fab")
		(uuid "a3a663d4-44af-4da4-bb45-65d2dccda9ec")
	)
	(fp_line
		(start -4.56 0.5)
		(end -4.56 0.4)
		(stroke
			(width 0.1)
			(type solid)
		)
		(layer "F.Fab")
		(uuid "0943d834-5e0d-48c0-a1d5-b59d286ad10d")
	)
	(fp_line
		(start -4.35 -4.36)
		(end -3.675 -4.36)
		(stroke
			(width 0.1)
			(type solid)
		)
		(layer "F.Fab")
		(uuid "41b3f5e3-73f3-4bf4-b4c7-12a111a1ef67")
	)
	(fp_line
		(start -4.35 -4.15)
		(end -4.56 -4.15)
		(stroke
			(width 0.1)
			(type solid)
		)
		(layer "F.Fab")
		(uuid "81d01822-4b2c-4eca-be9b-ea32085ce627")
	)
	(fp_line
		(start -4.35 -4.15)
		(end -3.675 -4.15)
		(stroke
			(width 0.1)
			(type solid)
		)
		(layer "F.Fab")
		(uuid "5c384baa-bd0e-4e2e-a31f-a6c39a408733")
	)
	(fp_line
		(start -4.35 -1.525)
		(end -4.325 -1.55)
		(stroke
			(width 0.1)
			(type solid)
		)
		(layer "F.Fab")
		(uuid "0d7f031b-7bb2-4539-8ff1-312714c35245")
	)
	(fp_line
		(start -4.35 -0.75)
		(end -4.56 -0.75)
		(stroke
			(width 0.1)
			(type solid)
		)
		(layer "F.Fab")
		(uuid "60ddc4c5-5ca0-4895-8177-9ab67963db7a")
	)
	(fp_line
		(start -4.35 -0.75)
		(end -4.35 -4.15)
		(stroke
			(width 0.1)
			(type solid)
		)
		(layer "F.Fab")
		(uuid "1cbd24af-6480-44a5-a0d9-4c186b565e88")
	)
	(fp_line
		(start -4.35 0.4)
		(end -4.56 0.4)
		(stroke
			(width 0.1)
			(type solid)
		)
		(layer "F.Fab")
		(uuid "9a0ecaee-62d5-4c73-9a17-eef1ee2b2a8d")
	)
	(fp_line
		(start -4.35 0.4)
		(end -4.35 -0.75)
		(stroke
			(width 0.1)
			(type solid)
		)
		(layer "F.Fab")
		(uuid "27262d0a-edbc-4a83-893f-60bb86e75093")
	)
	(fp_line
		(start -4.35 0.5)
		(end -4.35 0.4)
		(stroke
			(width 0.1)
			(type solid)
		)
		(layer "F.Fab")
		(uuid "658cf5e3-7fb4-4897-9b69-88aef448227e")
	)
	(fp_line
		(start -4.325 -1.65)
		(end -4.35 -1.65)
		(stroke
			(width 0.1)
			(type solid)
		)
		(layer "F.Fab")
		(uuid "ba281a46-4c63-48cf-a630-3d5a46adfc84")
	)
	(fp_line
		(start -4.325 0.5)
		(end -4.35 0.5)
		(stroke
			(width 0.1)
			(type solid)
		)
		(layer "F.Fab")
		(uuid "bb5c6ad9-1df1-46f9-98c3-3ec9c89a0765")
	)
	(fp_line
		(start -4.325 0.71)
		(end -4.35 0.71)
		(stroke
			(width 0.1)
			(type solid)
		)
		(layer "F.Fab")
		(uuid "10843657-ee71-46d2-84fc-0efde54e526e")
	)
	(fp_line
		(start -4.325 0.75)
		(end -4.325 -4.15)
		(stroke
			(width 0.1)
			(type solid)
		)
		(layer "F.Fab")
		(uuid "2760c7c7-cfe1-4c8d-8373-a97154179355")
	)
	(fp_line
		(start -4.311032 -4.55)
		(end -4.725 -4.55)
		(stroke
			(width 0.1)
			(type solid)
		)
		(layer "F.Fab")
		(uuid "f21fab57-47af-412f-8cd0-84106ddfb96a")
	)
	(fp_line
		(start -4.279603 -5.45)
		(end -4.317667 -4.36)
		(stroke
			(width 0.1)
			(type solid)
		)
		(layer "F.Fab")
		(uuid "3fa178c0-d1a6-4816-aefb-e828a85bd59b")
	)
	(fp_line
		(start -4.279603 -5.45)
		(end -2.320397 -5.45)
		(stroke
			(width 0.1)
			(type solid)
		)
		(layer "F.Fab")
		(uuid "e650bf9a-9539-4ee5-a842-a79c8ebbc7fd")
	)
	(fp_line
		(start -4.025 -4.15)
		(end -3.925 -4.05)
		(stroke
			(width 0.1)
			(type solid)
		)
		(layer "F.Fab")
		(uuid "b54310de-b33c-428a-82de-f45c32405d8b")
	)
	(fp_line
		(start -3.925 -7.339898)
		(end -3.925 -6.75)
		(stroke
			(width 0.1)
			(type solid)
		)
		(layer "F.Fab")
		(uuid "f1baa9e9-9721-4aab-8c41-04663b5554b1")
	)
	(fp_line
		(start -3.925 -6.75)
		(end -3.675 -6.75)
		(stroke
			(width 0.1)
			(type solid)
		)
		(layer "F.Fab")
		(uuid "c3f7f056-00b5-4a92-b3ba-3efe25b25704")
	)
	(fp_line
		(start -3.925 -5.45)
		(end -3.925 -6.75)
		(stroke
			(width 0.1)
			(type solid)
		)
		(layer "F.Fab")
		(uuid "1cafc95b-6fd9-4d46-85a1-389b3f5b8f4f")
	)
	(fp_line
		(start -3.925 -4.05)
		(end -3.925 -4.15)
		(stroke
			(width 0.1)
			(type solid)
		)
		(layer "F.Fab")
		(uuid "add9f34e-3434-4a1e-be19-782403f75965")
	)
	(fp_line
		(start -3.675 -7.05)
		(end -3.675 -5.45)
		(stroke
			(width 0.1)
			(type solid)
		)
		(layer "F.Fab")
		(uuid "96e9ac14-66ed-4648-a27a-34247c5f0f24")
	)
	(fp_line
		(start -3.675 -7.05)
		(end -3.175 -7.05)
		(stroke
			(width 0.1)
			(type solid)
		)
		(layer "F.Fab")
		(uuid "ead034c4-5a8b-45b6-afab-28b812a97efb")
	)
	(fp_line
		(start -3.175 -7.05)
		(end -3.175 -5.45)
		(stroke
			(width 0.1)
			(type solid)
		)
		(layer "F.Fab")
		(uuid "e913229a-4058-4f52-ae4c-1b2424e135f4")
	)
	(fp_line
		(start -2.925 -7.339898)
		(end -2.925 -6.75)
		(stroke
			(width 0.1)
			(type solid)
		)
		(layer "F.Fab")
		(uuid "ab2acb06-da42-4ab3-b948-d4cec0bec9db")
	)
	(fp_line
		(start -2.925 -6.75)
		(end -3.175 -6.75)
		(stroke
			(width 0.1)
			(type solid)
		)
		(layer "F.Fab")
		(uuid "11f7f18d-a6b0-4630-8aa0-a05b78164fe1")
	)
	(fp_line
		(start -2.925 -6.75)
		(end -2.925 -5.45)
		(stroke
			(width 0.1)
			(type solid)
		)
		(layer "F.Fab")
		(uuid "d2da42d2-e387-4898-bd43-004732253477")
	)
	(fp_line
		(start -2.875 0.75)
		(end -4.325 0.75)
		(stroke
			(width 0.1)
			(type solid)
		)
		(layer "F.Fab")
		(uuid "7904b676-d91f-4834-b808-08bd82a60eb5")
	)
	(fp_line
		(start -2.675 -4.36)
		(end -2.062581 -4.36)
		(stroke
			(width 0.1)
			(type solid)
		)
		(layer "F.Fab")
		(uuid "c66855cd-5c71-432d-825c-e1106c4449c6")
	)
	(fp_line
		(start -2.675 -4.15)
		(end -2.375 -4.15)
		(stroke
			(width 0.1)
			(type solid)
		)
		(layer "F.Fab")
		(uuid "9312758d-95ee-4c34-88fd-99289efdceb2")
	)
	(fp_line
		(start -2.675 0.05)
		(end -2.675 -0.05)
		(stroke
			(width 0.1)
			(type solid)
		)
		(layer "F.Fab")
		(uuid "91db80b8-ff69-4bed-be34-eccf3ba43ce9")
	)
	(fp_line
		(start -2.675 0.5)
		(end -2.675 0.55)
		(stroke
			(width 0.1)
			(type solid)
		)
		(layer "F.Fab")
		(uuid "c6cf41c5-9460-4a94-acab-c7bc8eb1a813")
	)
	(fp_line
		(start -2.675 0.55)
		(end -2.875 0.75)
		(stroke
			(width 0.1)
			(type solid)
		)
		(layer "F.Fab")
		(uuid "d9b0fead-79f6-4dd5-baa1-9aa5ca7694c8")
	)
	(fp_line
		(start -2.375 -4.15)
		(end -2.375 -3.75)
		(stroke
			(width 0.1)
			(type solid)
		)
		(layer "F.Fab")
		(uuid "5598cc27-12a6-4a36-bfdc-8cb58e4b5daa")
	)
	(fp_line
		(start -2.375 -4.15)
		(end -1.675 -4.15)
		(stroke
			(width 0.1)
			(type solid)
		)
		(layer "F.Fab")
		(uuid "aa65344d-1bce-48f2-a35e-3d926fa31e4b")
	)
	(fp_line
		(start -2.375 -3.75)
		(end -2.025 -3.75)
		(stroke
			(width 0.1)
			(type solid)
		)
		(layer "F.Fab")
		(uuid "fbbf0d00-63f5-4b39-84a8-5958f4de6ead")
	)
	(fp_line
		(start -2.282333 -4.36)
		(end -2.320397 -5.45)
		(stroke
			(width 0.1)
			(type solid)
		)
		(layer "F.Fab")
		(uuid "e725fe6b-92e7-4828-86e8-ba08732bf5b5")
	)
	(fp_line
		(start -2.062581 -4.36)
		(end -2.062581 -4.15)
		(stroke
			(width 0.1)
			(type solid)
		)
		(layer "F.Fab")
		(uuid "a508261c-6146-44e8-9600-2a9010e64d11")
	)
	(fp_line
		(start -2.025 -3.75)
		(end -2.025 -3.55)
		(stroke
			(width 0.1)
			(type solid)
		)
		(layer "F.Fab")
		(uuid "cb22dcc5-5f1d-4847-aad0-febbb8fe0fa4")
	)
	(fp_line
		(start -2.025 -3.55)
		(end -1.675 -3.55)
		(stroke
			(width 0.1)
			(type solid)
		)
		(layer "F.Fab")
		(uuid "b688567b-6e43-4dc1-8ebb-c4e7db8f604d")
	)
	(fp_line
		(start -1.692157 -4.36)
		(end 0.525 -4.36)
		(stroke
			(width 0.1)
			(type solid)
		)
		(layer "F.Fab")
		(uuid "cf1d5b70-9f44-45dd-bb41-34d308868ab7")
	)
	(fp_line
		(start -1.675 -4.15)
		(end -1.675 -3.45)
		(stroke
			(width 0.1)
			(type solid)
		)
		(layer "F.Fab")
		(uuid "58b3ca69-f722-43fa-b6ef-caa571c92451")
	)
	(fp_line
		(start -1.575 1.55)
		(end -1.575 0.5)
		(stroke
			(width 0.1)
			(type solid)
		)
		(layer "F.Fab")
		(uuid "55f4f9ba-e0b7-4cae-beb1-e6737e466d02")
	)
	(fp_line
		(start -1.375 -3.15)
		(end -0.625 -3.15)
		(stroke
			(width 0.1)
			(type solid)
		)
		(layer "F.Fab")
		(uuid "2d0ce941-ac4b-4bb7-b63f-135f37d5b315")
	)
	(fp_line
		(start -1.375 1.75)
		(end -1.575 1.55)
		(stroke
			(width 0.1)
			(type solid)
		)
		(layer "F.Fab")
		(uuid "3c4b04c4-f9f0-408f-ad44-c0f00378bbed")
	)
	(fp_line
		(start -1.175 0.5)
		(end -2.675 0.5)
		(stroke
			(width 0.1)
			(type solid)
		)
		(layer "F.Fab")
		(uuid "3fc527d8-e291-4c40-9ce7-579c1482889a")
	)
	(fp_line
		(start -1.175 0.55)
		(end -1.175 0.5)
		(stroke
			(width 0.1)
			(type solid)
		)
		(layer "F.Fab")
		(uuid "68554504-3219-49ec-a9d2-de25f1c0f5b2")
	)
	(fp_line
		(start -0.975 0.75)
		(end -1.175 0.55)
		(stroke
			(width 0.1)
			(type solid)
		)
		(layer "F.Fab")
		(uuid "3b51c3e3-0818-4dc7-9c70-0710297afaca")
	)
	(fp_line
		(start -0.975 1.55)
		(end -0.975 0.75)
		(stroke
			(width 0.1)
			(type solid)
		)
		(layer "F.Fab")
		(uuid "ef8987e1-5722-4456-8945-e9edc743adca")
	)
	(fp_line
		(start -0.975 1.75)
		(end -0.975 1.55)
		(stroke
			(width 0.1)
			(type solid)
		)
		(layer "F.Fab")
		(uuid "c6fad420-d5c3-4d30-9546-167ed2f5032a")
	)
	(fp_line
		(start -0.625 -3.15)
		(end 0.925 -1.95)
		(stroke
			(width 0.1)
			(type solid)
		)
		(layer "F.Fab")
		(uuid "7a16ad34-eec7-493c-81b5-f80babdfd7c0")
	)
	(fp_line
		(start -0.575 1.75)
		(end -0.375 1.55)
		(stroke
			(width 0.1)
			(type solid)
		)
		(layer "F.Fab")
		(uuid "b5843e84-98c5-40f9-a58d-17fa2072c302")
	)
	(fp_line
		(start -0.375 1.55)
		(end -0.375 0.75)
		(stroke
			(width 0.1)
			(type solid)
		)
		(layer "F.Fab")
		(uuid "6bbc212e-53af-42e6-b2fd-9588ca94e5f6")
	)
	(fp_line
		(start 0.525 -4.15)
		(end -1.675 -4.15)
		(stroke
			(width 0.1)
			(type solid)
		)
		(layer "F.Fab")
		(uuid "5c7e0db8-993f-4fb9-93fc-e33d9dd85037")
	)
	(fp_line
		(start 0.525 -4.15)
		(end 0.88577 -4.15)
		(stroke
			(width 0.1)
			(type solid)
		)
		(layer "F.Fab")
		(uuid "ebcbd87c-1eae-41b2-b018-524ea73306d1")
	)
	(fp_line
		(start 0.525 -3.95)
		(end 0.775 -3.95)
		(stroke
			(width 0.1)
			(type solid)
		)
		(layer "F.Fab")
		(uuid "6570663b-5068-4db8-bcf6-074dbc52b7b1")
	)
	(fp_line
		(start 0.525 -3.785635)
		(end 0.525 -4.15)
		(stroke
			(width 0.1)
			(type solid)
		)
		(layer "F.Fab")
		(uuid "ba32ac88-0f54-4459-af08-cb09cb73e81b")
	)
	(fp_line
		(start 0.575 0.05)
		(end 0.575 -0.05)
		(stroke
			(width 0.1)
			(type solid)
		)
		(layer "F.Fab")
		(uuid "1fad3c42-2199-47c7-aa1e-1f495f530f7d")
	)
	(fp_line
		(start 0.775 -3.498002)
		(end 0.775 -3.95)
		(stroke
			(width 0.1)
			(type solid)
		)
		(layer "F.Fab")
		(uuid "ba31609b-b561-44e1-af90-659fcb87e7af")
	)
	(fp_line
		(start 0.775 -1.55)
		(end 0.925 -1.4)
		(stroke
			(width 0.1)
			(type solid)
		)
		(layer "F.Fab")
		(uuid "527b27b1-c11d-4579-8ccf-97f743d8225e")
	)
	(fp_line
		(start 0.775 0.75)
		(end -0.975 0.75)
		(stroke
			(width 0.1)
			(type solid)
		)
		(layer "F.Fab")
		(uuid "a6f03958-3520-4f7b-a96a-4aa222ac9fb7")
	)
	(fp_line
		(start 0.775 0.75)
		(end 0.775 -2.066129)
		(stroke
			(width 0.1)
			(type solid)
		)
		(layer "F.Fab")
		(uuid "7191dd50-4984-4779-b691-ca63ec26f6b7")
	)
	(fp_line
		(start 0.925 -1.95)
		(end 0.925 -0.65)
		(stroke
			(width 0.1)
			(type solid)
		)
		(layer "F.Fab")
		(uuid "92f90d0e-91fe-485e-a4f1-1617b12ccef5")
	)
	(fp_line
		(start 0.925 -1.65)
		(end 0.775 -1.65)
		(stroke
			(width 0.1)
			(type solid)
		)
		(layer "F.Fab")
		(uuid "3abaf38d-43fe-4f5b-8219-e384abeea665")
	)
	(fp_line
		(start 0.925 -0.65)
		(end 2.025 0)
		(stroke
			(width 0.1)
			(type solid)
		)
		(layer "F.Fab")
		(uuid "91112aa5-a623-43ac-a5bb-29dfcce94802")
	)
	(fp_line
		(start 1.181659 -5.692042)
		(end 1.311001 -5.640508)
		(stroke
			(width 0.1)
			(type solid)
		)
		(layer "F.Fab")
		(uuid "28db3baa-eca6-4e83-84a6-c9641bac9ed4")
	)
	(fp_line
		(start 1.311001 -5.640508)
		(end 1.322105 -5.668378)
		(stroke
			(width 0.1)
			(type solid)
		)
		(layer "F.Fab")
		(uuid "fa3f820b-871b-413f-9a53-f1980eb90cf6")
	)
	(fp_line
		(start 1.325 -3.45)
		(end 1.325 -3.71077)
		(stroke
			(width 0.1)
			(type solid)
		)
		(layer "F.Fab")
		(uuid "d72d60ae-b2d5-4047-a1d2-0b6504adf52e")
	)
	(fp_line
		(start 1.325 -3.45)
		(end 1.925 -3.45)
		(stroke
			(width 0.1)
			(type solid)
		)
		(layer "F.Fab")
		(uuid "11aa4e52-edd0-4d4d-a5e2-39ad4d900ff6")
	)
	(fp_line
		(start 1.325 -3.159403)
		(end 1.325 -3.45)
		(stroke
			(width 0.1)
			(type solid)
		)
		(layer "F.Fab")
		(uuid "4098678e-14ec-48d0-9b50-0ac6c15d9a98")
	)
	(fp_line
		(start 1.325 0.35)
		(end 1.325 -0.413636)
		(stroke
			(width 0.1)
			(type solid)
		)
		(layer "F.Fab")
		(uuid "58b3e0b5-5207-47b0-807d-5ec723905779")
	)
	(fp_line
		(start 1.348014 -5.733406)
		(end -6.257236 -8.763583)
		(stroke
			(width 0.1)
			(type solid)
		)
		(layer "F.Fab")
		(uuid "72def6ba-36ad-409b-bbce-005be0c84c60")
	)
	(fp_line
		(start 1.877456 -5.441187)
		(end 1.322105 -5.668378)
		(stroke
			(width 0.1)
			(type solid)
		)
		(layer "F.Fab")
		(uuid "a4184605-c31d-4799-b72b-bb1a38461c65")
	)
	(fp_line
		(start 1.925 -5.34)
		(end 1.788097 -5.34)
		(stroke
			(width 0.1)
			(type solid)
		)
		(layer "F.Fab")
		(uuid "64ba493b-1f5e-4d88-8bac-37df73476968")
	)
	(fp_line
		(start 1.925 0)
		(end 1.925 0.35)
		(stroke
			(width 0.1)
			(type solid)
		)
		(layer "F.Fab")
		(uuid "71843e70-e26b-4f8d-991a-7d39760ddb67")
	)
	(fp_line
		(start 1.925 0)
		(end 2.925 0)
		(stroke
			(width 0.1)
			(type solid)
		)
		(layer "F.Fab")
		(uuid "d092b02b-6d42-4701-a099-b72bba226d05")
	)
	(fp_line
		(start 1.925 0.35)
		(end 1.325 0.35)
		(stroke
			(width 0.1)
			(type solid)
		)
		(layer "F.Fab")
		(uuid "13d9d685-d77a-455b-9cd7-a3874ad00339")
	)
	(fp_line
		(start 1.925 0.35)
		(end 1.925 0.21)
		(stroke
			(width 0.1)
			(type solid)
		)
		(layer "F.Fab")
		(uuid "259b2f39-c371-4da5-b066-aa65382a7ba0")
	)
	(fp_line
		(start 2.427185 -5.094327)
		(end 2.314038 -5.193565)
		(stroke
			(width 0.1)
			(type solid)
		)
		(layer "F.Fab")
		(uuid "c8be7a21-c943-4524-9b3e-4049d0db2b7a")
	)
	(fp_line
		(start 2.436878 -5.224216)
		(end 2.994265 -5.002135)
		(stroke
			(width 0.1)
			(type solid)
		)
		(layer "F.Fab")
		(uuid "d8549435-ad62-4db3-aed6-1a6d2d64f9cd")
	)
	(fp_line
		(start 2.462788 -5.289244)
		(end 1.905401 -5.511325)
		(stroke
			(width 0.1)
			(type solid)
		)
		(layer "F.Fab")
		(uuid "9dbc47ff-36b6-4015-ad6c-6a4f2a6e1f66")
	)
	(fp_line
		(start 2.825 0)
		(end 3.857286 -0.75)
		(stroke
			(width 0.1)
			(type solid)
		)
		(layer "F.Fab")
		(uuid "9a429446-ad12-402b-a076-60afbcad4977")
	)
	(fp_line
		(start 2.825 0.21)
		(end 2.025 0.21)
		(stroke
			(width 0.1)
			(type solid)
		)
		(layer "F.Fab")
		(uuid "e2fdfa1c-b534-49a3-a4e2-0c4967195d41")
	)
	(fp_line
		(start 2.925 0.35)
		(end 2.925 0)
		(stroke
			(width 0.1)
			(type solid)
		)
		(layer "F.Fab")
		(uuid "3e37d6f9-9d08-4126-8f6a-59ad47f4801b")
	)
	(fp_line
		(start 2.983161 -4.974266)
		(end 3.112503 -4.922732)
		(stroke
			(width 0.1)
			(type solid)
		)
		(layer "F.Fab")
		(uuid "ab3d848f-45ec-40d6-9ff8-cac30c08ff72")
	)
	(fp_line
		(start 2.994265 -5.002135)
		(end 2.983161 -4.974266)
		(stroke
			(width 0.1)
			(type solid)
		)
		(layer "F.Fab")
		(uuid "a3b049ac-2ee6-46df-84c4-b7527a972743")
	)
	(fp_line
		(start 3.025 -4.05718)
		(end 3.025 -4.270417)
		(stroke
			(width 0.1)
			(type solid)
		)
		(layer "F.Fab")
		(uuid "5b6b9bf6-a34a-451e-9a94-878576ac569d")
	)
	(fp_line
		(start 3.078256 -4.15)
		(end 3.475 -4.15)
		(stroke
			(width 0.1)
			(type solid)
		)
		(layer "F.Fab")
		(uuid "a8863b85-4d4d-400a-add1-aebbe07c5c84")
	)
	(fp_line
		(start 3.425 -0.35)
		(end 4.225 -0.35)
		(stroke
			(width 0.1)
			(type solid)
		)
		(layer "F.Fab")
		(uuid "44a63cbd-7fc1-46ab-be87-8e00a862f6e9")
	)
	(fp_line
		(start 3.425 0.35)
		(end 2.925 0.35)
		(stroke
			(width 0.1)
			(type solid)
		)
		(layer "F.Fab")
		(uuid "c8f2b946-3d0b-4f7a-b83b-0b6b5ffc5e7a")
	)
	(fp_line
		(start 3.425 0.35)
		(end 3.425 -0.35)
		(stroke
			(width 0.1)
			(type solid)
		)
		(layer "F.Fab")
		(uuid "95c70edd-446d-4240-8fb2-08cc9888609c")
	)
	(fp_line
		(start 3.475 -4.36)
		(end 4.275 -4.36)
		(stroke
			(width 0.1)
			(type solid)
		)
		(layer "F.Fab")
		(uuid "9253a60a-b885-4f20-acee-c51ff32f996c")
	)
	(fp_line
		(start 3.475 -4.15)
		(end 3.475 -4.051788)
		(stroke
			(width 0.1)
			(type solid)
		)
		(layer "F.Fab")
		(uuid "66c192a8-2ed7-43ed-943f-9ff86a15080a")
	)
	(fp_line
		(start 3.857286 -0.75)
		(end 4.275 -0.75)
		(stroke
			(width 0.1)
			(type solid)
		)
		(layer "F.Fab")
		(uuid "81d24b9f-a24f-499f-a952-9edf7961c907")
	)
	(fp_line
		(start 4.04205 -4.660015)
		(end 3.020175 -5.067163)
		(stroke
			(width 0.1)
			(type solid)
		)
		(layer "F.Fab")
		(uuid "c814945b-e804-4206-8fb5-d98138f8d987")
	)
	(fp_line
		(start 4.116077 -4.845811)
		(end 4.04205 -4.660015)
		(stroke
			(width 0.1)
			(type solid)
		)
		(layer "F.Fab")
		(uuid "babb95fd-ed34-40c4-be2d-605ac48814cf")
	)
	(fp_line
		(start 4.125 -4.57)
		(end 3.111423 -4.57)
		(stroke
			(width 0.1)
			(type solid)
		)
		(layer "F.Fab")
		(uuid "50f1b4de-7e56-4ff2-9448-0834ef2c0702")
	)
	(fp_line
		(start 4.225 -4.36)
		(end 4.225 -4.47)
		(stroke
			(width 0.1)
			(type solid)
		)
		(layer "F.Fab")
		(uuid "f6b56718-865c-4763-81a7-9a4e811554c1")
	)
	(fp_line
		(start 4.225 -0.75)
		(end 4.225 -0.35)
		(stroke
			(width 0.1)
			(type solid)
		)
		(layer "F.Fab")
		(uuid "a47ee1f4-7300-4d93-b734-b7d6db747e2e")
	)
	(fp_line
		(start 4.275 -4.36)
		(end 5.075 -4.36)
		(stroke
			(width 0.1)
			(type solid)
		)
		(layer "F.Fab")
		(uuid "785a75d8-6fe6-4f16-922f-c61c729efe72")
	)
	(fp_line
		(start 4.275 -4.15)
		(end 3.475 -4.15)
		(stroke
			(width 0.1)
			(type solid)
		)
		(layer "F.Fab")
		(uuid "d13999c0-6c00-4f49-b850-4a0c7b82b889")
	)
	(fp_line
		(start 4.275 -4.15)
		(end 4.275 -0.75)
		(stroke
			(width 0.1)
			(type solid)
		)
		(layer "F.Fab")
		(uuid "20ca71b0-8422-41f7-bf50-147f64660848")
	)
	(fp_line
		(start 4.275 -4.15)
		(end 5.075 -4.15)
		(stroke
			(width 0.1)
			(type solid)
		)
		(layer "F.Fab")
		(uuid "ba308922-34ba-4d9b-8ce9-b90e05440333")
	)
	(fp_line
		(start 4.275 -3.15)
		(end 4.3 -3.15)
		(stroke
			(width 0.1)
			(type solid)
		)
		(layer "F.Fab")
		(uuid "666aa050-143e-41e8-8364-373ded9ae0a8")
	)
	(fp_line
		(start 4.3 -0.75)
		(end 4.275 -0.75)
		(stroke
			(width 0.1)
			(type solid)
		)
		(layer "F.Fab")
		(uuid "5f5b5b62-dfac-4333-b31b-1341a3912123")
	)
	(fp_line
		(start 4.3 -0.75)
		(end 4.3 -3.15)
		(stroke
			(width 0.1)
			(type solid)
		)
		(layer "F.Fab")
		(uuid "7f5f0975-7365-4016-a7cd-c28a68d17d76")
	)
	(fp_line
		(start 4.51 -3.15)
		(end 4.51 -0.75)
		(stroke
			(width 0.1)
			(type solid)
		)
		(layer "F.Fab")
		(uuid "0bb9750d-2f34-48b1-9d67-27e1c66dfcce")
	)
	(fp_line
		(start 4.51 -2.65)
		(end 4.966238 -2.65)
		(stroke
			(width 0.1)
			(type solid)
		)
		(layer "F.Fab")
		(uuid "3e2c5621-c02d-45d4-8863-bc8185812657")
	)
	(fp_line
		(start 4.51 -1.65)
		(end 4.966238 -1.65)
		(stroke
			(width 0.1)
			(type solid)
		)
		(layer "F.Fab")
		(uuid "46ee5bab-505f-46d6-ba95-4bae1d8e7bc0")
	)
	(fp_line
		(start 4.966238 -2.65)
		(end 4.966238 -1.65)
		(stroke
			(width 0.1)
			(type solid)
		)
		(layer "F.Fab")
		(uuid "0a636bf5-537a-4649-98fe-9fac7d9d02b3")
	)
	(fp_line
		(start 5.075 -4.36)
		(end 5.075 -4.15)
		(stroke
			(width 0.1)
			(type solid)
		)
		(layer "F.Fab")
		(uuid "717d6558-44db-4050-972e-9643eeab4a43")
	)
	(fp_rect
		(start -3.875 -0.05)
		(end -2.675 0.05)
		(stroke
			(width 0.1)
			(type solid)
		)
		(fill none)
		(layer "F.Fab")
		(uuid "82916c37-4677-40dc-a1dc-0dbfc2c83e7f")
	)
	(fp_rect
		(start -3.675 -4.36)
		(end -2.675 -4.15)
		(stroke
			(width 0.1)
			(type solid)
		)
		(fill none)
		(layer "F.Fab")
		(uuid "289e119c-9de1-4c70-a350-05e386e329e7")
	)
	(fp_rect
		(start -0.625 -0.05)
		(end 0.575 0.05)
		(stroke
			(width 0.1)
			(type solid)
		)
		(fill none)
		(layer "F.Fab")
		(uuid "f9455d6d-0f12-4210-b857-a7ecb8cefece")
	)
	(fp_arc
		(start -6.394173 -8.937303)
		(mid -6.290026 -8.966744)
		(end -6.183209 -8.949378)
		(stroke
			(width 0.1)
			(type solid)
		)
		(layer "F.Fab")
		(uuid "36c2b98b-8ec3-470d-bb00-e2495aceacd7")
	)
	(fp_arc
		(start -6.299429 -8.761168)
		(mid -6.278597 -8.767071)
		(end -6.257236 -8.763583)
		(stroke
			(width 0.1)
			(type solid)
		)
		(layer "F.Fab")
		(uuid "9c304c07-55ed-4fc5-8e37-98f6cc572f2a")
	)
	(fp_arc
		(start -4.56 -4.15)
		(mid -4.498491 -4.298489)
		(end -4.35 -4.36)
		(stroke
			(width 0.1)
			(type solid)
		)
		(layer "F.Fab")
		(uuid "11259408-5b13-47cb-9ecf-d02cb0f5ea22")
	)
	(fp_arc
		(start -4.35 0.71)
		(mid -4.498505 0.648495)
		(end -4.56 0.5)
		(stroke
			(width 0.1)
			(type solid)
		)
		(layer "F.Fab")
		(uuid "7890a565-536f-4479-8b39-eb0486707498")
	)
	(fp_arc
		(start -3.925 -7.339898)
		(mid -3.425 -7.55)
		(end -2.925 -7.339898)
		(stroke
			(width 0.1)
			(type solid)
		)
		(layer "F.Fab")
		(uuid "16d70f50-0450-41bc-8091-466a35f55697")
	)
	(fp_arc
		(start -1.375 -3.15)
		(mid -1.587132 -3.237868)
		(end -1.675 -3.45)
		(stroke
			(width 0.1)
			(type solid)
		)
		(layer "F.Fab")
		(uuid "57a598e1-331c-42e9-8132-2460cbd38f05")
	)
	(fp_arc
		(start 0.810227 -5.194162)
		(mid 0.963169 -5.467552)
		(end 1.181659 -5.692042)
		(stroke
			(width 0.1)
			(type solid)
		)
		(layer "F.Fab")
		(uuid "4f5aaef2-687b-4947-9c82-c3c6b2c7c2ce")
	)
	(fp_arc
		(start 1.345 -4.75)
		(mid 1.935 -5.34)
		(end 2.525 -4.75)
		(stroke
			(width 0.1)
			(type solid)
		)
		(layer "F.Fab")
		(uuid "bfc765cc-f76e-44ba-888a-d8190fd70d6d")
	)
	(fp_arc
		(start 1.367613 -4.972081)
		(mid 1.518742 -5.191537)
		(end 1.749995 -5.323911)
		(stroke
			(width 0.1)
			(type solid)
		)
		(layer "F.Fab")
		(uuid "e6a00e56-8e08-4705-836c-ffb077432aeb")
	)
	(fp_arc
		(start 1.877455 -5.441187)
		(mid 1.827079 -5.368036)
		(end 1.749995 -5.323911)
		(stroke
			(width 0.1)
			(type solid)
		)
		(layer "F.Fab")
		(uuid "ffc349b5-679f-429d-bdf2-0e6232e75f00")
	)
	(fp_arc
		(start 2.446729 -5.04631)
		(mid 2.42111 -5.131355)
		(end 2.434843 -5.219106)
		(stroke
			(width 0.1)
			(type solid)
		)
		(layer "F.Fab")
		(uuid "1629100a-b961-4a4a-b3bd-92c70f83af1e")
	)
	(fp_arc
		(start 2.446729 -5.046309)
		(mid 2.505102 -4.903236)
		(end 2.525 -4.75)
		(stroke
			(width 0.1)
			(type solid)
		)
		(layer "F.Fab")
		(uuid "81aedcff-1418-4f51-9f50-75e4a711a799")
	)
	(fp_arc
		(start 2.482387 -4.527919)
		(mid 1.702919 -4.192613)
		(end 1.367613 -4.972081)
		(stroke
			(width 0.1)
			(type solid)
		)
		(layer "F.Fab")
		(uuid "96740f7e-437d-4147-920a-87cbda8dc79a")
	)
	(fp_arc
		(start 2.525 -4.75)
		(mid 1.935 -4.16)
		(end 1.345 -4.75)
		(stroke
			(width 0.1)
			(type solid)
		)
		(layer "F.Fab")
		(uuid "8c6aa38a-2491-41eb-abd3-4d28e46827a3")
	)
	(fp_arc
		(start 2.525 -4.75)
		(mid 2.51425 -4.636934)
		(end 2.482387 -4.527919)
		(stroke
			(width 0.1)
			(type solid)
		)
		(layer "F.Fab")
		(uuid "1021132d-acb0-4df7-929d-2737f349b558")
	)
	(fp_arc
		(start 3.039774 -4.305838)
		(mid 1.480838 -3.635226)
		(end 0.810226 -5.194162)
		(stroke
			(width 0.1)
			(type solid)
		)
		(layer "F.Fab")
		(uuid "9db47856-e1be-4262-bbe4-962a3a0b5930")
	)
	(fp_arc
		(start 3.078256 -4.15)
		(mid 2.599537 -3.638695)
		(end 1.925 -3.45)
		(stroke
			(width 0.1)
			(type solid)
		)
		(layer "F.Fab")
		(uuid "9e96b7e5-1640-4ad8-99c3-bbc8589d5c3a")
	)
	(fp_arc
		(start 3.112503 -4.922731)
		(mid 3.121871 -4.836591)
		(end 3.125 -4.75)
		(stroke
			(width 0.1)
			(type solid)
		)
		(layer "F.Fab")
		(uuid "94d588da-e72a-4408-a863-2a598c5341fb")
	)
	(fp_arc
		(start 3.125 -4.75)
		(mid 3.103501 -4.523868)
		(end 3.039774 -4.305838)
		(stroke
			(width 0.1)
			(type solid)
		)
		(layer "F.Fab")
		(uuid "de34e92f-ef24-4813-a6a8-f2e92563eba0")
	)
	(fp_arc
		(start 3.475 -4.051788)
		(mid 2.077756 -3.056877)
		(end 0.525 -3.785635)
		(stroke
			(width 0.1)
			(type solid)
		)
		(layer "F.Fab")
		(uuid "93d3b547-b93c-484a-a30a-3eb24f78c21f")
	)
	(fp_arc
		(start 4.125 -4.57)
		(mid 4.195711 -4.540711)
		(end 4.225 -4.47)
		(stroke
			(width 0.1)
			(type solid)
		)
		(layer "F.Fab")
		(uuid "7522e7a6-3fba-4879-82d4-2526ac3866e1")
	)
	(fp_text user "${REFERENCE}"
		(at 0 -9.5 180)
		(layer "F.Fab")
		(uuid "e1a2d5f2-b3d8-42f2-8289-6665f901da4b")
		(effects
			(font
				(size 1 1)
				(thickness 0.15)
			)
		)
	)
	(pad "1" thru_hole roundrect
		(at 0 0)
		(size 2.5 1.8)
		(drill 1.1)
		(layers "*.Cu" "*.Mask")
		(remove_unused_layers no)
		(roundrect_rratio 0.25)
		(thermal_bridge_angle 45)
		(uuid "615c2958-d7f5-489f-af31-d8c2aeb52430")
	)
	(pad "2" thru_hole circle
		(at -3.25 0)
		(size 2.2 2.2)
		(drill 1.1)
		(layers "*.Cu" "*.Mask")
		(remove_unused_layers no)
		(uuid "412b2f64-08a8-4e26-8a16-8d918fd4bdd9")
	)
	(pad "MP" thru_hole circle
		(at -4.5 -2.15)
		(size 2 2)
		(drill 1.2)
		(layers "*.Cu" "*.Mask")
		(remove_unused_layers no)
		(uuid "46bc6be5-d5aa-40b8-b019-06a714729b1b")
	)
	(pad "MP" thru_hole circle
		(at 4.36 -2.15)
		(size 2 2)
		(drill 1.2)
		(layers "*.Cu" "*.Mask")
		(remove_unused_layers no)
		(uuid "843e5246-b578-47d0-9adb-c0f10c64a7ae")
	)
	(model "${LSF_KICAD_LIB}/lsf-kicad-lib.3dshapes/SPPB6A0100.wrl"
		(offset
			(xyz 0 0 0)
		)
		(scale
			(xyz 1 1 1)
		)
		(rotate
			(xyz 0 0 0)
		)
	)
)
