(footprint "Texas_DQF0008A"
	(version 20240108)
	(generator "pcbnew")
	(generator_version "8.0")
	(layer "F.Cu")
	(descr "8-Lead Plastic WSON, 2x2mm Body, 0.5mm Pitch, WSON-8, https://www.ti.com/lit/ml/mpss009b/mpss009b.pdf")
	(tags "WSON 8")
	(property "Reference" "REF**"
		(at 0.38 -1.9 0)
		(layer "F.SilkS")
		(uuid "236986d6-9fc2-4363-9964-82a64a700853")
		(effects
			(font
				(size 1 1)
				(thickness 0.15)
			)
		)
	)
	(property "Value" "Texas_DQF0008A"
		(at 0.01 2.14 0)
		(layer "F.Fab")
		(uuid "287094cd-11a5-4e8c-a807-d8128c586c74")
		(effects
			(font
				(size 1 1)
				(thickness 0.15)
			)
		)
	)
	(property "Footprint" ""
		(at 0 0 0)
		(unlocked yes)
		(layer "F.Fab")
		(hide yes)
		(uuid "2bc91ec9-4b8d-4cef-824e-a2a11f7d01f0")
		(effects
			(font
				(size 1.27 1.27)
				(thickness 0.15)
			)
		)
	)
	(property "Datasheet" ""
		(at 0 0 0)
		(unlocked yes)
		(layer "F.Fab")
		(hide yes)
		(uuid "04bf9e3e-f9cc-484a-88e3-f855273a5fd3")
		(effects
			(font
				(size 1.27 1.27)
				(thickness 0.15)
			)
		)
	)
	(property "Description" ""
		(at 0 0 0)
		(unlocked yes)
		(layer "F.Fab")
		(hide yes)
		(uuid "29bb3600-d672-4a4c-ab6b-09a8efc44dfc")
		(effects
			(font
				(size 1.27 1.27)
				(thickness 0.15)
			)
		)
	)
	(attr smd)
	(fp_line
		(start -1.01 -1.14)
		(end 0.99 -1.14)
		(stroke
			(width 0.12)
			(type solid)
		)
		(layer "F.SilkS")
		(uuid "33f8265c-f1e4-430b-aa4d-de7305fd1997")
	)
	(fp_line
		(start -1 1.14)
		(end 1 1.14)
		(stroke
			(width 0.12)
			(type solid)
		)
		(layer "F.SilkS")
		(uuid "f579bb5c-03a7-48c3-b460-e8c1f37eab03")
	)
	(fp_poly
		(pts
			(xy -1.37 -1.07) (xy -1.65 -1.07) (xy -1.37 -1.35) (xy -1.37 -1.07)
		)
		(stroke
			(width 0.12)
			(type solid)
		)
		(fill solid)
		(layer "F.SilkS")
		(uuid "25845e83-c791-4968-ac0f-22b472244fc0")
	)
	(fp_line
		(start -1.4 -1.25)
		(end -1.4 1.25)
		(stroke
			(width 0.05)
			(type solid)
		)
		(layer "F.CrtYd")
		(uuid "8db76537-8e6e-4bab-b8e2-26c34af6cf33")
	)
	(fp_line
		(start -1.4 -1.25)
		(end 1.4 -1.25)
		(stroke
			(width 0.05)
			(type solid)
		)
		(layer "F.CrtYd")
		(uuid "1440e409-26ea-46f8-8a18-7e56daf9c903")
	)
	(fp_line
		(start -1.4 1.25)
		(end 1.4 1.25)
		(stroke
			(width 0.05)
			(type solid)
		)
		(layer "F.CrtYd")
		(uuid "2e49cac0-3fdf-4205-83fc-1c3f3b490b98")
	)
	(fp_line
		(start 1.4 -1.25)
		(end 1.4 1.25)
		(stroke
			(width 0.05)
			(type solid)
		)
		(layer "F.CrtYd")
		(uuid "c7d9d7db-4867-40b9-9d77-74ccc2b4f322")
	)
	(fp_line
		(start -1 1)
		(end -1 -0.5)
		(stroke
			(width 0.1)
			(type solid)
		)
		(layer "F.Fab")
		(uuid "e4d8836a-010e-4f41-987f-db706dd782a6")
	)
	(fp_line
		(start -0.5 -1)
		(end -1 -0.5)
		(stroke
			(width 0.1)
			(type solid)
		)
		(layer "F.Fab")
		(uuid "1d6fcf7f-b587-44bb-b038-32542227617f")
	)
	(fp_line
		(start -0.5 -1)
		(end 1 -1)
		(stroke
			(width 0.1)
			(type solid)
		)
		(layer "F.Fab")
		(uuid "315ccec6-b446-46c6-81fd-d183060fd457")
	)
	(fp_line
		(start 1 -1)
		(end 1 1)
		(stroke
			(width 0.1)
			(type solid)
		)
		(layer "F.Fab")
		(uuid "ef0104be-56f5-4b11-8413-c5f6516ccc59")
	)
	(fp_line
		(start 1 1)
		(end -1 1)
		(stroke
			(width 0.1)
			(type solid)
		)
		(layer "F.Fab")
		(uuid "d40ffa3e-7cec-478e-af43-399c507434ba")
	)
	(fp_text user "${REFERENCE}"
		(at 0 0 0)
		(layer "F.Fab")
		(uuid "085fa65b-f7b5-46fa-8064-2e077c178ce9")
		(effects
			(font
				(size 0.7 0.7)
				(thickness 0.1)
			)
		)
	)
	(pad "1" smd roundrect
		(at -0.8 -0.75)
		(size 0.8 0.25)
		(layers "F.Cu" "F.Paste" "F.Mask")
		(roundrect_rratio 0.2)
		(uuid "0d9119ef-e2e3-421d-a1e6-f6f6065b8b29")
	)
	(pad "2" smd roundrect
		(at -0.85 -0.25)
		(size 0.7 0.25)
		(layers "F.Cu" "F.Paste" "F.Mask")
		(roundrect_rratio 0.2)
		(uuid "10cc1cfc-ae73-4fe1-8f1d-d55c660801b8")
	)
	(pad "3" smd roundrect
		(at -0.85 0.25)
		(size 0.7 0.25)
		(layers "F.Cu" "F.Paste" "F.Mask")
		(roundrect_rratio 0.2)
		(uuid "37ddf089-bafb-4bd7-915e-9d8bac4ecdf7")
	)
	(pad "4" smd roundrect
		(at -0.85 0.75)
		(size 0.7 0.25)
		(layers "F.Cu" "F.Paste" "F.Mask")
		(roundrect_rratio 0.2)
		(uuid "4b4a9354-4a81-4bc6-ba4a-02ad787f4ac0")
	)
	(pad "5" smd roundrect
		(at 0.85 0.75)
		(size 0.7 0.25)
		(layers "F.Cu" "F.Paste" "F.Mask")
		(roundrect_rratio 0.2)
		(uuid "e0a4e629-4859-4a83-b181-4c51bcfaa988")
	)
	(pad "6" smd roundrect
		(at 0.85 0.25)
		(size 0.7 0.25)
		(layers "F.Cu" "F.Paste" "F.Mask")
		(roundrect_rratio 0.2)
		(uuid "f8f6bbb0-459a-4b36-be9f-726c8b2ee39e")
	)
	(pad "7" smd roundrect
		(at 0.85 -0.25)
		(size 0.7 0.25)
		(layers "F.Cu" "F.Paste" "F.Mask")
		(roundrect_rratio 0.2)
		(uuid "caf33a7e-2ed1-4bf9-9e71-dc10e7d69000")
	)
	(pad "8" smd roundrect
		(at 0.85 -0.75)
		(size 0.7 0.25)
		(layers "F.Cu" "F.Paste" "F.Mask")
		(roundrect_rratio 0.2)
		(uuid "9e971813-618f-4b88-9a11-dff6720d914a")
	)
	(model "${LSF_KICAD_LIB}/lsf-kicad-lib.3dshapes/Texas_DQF0008A.wrl"
		(offset
			(xyz 0 0 0)
		)
		(scale
			(xyz 1 1 1)
		)
		(rotate
			(xyz 0 0 0)
		)
	)
)
