#VRML V2.0 utf8
#kicad StepUp wrl exported

Shape {
    appearance Appearance {material DEF PIN-01 Material {
        ambientIntensity 0.271
        diffuseColor 0.824 0.820 0.781
        specularColor 0.328 0.258 0.172
        emissiveColor 0.0 0.0 0.0
        shininess 0.70
        transparency 0.0
        }
    }
}
Shape {
    appearance Appearance {material DEF MET-01 Material {
        ambientIntensity 0.249999
        diffuseColor 0.298 0.298 0.298
        specularColor 0.398 0.398 0.398
        emissiveColor 0.0 0.0 0.0
        shininess 0.056122
        transparency 0.0
        }
    }
}
Shape {
    appearance Appearance {material DEF PIN-02 Material {
        ambientIntensity 0.379
        diffuseColor 0.859 0.738 0.496
        specularColor 0.137 0.145 0.184
        emissiveColor 0.0 0.0 0.0
        shininess 0.40
        transparency 0.0
        }
    }
}
Shape {
    appearance Appearance {material DEF IC-BODY-EPOXY-04 Material {
        ambientIntensity 0.293
        diffuseColor 0.148 0.145 0.145
        specularColor 0.180 0.168 0.160
        emissiveColor 0.0 0.0 0.0
        shininess 0.35
        transparency 0.0
        }
    }
}
Shape {
    appearance Appearance {material DEF RES-SMD-01 Material {
        diffuseColor 0.082 0.086 0.094
        emissiveColor 0.000 0.000 0.000
        specularColor 0.066 0.063 0.063
        ambientIntensity 0.638
        transparency 0.0
        shininess 0.3
        }
    }
}
Shape {
    appearance Appearance {material DEF IC-BODY-EPOXY-01 Material {
        ambientIntensity 0.117
        diffuseColor 0.250 0.262 0.281
        specularColor 0.316 0.281 0.176
        emissiveColor 0.0 0.0 0.0
        shininess 0.25
        transparency 0.0
        }
    }
}
Shape {
    appearance Appearance {material DEF CAP-CERAMIC-05 Material {
        ambientIntensity 0.179
        diffuseColor 0.273 0.273 0.273
        specularColor 0.203 0.188 0.176
        emissiveColor 0.0 0.0 0.0
        shininess 0.15
        transparency 0.0
        }
    }
}
Shape {
    appearance Appearance {material DEF CAP-CERAMIC-06 Material {
        ambientIntensity 0.453
        diffuseColor 0.379 0.270 0.215
        specularColor 0.223 0.223 0.223
        emissiveColor 0.0 0.0 0.0
        shininess 0.15
        transparency 0.0
        }
    }
}
Shape {
    appearance Appearance {material DEF RES-THT-01 Material {
        ambientIntensity 0.149
        diffuseColor 0.883 0.711 0.492
        specularColor 0.043 0.121 0.281
        emissiveColor 0.0 0.0 0.0
        shininess 0.40
        transparency 0.0
        }
    }
}
Shape {
    appearance Appearance {material DEF PLASTIC-BLUE-01 Material {
        ambientIntensity 0.565
        diffuseColor 0.137 0.402 0.727
        specularColor 0.359 0.379 0.270
        emissiveColor 0.0 0.0 0.0
        shininess 0.25
        transparency 0.0
        }
    }
}
Shape {
    appearance Appearance {material DEF PLASTIC-GREEN-01 Material {
        ambientIntensity 0.315
        diffuseColor 0.340 0.680 0.445
        specularColor 0.176 0.105 0.195
        emissiveColor 0.0 0.0 0.0
        shininess 0.25
        transparency 0.0
        }
    }
}
Shape {
    appearance Appearance {material DEF PLASTIC-ORANGE-01 Material {
        ambientIntensity 0.284
        diffuseColor 0.809 0.426 0.148
        specularColor 0.039 0.102 0.145
        emissiveColor 0.0 0.0 0.0
        shininess 0.25
        transparency 0.0
        }
    }
}
Shape {
    appearance Appearance {material DEF RED-BODY Material {
        ambientIntensity 0.683
        diffuseColor 0.700 0.100 0.050
        emissiveColor 0.000 0.000 0.000
        specularColor 0.300 0.400 0.150
        shininess 0.25
        transparency 0.0
        }
    }
}
Shape {
    appearance Appearance {material DEF CAP-CERAMIC-02 Material {
        ambientIntensity 0.683
        diffuseColor 0.578 0.336 0.352
        specularColor 0.105 0.273 0.270
        emissiveColor 0.0 0.0 0.0
        shininess 0.25
        transparency 0.0
        }
    }
}
Shape {
    appearance Appearance {material DEF PLASTIC-YELLOW-01 Material {
        ambientIntensity 0.522
        diffuseColor 0.832 0.680 0.066
        specularColor 0.160 0.203 0.320
        emissiveColor 0.0 0.0 0.0
        shininess 0.25
        transparency 0.0
        }
    }
}
Shape {
    appearance Appearance {material DEF PLASTIC-WHITE-01 Material {
        ambientIntensity 0.494
        diffuseColor 0.895 0.891 0.813
        specularColor 0.047 0.055 0.109
        emissiveColor 0.0 0.0 0.0
        shininess 0.25
        transparency 0.0
        }
    }
}
Shape {
    appearance Appearance {material DEF IC-LABEL-01 Material {
        ambientIntensity 0.082
        diffuseColor 0.691 0.664 0.598
        specularColor 0.000 0.000 0.000
        emissiveColor 0.0 0.0 0.0
        shininess 0.01
        transparency 0.0
        }
    }
}
Shape {
    appearance Appearance {material DEF LED-RED Material {
        ambientIntensity 0.789
        diffuseColor 0.700 0.100 0.050
        emissiveColor 0.000 0.000 0.000
        specularColor 0.300 0.400 0.150
        shininess 0.125
        transparency 0.10
        }
    }
}
Shape {
    appearance Appearance {material DEF LED-GREEN Material {
        ambientIntensity 0.789
        diffuseColor 0.400 0.700 0.150
        emissiveColor 0.000 0.000 0.000
        specularColor 0.600 0.300 0.100
        shininess 0.05
        transparency 0.10
        }
    }
}
Shape {
    appearance Appearance {material DEF LED-BLUE Material {
        ambientIntensity 0.789
        diffuseColor 0.100 0.250 0.700
        emissiveColor 0.000 0.000 0.000
        specularColor 0.500 0.600 0.300
        shininess 0.125
        transparency 0.10
        }
    }
}
Shape {
    appearance Appearance {material DEF LED-YELLOW Material {
        ambientIntensity 0.522
        diffuseColor 0.98 0.840 0.066
        specularColor 0.160 0.203 0.320
        emissiveColor 0.0 0.0 0.0
        shininess 0.125
        transparency 0.10
        }
    }
}
Shape {
    appearance Appearance {material DEF LED-WHITE Material {
        ambientIntensity 0.494
        diffuseColor 0.895 0.891 0.813
        specularColor 0.047 0.055 0.109
        emissiveColor 0.0 0.0 0.0
        shininess 0.125
        transparency 0.10
        }
    }
}
Shape {
    appearance Appearance {material DEF LED-GREY Material {
        ambientIntensity 0.494
        diffuseColor 0.27 0.25 0.27
        specularColor 0.5 0.5 0.6
        emissiveColor 0.0 0.0 0.0
        shininess 0.35
        transparency 0.10
        }
    }
}
Shape {
    appearance Appearance {material DEF LED-BLACK Material {
        ambientIntensity 0.494
        diffuseColor 0.1 0.05 0.1
        specularColor 0.6 0.5 0.6
        emissiveColor 0.0 0.0 0.0
        shininess 0.5
        transparency 0.0
        }
    }
}
Shape {
    appearance Appearance {material DEF GLASS-19 Material {
        ambientIntensity 2.018212
        diffuseColor 0.400769 0.441922 0.459091
        specularColor 0.573887 0.649271 0.810811
        emissiveColor 0.000000 0.000000 0.000000
        shininess 0.127273
        transparency 0.37
        }
    }
}
Shape {
    appearance Appearance {material DEF GLASS-29 Material {
        ambientIntensity 0.234375
        diffuseColor 0.566681 0.580872 0.580874
        specularColor 0.617761 0.429816 0.400140
        emissiveColor 0.000000 0.000000 0.000000
        shininess 0.072727
        transparency 0.38
        }
    }
}
Shape {
    appearance Appearance {material DEF GLASS-13 Material {
        ambientIntensity 0.250000
        diffuseColor 0.000000 0.631244 0.748016
        specularColor 0.915152 0.915152 0.915152
        emissiveColor 0.000000 0.000000 0.000000
        shininess 0.642424
        transparency 0.39
        }
    }
}
Shape {
    appearance Appearance {material DEF GLASS-GREEN Material {
        ambientIntensity 0.250000
        diffuseColor 0.000000 0.75 0.44
        specularColor 0.915152 0.915152 0.915152
        emissiveColor 0.000000 0.000000 0.000000
        shininess 0.642424
        transparency 0.39
        }
    }
}
Shape {
    appearance Appearance {material DEF GLASS-ORANGE Material {
        ambientIntensity 0.250000
        diffuseColor 0.75 0.44 0.000000
        specularColor 0.915152 0.915152 0.915152
        emissiveColor 0.000000 0.000000 0.000000
        shininess 0.642424
        transparency 0.39
        }
    }
}
Shape {
    appearance Appearance {material DEF BOARD-GREEN-02 Material {
        ambientIntensity 1
        diffuseColor 0.07 0.3 0.12
        specularColor 0.07 0.3 0.12
        emissiveColor 0.0 0.0 0.0
        shininess 0.40
        transparency 0.0
        }
    }
}
Shape {
    appearance Appearance {material DEF BOARD-BLUE-01 Material {
        ambientIntensity 1
        diffuseColor 0.07 0.12 0.3
        specularColor 0.07 0.12 0.3
        emissiveColor 0.0 0.0 0.0
        shininess 0.40
        transparency 0.0
        }
    }
}
Shape {
    appearance Appearance {material DEF BOARD-BLACK-03 Material {
        ambientIntensity 1
        diffuseColor 0.16 0.16 0.16
        specularColor 0.16 0.16 0.16
        emissiveColor 0.0 0.0 0.0
        shininess 0.40
        transparency 0.0
        }
    }
}
Shape {
    appearance Appearance {material DEF MET-ALUMINUM Material {
        ambientIntensity 0.256000
        diffuseColor 0.372322 0.371574 0.373173
        specularColor 0.556122 0.554201 0.556122
        emissiveColor 0.0 0.0 0.0
        shininess 0.127551
        transparency 0.0
        }
    }
}
Shape {
    appearance Appearance {material DEF MET-BRONZE Material {
        ambientIntensity 0.022727
        diffuseColor 0.714 0.4284 0.18144
        specularColor 0.393548 0.271906 0.166721
        emissiveColor 0.000000 0.000000 0.000000
        shininess 0.2
        transparency 0.0
        }
    }
}
Shape {
    appearance Appearance {material DEF MET-SILVER Material {
        ambientIntensity 0.022727
        diffuseColor 0.50754 0.50754 0.50754
        specularColor 0.508273 0.508273 0.508273
        emissiveColor 0.000000 0.000000 0.000000
        shininess 0.4
        transparency 0.0
        }
    }
}
Shape {
    appearance Appearance {material DEF MET-COPPER Material {
        ambientIntensity 0.022727
        diffuseColor 0.7038 0.27048 0.0828
        specularColor 0.780612 0.37 0.000000
        emissiveColor 0.000000 0.000000 0.000000
        shininess 0.2
        transparency 0.0
        }
    }
}
Shape { geometry IndexedFaceSet 
{ creaseAngle 0.50 coordIndex [0,1,2,-1,3,0,4,-1,5,6,7,-1,5,7,8,-1,5,8,9,-1,5,9,10,-1,5,10,11,-1,5,11,12,-1,5,12,13,-1,5,13,14,-1,5,14,1,-1,15,3,16,-1,15,16,17,-1,18,19,20,-1,18,20,5,-1,21,22,23,-1,24,25,18,-1,24,15,22,-1,24,1,0,-1,24,5,1,-1,24,0,3,-1,24,3,15,-1,24,22,21,-1,24,18,5,-1]
coord Coordinate { point [-0.0559972 0.461179 2.18897,0.164737 0.434377 2.18897,0.0559972 0.461179 2.18897,-0.263904 0.38233 2.18897,-0.164737 0.434377 2.18897,0.164737 -0.434377 2.18897,0.263904 -0.38233 2.18897,0.347733 -0.308064 2.18897,0.411353 -0.215895 2.18897,0.451067 -0.111178 2.18897,0.464566 9.88638e-16 2.18897,0.451067 0.111178 2.18897,0.411353 0.215895 2.18897,0.347733 0.308064 2.18897,0.263904 0.38233 2.18897,-0.451067 0.111178 2.18897,-0.347733 0.308064 2.18897,-0.411353 0.215895 2.18897,-0.164737 -0.434377 2.18897,-0.0559972 -0.461179 2.18897,0.0559972 -0.461179 2.18897,-0.411353 -0.215895 2.18897,-0.464566 1.45815e-15 2.18897,-0.451067 -0.111178 2.18897,-0.347733 -0.308064 2.18897,-0.263904 -0.38233 2.18897]
}}
appearance Appearance{material USE MET-BRONZE }}
Shape { geometry IndexedFaceSet 
{ creaseAngle 0.50 coordIndex [0,1,2,-1,0,2,3,-1,4,3,5,-1,4,0,3,-1,6,5,7,-1,6,4,5,-1,8,7,9,-1,8,6,7,-1,10,9,11,-1,10,8,9,-1,12,11,13,-1,12,10,11,-1,14,13,15,-1,14,12,13,-1,16,15,17,-1,16,14,15,-1,18,17,19,-1,18,16,17,-1,20,19,21,-1,20,18,19,-1,22,20,21,-1,22,23,24,-1,22,21,23,-1,25,22,24,-1,26,25,24,-1,26,24,27,-1,28,26,27,-1,28,27,29,-1,30,28,29,-1,30,29,31,-1,32,30,31,-1,32,33,34,-1,32,31,33,-1,35,32,34,-1,35,34,36,-1,37,35,36,-1,38,37,36,-1,38,36,39,-1,40,38,39,-1,40,39,41,-1,42,41,43,-1,42,40,41,-1,44,43,45,-1,44,42,43,-1,46,45,47,-1,46,44,45,-1,48,49,50,-1,48,47,49,-1,48,46,47,-1,51,48,50,-1,1,50,2,-1,1,51,50,-1]
coord Coordinate { point [-0.451067 0.111178 1.96063,-0.464566 1.30604e-15 1.96063,-0.464566 1.45815e-15 2.18897,-0.451067 0.111178 2.18897,-0.411353 0.215895 1.96063,-0.411353 0.215895 2.18897,-0.347733 0.308064 1.96063,-0.347733 0.308064 2.18897,-0.263904 0.38233 1.96063,-0.263904 0.38233 2.18897,-0.164737 0.434377 1.96063,-0.164737 0.434377 2.18897,-0.0559972 0.461179 1.96063,-0.0559972 0.461179 2.18897,0.0559972 0.461179 1.96063,0.0559972 0.461179 2.18897,0.164737 0.434377 1.96063,0.164737 0.434377 2.18897,0.263904 0.38233 1.96063,0.263904 0.38233 2.18897,0.347733 0.308064 1.96063,0.347733 0.308064 2.18897,0.411353 0.215895 1.96063,0.411353 0.215895 2.18897,0.451067 0.111178 2.18897,0.451067 0.111178 1.96063,0.464566 8.36529e-16 1.96063,0.464566 9.88638e-16 2.18897,0.451067 -0.111178 1.96063,0.451067 -0.111178 2.18897,0.411353 -0.215895 1.96063,0.411353 -0.215895 2.18897,0.347733 -0.308064 1.96063,0.347733 -0.308064 2.18897,0.263904 -0.38233 2.18897,0.263904 -0.38233 1.96063,0.164737 -0.434377 2.18897,0.164737 -0.434377 1.96063,0.0559972 -0.461179 1.96063,0.0559972 -0.461179 2.18897,-0.0559972 -0.461179 1.96063,-0.0559972 -0.461179 2.18897,-0.164737 -0.434377 1.96063,-0.164737 -0.434377 2.18897,-0.263904 -0.38233 1.96063,-0.263904 -0.38233 2.18897,-0.347733 -0.308064 1.96063,-0.347733 -0.308064 2.18897,-0.411353 -0.215895 1.96063,-0.411353 -0.215895 2.18897,-0.451067 -0.111178 2.18897,-0.451067 -0.111178 1.96063]
}}
appearance Appearance{material USE MET-BRONZE }}
Shape { geometry IndexedFaceSet 
{ creaseAngle 0.50 coordIndex [0,1,2,-1,3,1,0,-1,4,5,0,-1,0,5,3,-1,2,6,7,-1,1,6,2,-1,8,9,4,-1,4,9,5,-1,7,10,11,-1,6,10,7,-1,12,13,8,-1,8,13,9,-1,11,14,15,-1,10,14,11,-1,16,17,12,-1,12,17,13,-1,15,18,19,-1,14,18,15,-1,20,21,16,-1,16,21,17,-1,19,22,23,-1,18,22,19,-1,24,25,20,-1,20,25,21,-1,26,27,22,-1,22,27,23,-1,25,28,29,-1,24,28,25,-1,26,30,27,-1,31,30,26,-1,31,32,30,-1,28,33,29,-1,34,33,35,-1,29,33,34,-1,36,37,32,-1,32,37,30,-1,33,38,35,-1,36,39,37,-1,38,40,35,-1,35,40,41,-1,42,43,36,-1,36,43,39,-1,44,45,46,-1,41,45,44,-1,40,45,41,-1,47,48,42,-1,42,48,43,-1,45,49,46,-1,46,49,50,-1,50,51,47,-1,49,51,50,-1,47,51,48,-1]
coord Coordinate { point [0.347733 0.308064 1.96063,0.156553 0.226806 1.96063,0.263904 0.38233 1.96063,0.206282 0.18275 1.96063,0.411353 0.215895 1.96063,0.244023 0.128073 1.96063,0.0977256 0.257681 1.96063,0.164737 0.434377 1.96063,0.451067 0.111178 1.96063,0.267582 0.065953 1.96063,0.0332187 0.273581 1.96063,0.0559972 0.461179 1.96063,0.464566 8.36529e-16 1.96063,0.27559 1.02752e-15 1.96063,-0.0332187 0.273581 1.96063,-0.0559972 0.461179 1.96063,0.451067 -0.111178 1.96063,0.267582 -0.065953 1.96063,-0.0977256 0.257681 1.96063,-0.164737 0.434377 1.96063,0.411353 -0.215895 1.96063,0.244023 -0.128073 1.96063,-0.156553 0.226806 1.96063,-0.263904 0.38233 1.96063,0.347733 -0.308064 1.96063,0.206282 -0.18275 1.96063,-0.206282 0.18275 1.96063,-0.347733 0.308064 1.96063,0.263904 -0.38233 1.96063,0.156553 -0.226806 1.96063,-0.411353 0.215895 1.96063,-0.244023 0.128073 1.96063,-0.267582 0.065953 1.96063,0.164737 -0.434377 1.96063,0.0977256 -0.257681 1.96063,0.0332187 -0.273581 1.96063,-0.27559 1.30604e-15 1.96063,-0.451067 0.111178 1.96063,0.0559972 -0.461179 1.96063,-0.464566 1.30604e-15 1.96063,-0.0559972 -0.461179 1.96063,-0.0332187 -0.273581 1.96063,-0.267582 -0.065953 1.96063,-0.451067 -0.111178 1.96063,-0.0977256 -0.257681 1.96063,-0.164737 -0.434377 1.96063,-0.156553 -0.226806 1.96063,-0.244023 -0.128073 1.96063,-0.411353 -0.215895 1.96063,-0.263904 -0.38233 1.96063,-0.206282 -0.18275 1.96063,-0.347733 -0.308064 1.96063]
}}
appearance Appearance{material USE MET-BRONZE }}
Shape { geometry IndexedFaceSet 
{ creaseAngle 0.50 coordIndex [0,1,2,-1,0,2,3,-1,4,3,5,-1,4,0,3,-1,6,5,7,-1,6,4,5,-1,8,7,9,-1,8,6,7,-1,10,9,11,-1,10,8,9,-1,12,11,13,-1,12,10,11,-1,14,13,15,-1,14,12,13,-1,16,17,18,-1,16,15,17,-1,16,14,15,-1,19,16,18,-1,20,19,18,-1,20,21,22,-1,20,18,21,-1,23,20,22,-1,24,23,22,-1,24,22,25,-1,26,24,25,-1,26,27,28,-1,26,25,27,-1,29,26,28,-1,30,29,28,-1,30,31,32,-1,30,28,31,-1,33,30,32,-1,34,33,32,-1,34,32,35,-1,36,34,35,-1,36,35,37,-1,38,37,39,-1,38,36,37,-1,40,41,42,-1,40,39,41,-1,40,38,39,-1,43,42,44,-1,43,40,42,-1,45,43,44,-1,46,47,48,-1,46,44,47,-1,46,45,44,-1,49,46,48,-1,50,51,2,-1,50,48,51,-1,50,49,48,-1,1,50,2,-1]
coord Coordinate { point [-0.267582 0.065953 1.37008,-0.27559 9.12654e-16 1.37008,-0.27559 1.30604e-15 1.96063,-0.267582 0.065953 1.96063,-0.244023 0.128073 1.37008,-0.244023 0.128073 1.96063,-0.206282 0.18275 1.37008,-0.206282 0.18275 1.96063,-0.156553 0.226806 1.37008,-0.156553 0.226806 1.96063,-0.0977256 0.257681 1.37008,-0.0977256 0.257681 1.96063,-0.0332187 0.273581 1.37008,-0.0332187 0.273581 1.96063,0.0332187 0.273581 1.37008,0.0332187 0.273581 1.96063,0.0977256 0.257681 1.37008,0.0977256 0.257681 1.96063,0.156553 0.226806 1.96063,0.156553 0.226806 1.37008,0.206282 0.18275 1.37008,0.206282 0.18275 1.96063,0.244023 0.128073 1.96063,0.244023 0.128073 1.37008,0.267582 0.065953 1.37008,0.267582 0.065953 1.96063,0.27559 6.34131e-16 1.37008,0.27559 1.02752e-15 1.96063,0.267582 -0.065953 1.96063,0.267582 -0.065953 1.37008,0.244023 -0.128073 1.37008,0.244023 -0.128073 1.96063,0.206282 -0.18275 1.96063,0.206282 -0.18275 1.37008,0.156553 -0.226806 1.37008,0.156553 -0.226806 1.96063,0.0977256 -0.257681 1.37008,0.0977256 -0.257681 1.96063,0.0332187 -0.273581 1.37008,0.0332187 -0.273581 1.96063,-0.0332187 -0.273581 1.37008,-0.0332187 -0.273581 1.96063,-0.0977256 -0.257681 1.96063,-0.0977256 -0.257681 1.37008,-0.156553 -0.226806 1.96063,-0.156553 -0.226806 1.37008,-0.206282 -0.18275 1.37008,-0.206282 -0.18275 1.96063,-0.244023 -0.128073 1.96063,-0.244023 -0.128073 1.37008,-0.267582 -0.065953 1.37008,-0.267582 -0.065953 1.96063]
}}
appearance Appearance{material USE MET-BRONZE }}
Shape { geometry IndexedFaceSet 
{ creaseAngle 0.50 coordIndex [0,1,2,-1,0,3,1,-1,4,5,1,-1,4,1,3,-1,6,2,7,-1,6,0,2,-1,8,9,5,-1,8,5,4,-1,10,7,11,-1,10,6,7,-1,12,13,9,-1,12,9,8,-1,14,11,15,-1,14,10,11,-1,16,17,13,-1,16,13,12,-1,18,15,19,-1,18,14,15,-1,20,21,17,-1,20,17,16,-1,22,19,23,-1,22,18,19,-1,24,25,21,-1,24,21,20,-1,26,27,22,-1,26,22,23,-1,28,24,29,-1,28,25,24,-1,30,27,26,-1,30,31,27,-1,32,31,30,-1,33,28,29,-1,33,34,35,-1,33,29,34,-1,36,37,32,-1,36,32,30,-1,38,33,35,-1,39,37,36,-1,40,38,35,-1,40,35,41,-1,42,43,37,-1,42,37,39,-1,44,45,46,-1,44,41,45,-1,44,40,41,-1,47,48,43,-1,47,43,42,-1,49,44,46,-1,49,46,50,-1,51,50,48,-1,51,49,50,-1,51,48,47,-1]
coord Coordinate { point [0.156553 0.226806 1.37008,0.347733 0.308064 1.37008,0.263904 0.38233 1.37008,0.206282 0.18275 1.37008,0.244023 0.128073 1.37008,0.411353 0.215895 1.37008,0.0977256 0.257681 1.37008,0.164737 0.434377 1.37008,0.267582 0.065953 1.37008,0.451067 0.111178 1.37008,0.0332187 0.273581 1.37008,0.0559972 0.461179 1.37008,0.27559 6.34131e-16 1.37008,0.464566 4.43144e-16 1.37008,-0.0332187 0.273581 1.37008,-0.0559972 0.461179 1.37008,0.267582 -0.065953 1.37008,0.451067 -0.111178 1.37008,-0.0977256 0.257681 1.37008,-0.164737 0.434377 1.37008,0.244023 -0.128073 1.37008,0.411353 -0.215895 1.37008,-0.156553 0.226806 1.37008,-0.263904 0.38233 1.37008,0.206282 -0.18275 1.37008,0.347733 -0.308064 1.37008,-0.347733 0.308064 1.37008,-0.206282 0.18275 1.37008,0.263904 -0.38233 1.37008,0.156553 -0.226806 1.37008,-0.411353 0.215895 1.37008,-0.244023 0.128073 1.37008,-0.267582 0.065953 1.37008,0.164737 -0.434377 1.37008,0.0977256 -0.257681 1.37008,0.0332187 -0.273581 1.37008,-0.451067 0.111178 1.37008,-0.27559 9.12654e-16 1.37008,0.0559972 -0.461179 1.37008,-0.464566 9.12654e-16 1.37008,-0.0559972 -0.461179 1.37008,-0.0332187 -0.273581 1.37008,-0.451067 -0.111178 1.37008,-0.267582 -0.065953 1.37008,-0.164737 -0.434377 1.37008,-0.0977256 -0.257681 1.37008,-0.156553 -0.226806 1.37008,-0.411353 -0.215895 1.37008,-0.244023 -0.128073 1.37008,-0.263904 -0.38233 1.37008,-0.206282 -0.18275 1.37008,-0.347733 -0.308064 1.37008]
}}
appearance Appearance{material USE MET-BRONZE }}
Shape { geometry IndexedFaceSet 
{ creaseAngle 0.50 coordIndex [0,1,2,-1,0,2,3,-1,4,3,5,-1,4,0,3,-1,6,5,7,-1,6,4,5,-1,8,7,9,-1,8,6,7,-1,10,9,11,-1,10,8,9,-1,12,13,14,-1,12,11,13,-1,12,10,11,-1,15,12,14,-1,16,14,17,-1,16,15,14,-1,18,17,19,-1,18,16,17,-1,20,19,21,-1,20,18,19,-1,22,20,21,-1,22,23,24,-1,22,21,23,-1,25,22,24,-1,26,25,24,-1,26,24,27,-1,28,26,27,-1,28,27,29,-1,30,28,29,-1,30,29,31,-1,32,30,31,-1,32,31,33,-1,34,32,33,-1,34,33,35,-1,36,34,35,-1,36,35,37,-1,38,36,37,-1,38,37,39,-1,40,38,39,-1,40,39,41,-1,42,41,43,-1,42,40,41,-1,44,45,46,-1,44,43,45,-1,44,42,43,-1,47,44,46,-1,48,46,49,-1,48,47,46,-1,50,51,2,-1,50,49,51,-1,50,48,49,-1,1,50,2,-1]
coord Coordinate { point [-0.451067 0.111178 1.14173,-0.464566 7.60545e-16 1.14173,-0.464566 9.12654e-16 1.37008,-0.451067 0.111178 1.37008,-0.411353 0.215895 1.14173,-0.411353 0.215895 1.37008,-0.347733 0.308064 1.14173,-0.347733 0.308064 1.37008,-0.263904 0.38233 1.14173,-0.263904 0.38233 1.37008,-0.164737 0.434377 1.14173,-0.164737 0.434377 1.37008,-0.0559972 0.461179 1.14173,-0.0559972 0.461179 1.37008,0.0559972 0.461179 1.37008,0.0559972 0.461179 1.14173,0.164737 0.434377 1.14173,0.164737 0.434377 1.37008,0.263904 0.38233 1.14173,0.263904 0.38233 1.37008,0.347733 0.308064 1.14173,0.347733 0.308064 1.37008,0.411353 0.215895 1.14173,0.411353 0.215895 1.37008,0.451067 0.111178 1.37008,0.451067 0.111178 1.14173,0.464566 2.91035e-16 1.14173,0.464566 4.43144e-16 1.37008,0.451067 -0.111178 1.14173,0.451067 -0.111178 1.37008,0.411353 -0.215895 1.14173,0.411353 -0.215895 1.37008,0.347733 -0.308064 1.14173,0.347733 -0.308064 1.37008,0.263904 -0.38233 1.14173,0.263904 -0.38233 1.37008,0.164737 -0.434377 1.14173,0.164737 -0.434377 1.37008,0.0559972 -0.461179 1.14173,0.0559972 -0.461179 1.37008,-0.0559972 -0.461179 1.14173,-0.0559972 -0.461179 1.37008,-0.164737 -0.434377 1.14173,-0.164737 -0.434377 1.37008,-0.263904 -0.38233 1.14173,-0.263904 -0.38233 1.37008,-0.347733 -0.308064 1.37008,-0.347733 -0.308064 1.14173,-0.411353 -0.215895 1.14173,-0.411353 -0.215895 1.37008,-0.451067 -0.111178 1.14173,-0.451067 -0.111178 1.37008]
}}
appearance Appearance{material USE MET-BRONZE }}
Shape { geometry IndexedFaceSet 
{ creaseAngle 0.50 coordIndex [0,1,2,-1,3,1,0,-1,4,5,0,-1,0,5,3,-1,2,6,7,-1,1,6,2,-1,8,9,4,-1,4,9,5,-1,7,10,11,-1,6,10,7,-1,12,13,8,-1,8,13,9,-1,11,14,15,-1,10,14,11,-1,16,17,12,-1,12,17,13,-1,15,18,19,-1,14,18,15,-1,20,21,16,-1,16,21,17,-1,19,22,23,-1,18,22,19,-1,24,25,20,-1,20,25,21,-1,26,27,22,-1,22,27,23,-1,25,28,29,-1,24,28,25,-1,26,30,27,-1,31,30,26,-1,31,32,30,-1,28,33,29,-1,34,33,35,-1,29,33,34,-1,36,37,32,-1,32,37,30,-1,33,38,35,-1,36,39,37,-1,38,40,35,-1,35,40,41,-1,42,43,36,-1,36,43,39,-1,44,45,46,-1,41,45,44,-1,40,45,41,-1,47,48,42,-1,42,48,43,-1,45,49,46,-1,46,49,50,-1,50,51,47,-1,49,51,50,-1,47,51,48,-1]
coord Coordinate { point [0.347733 0.308064 1.14173,0.156553 0.226806 1.14173,0.263904 0.38233 1.14173,0.206282 0.18275 1.14173,0.411353 0.215895 1.14173,0.244023 0.128073 1.14173,0.0977256 0.257681 1.14173,0.164737 0.434377 1.14173,0.451067 0.111178 1.14173,0.267582 0.065953 1.14173,0.0332187 0.273581 1.14173,0.0559972 0.461179 1.14173,0.464566 2.91035e-16 1.14173,0.27559 4.82022e-16 1.14173,-0.0332187 0.273581 1.14173,-0.0559972 0.461179 1.14173,0.451067 -0.111178 1.14173,0.267582 -0.065953 1.14173,-0.0977256 0.257681 1.14173,-0.164737 0.434377 1.14173,0.411353 -0.215895 1.14173,0.244023 -0.128073 1.14173,-0.156553 0.226806 1.14173,-0.263904 0.38233 1.14173,0.347733 -0.308064 1.14173,0.206282 -0.18275 1.14173,-0.206282 0.18275 1.14173,-0.347733 0.308064 1.14173,0.263904 -0.38233 1.14173,0.156553 -0.226806 1.14173,-0.411353 0.215895 1.14173,-0.244023 0.128073 1.14173,-0.267582 0.065953 1.14173,0.164737 -0.434377 1.14173,0.0977256 -0.257681 1.14173,0.0332187 -0.273581 1.14173,-0.27559 7.60545e-16 1.14173,-0.451067 0.111178 1.14173,0.0559972 -0.461179 1.14173,-0.464566 7.60545e-16 1.14173,-0.0559972 -0.461179 1.14173,-0.0332187 -0.273581 1.14173,-0.267582 -0.065953 1.14173,-0.451067 -0.111178 1.14173,-0.0977256 -0.257681 1.14173,-0.164737 -0.434377 1.14173,-0.156553 -0.226806 1.14173,-0.244023 -0.128073 1.14173,-0.411353 -0.215895 1.14173,-0.263904 -0.38233 1.14173,-0.206282 -0.18275 1.14173,-0.347733 -0.308064 1.14173]
}}
appearance Appearance{material USE MET-BRONZE }}
Shape { geometry IndexedFaceSet 
{ creaseAngle 0.50 coordIndex [0,1,2,-1,0,2,3,-1,4,3,5,-1,4,0,3,-1,6,5,7,-1,6,4,5,-1,8,7,9,-1,8,6,7,-1,10,11,12,-1,10,9,11,-1,10,8,9,-1,13,12,14,-1,13,10,12,-1,15,13,14,-1,16,14,17,-1,16,15,14,-1,18,19,20,-1,18,17,19,-1,18,16,17,-1,21,18,20,-1,22,21,20,-1,22,23,24,-1,22,20,23,-1,25,22,24,-1,26,25,24,-1,26,27,28,-1,26,24,27,-1,29,26,28,-1,30,29,28,-1,30,28,31,-1,32,30,31,-1,32,33,34,-1,32,31,33,-1,35,32,34,-1,36,35,34,-1,36,34,37,-1,38,37,39,-1,38,36,37,-1,40,41,42,-1,40,39,41,-1,40,38,39,-1,43,40,42,-1,44,45,46,-1,44,42,45,-1,44,43,42,-1,47,44,46,-1,48,49,50,-1,48,46,49,-1,48,47,46,-1,51,48,50,-1,1,50,2,-1,1,51,50,-1]
coord Coordinate { point [-0.267582 0.065953 0.228346,-0.27559 1.52109e-16 0.228346,-0.27559 7.60545e-16 1.14173,-0.267582 0.065953 1.14173,-0.244023 0.128073 0.228346,-0.244023 0.128073 1.14173,-0.206282 0.18275 0.228346,-0.206282 0.18275 1.14173,-0.156553 0.226806 0.228346,-0.156553 0.226806 1.14173,-0.0977256 0.257681 0.228346,-0.0977256 0.257681 1.14173,-0.0332187 0.273581 1.14173,-0.0332187 0.273581 0.228346,0.0332187 0.273581 1.14173,0.0332187 0.273581 0.228346,0.0977256 0.257681 0.228346,0.0977256 0.257681 1.14173,0.156553 0.226806 0.228346,0.156553 0.226806 1.14173,0.206282 0.18275 1.14173,0.206282 0.18275 0.228346,0.244023 0.128073 0.228346,0.244023 0.128073 1.14173,0.267582 0.065953 1.14173,0.267582 0.065953 0.228346,0.27559 -1.26414e-16 0.228346,0.27559 4.82022e-16 1.14173,0.267582 -0.065953 1.14173,0.267582 -0.065953 0.228346,0.244023 -0.128073 0.228346,0.244023 -0.128073 1.14173,0.206282 -0.18275 0.228346,0.206282 -0.18275 1.14173,0.156553 -0.226806 1.14173,0.156553 -0.226806 0.228346,0.0977256 -0.257681 0.228346,0.0977256 -0.257681 1.14173,0.0332187 -0.273581 0.228346,0.0332187 -0.273581 1.14173,-0.0332187 -0.273581 0.228346,-0.0332187 -0.273581 1.14173,-0.0977256 -0.257681 1.14173,-0.0977256 -0.257681 0.228346,-0.156553 -0.226806 0.228346,-0.156553 -0.226806 1.14173,-0.206282 -0.18275 1.14173,-0.206282 -0.18275 0.228346,-0.244023 -0.128073 0.228346,-0.244023 -0.128073 1.14173,-0.267582 -0.065953 1.14173,-0.267582 -0.065953 0.228346]
}}
appearance Appearance{material USE MET-BRONZE }}
Shape { geometry IndexedFaceSet 
{ creaseAngle 0.50 coordIndex [0,1,2,-1,0,3,1,-1,4,5,1,-1,4,1,3,-1,6,2,7,-1,6,0,2,-1,8,9,5,-1,8,5,4,-1,10,7,11,-1,10,6,7,-1,12,13,9,-1,12,9,8,-1,14,11,15,-1,14,10,11,-1,16,17,13,-1,16,13,12,-1,18,15,19,-1,18,14,15,-1,20,21,17,-1,20,17,16,-1,22,19,23,-1,22,18,19,-1,24,25,21,-1,24,21,20,-1,26,27,22,-1,26,22,23,-1,28,25,24,-1,28,24,29,-1,30,27,26,-1,30,31,27,-1,32,28,29,-1,32,33,34,-1,32,29,33,-1,35,31,30,-1,35,36,31,-1,37,34,38,-1,37,32,34,-1,39,36,35,-1,39,40,36,-1,41,37,38,-1,42,43,40,-1,42,40,39,-1,42,44,43,-1,45,38,46,-1,45,41,38,-1,47,44,42,-1,48,46,49,-1,48,45,46,-1,50,51,44,-1,50,49,51,-1,50,44,47,-1,50,48,49,-1]
coord Coordinate { point [0.156553 0.226806 0.228346,0.468555 0.415104 0.228346,0.355599 0.515174 0.228346,0.206282 0.18275 0.228346,0.244023 0.128073 0.228346,0.55428 0.290909 0.228346,0.0977256 0.257681 0.228346,0.221977 0.585304 0.228346,0.267582 0.065953 0.228346,0.607793 0.149808 0.228346,0.0332187 0.273581 0.228346,0.0754539 0.621419 0.228346,0.27559 -1.26414e-16 0.228346,0.625983 -4.80536e-16 0.228346,-0.0332187 0.273581 0.228346,-0.0754539 0.621419 0.228346,0.267582 -0.065953 0.228346,0.607793 -0.149808 0.228346,-0.0977256 0.257681 0.228346,-0.221977 0.585304 0.228346,0.244023 -0.128073 0.228346,0.55428 -0.290909 0.228346,-0.156553 0.226806 0.228346,-0.355599 0.515174 0.228346,0.206282 -0.18275 0.228346,0.468555 -0.415104 0.228346,-0.468555 0.415104 0.228346,-0.206282 0.18275 0.228346,0.355599 -0.515174 0.228346,0.156553 -0.226806 0.228346,-0.55428 0.290909 0.228346,-0.244023 0.128073 0.228346,0.221977 -0.585304 0.228346,0.0977256 -0.257681 0.228346,0.0332187 -0.273581 0.228346,-0.607793 0.149808 0.228346,-0.267582 0.065953 0.228346,0.0754539 -0.621419 0.228346,-0.0332187 -0.273581 0.228346,-0.625983 1.52109e-16 0.228346,-0.27559 1.52109e-16 0.228346,-0.0754539 -0.621419 0.228346,-0.607793 -0.149808 0.228346,-0.267582 -0.065953 0.228346,-0.244023 -0.128073 0.228346,-0.221977 -0.585304 0.228346,-0.0977256 -0.257681 0.228346,-0.55428 -0.290909 0.228346,-0.355599 -0.515174 0.228346,-0.156553 -0.226806 0.228346,-0.468555 -0.415104 0.228346,-0.206282 -0.18275 0.228346]
}}
appearance Appearance{material USE MET-BRONZE }}
Shape { geometry IndexedFaceSet 
{ creaseAngle 0.50 coordIndex [0,1,2,-1,0,2,3,-1,4,3,5,-1,4,0,3,-1,6,5,7,-1,6,4,5,-1,8,9,10,-1,8,7,9,-1,8,6,7,-1,11,8,10,-1,12,10,13,-1,12,11,10,-1,14,15,16,-1,14,13,15,-1,14,12,13,-1,17,14,16,-1,18,19,20,-1,18,16,19,-1,18,17,16,-1,21,18,20,-1,22,21,20,-1,22,20,23,-1,24,22,23,-1,24,23,25,-1,26,24,25,-1,26,25,27,-1,28,26,27,-1,28,27,29,-1,30,28,29,-1,30,31,32,-1,30,29,31,-1,33,30,32,-1,34,33,32,-1,34,32,35,-1,36,34,35,-1,36,35,37,-1,38,36,37,-1,38,39,40,-1,38,37,39,-1,41,40,42,-1,41,38,40,-1,43,42,44,-1,43,41,42,-1,45,43,44,-1,46,47,48,-1,46,44,47,-1,46,45,44,-1,49,46,48,-1,50,51,2,-1,50,48,51,-1,50,49,48,-1,1,50,2,-1]
coord Coordinate { point [-0.607793 0.149808 -9.97919e-17,-0.625983 0 0,-0.625983 1.52109e-16 0.228346,-0.607793 0.149808 0.228346,-0.55428 0.290909 -1.93784e-16,-0.55428 0.290909 0.228346,-0.468555 0.415104 -2.76514e-16,-0.468555 0.415104 0.228346,-0.355599 0.515174 -3.43175e-16,-0.355599 0.515174 0.228346,-0.221977 0.585304 0.228346,-0.221977 0.585304 -3.89891e-16,-0.0754539 0.621419 -4.13948e-16,-0.0754539 0.621419 0.228346,0.0754539 0.621419 -4.13948e-16,0.0754539 0.621419 0.228346,0.221977 0.585304 0.228346,0.221977 0.585304 -3.89891e-16,0.355599 0.515174 -3.43175e-16,0.355599 0.515174 0.228346,0.468555 0.415104 0.228346,0.468555 0.415104 -2.76514e-16,0.55428 0.290909 -1.93784e-16,0.55428 0.290909 0.228346,0.607793 0.149808 -9.97919e-17,0.607793 0.149808 0.228346,0.625983 -6.32645e-16 4.21426e-31,0.625983 -4.80536e-16 0.228346,0.607793 -0.149808 9.97919e-17,0.607793 -0.149808 0.228346,0.55428 -0.290909 1.93784e-16,0.55428 -0.290909 0.228346,0.468555 -0.415104 0.228346,0.468555 -0.415104 2.76514e-16,0.355599 -0.515174 3.43175e-16,0.355599 -0.515174 0.228346,0.221977 -0.585304 3.89891e-16,0.221977 -0.585304 0.228346,0.0754539 -0.621419 4.13948e-16,0.0754539 -0.621419 0.228346,-0.0754539 -0.621419 0.228346,-0.0754539 -0.621419 4.13948e-16,-0.221977 -0.585304 0.228346,-0.221977 -0.585304 3.89891e-16,-0.355599 -0.515174 0.228346,-0.355599 -0.515174 3.43175e-16,-0.468555 -0.415104 2.76514e-16,-0.468555 -0.415104 0.228346,-0.55428 -0.290909 0.228346,-0.55428 -0.290909 1.93784e-16,-0.607793 -0.149808 9.97919e-17,-0.607793 -0.149808 0.228346]
}}
appearance Appearance{material USE MET-BRONZE }}
Shape { geometry IndexedFaceSet 
{ creaseAngle 0.50 coordIndex [0,1,2,-1,3,1,0,-1,4,5,0,-1,0,5,3,-1,2,6,7,-1,1,6,2,-1,8,9,4,-1,4,9,5,-1,7,10,11,-1,6,10,7,-1,12,13,8,-1,8,13,9,-1,11,14,15,-1,10,14,11,-1,16,17,12,-1,12,17,13,-1,15,18,19,-1,14,18,15,-1,20,21,16,-1,16,21,17,-1,19,22,23,-1,18,22,19,-1,24,25,20,-1,20,25,21,-1,22,26,23,-1,26,27,23,-1,25,28,29,-1,24,28,25,-1,26,30,27,-1,30,31,27,-1,30,32,31,-1,28,33,29,-1,29,33,34,-1,32,35,31,-1,33,36,34,-1,34,36,37,-1,32,38,35,-1,39,38,32,-1,37,40,41,-1,36,40,37,-1,39,42,38,-1,43,42,39,-1,44,42,43,-1,41,45,46,-1,40,45,41,-1,44,47,42,-1,48,47,44,-1,46,49,50,-1,45,49,46,-1,50,51,48,-1,49,51,50,-1,48,51,47,-1]
coord Coordinate { point [0.468555 0.415104 -2.76514e-16,0.256076 0.37099 -2.47129e-16,0.355599 0.515174 -3.43175e-16,0.337419 0.298927 -1.99125e-16,0.55428 0.290909 -1.93784e-16,0.399152 0.209491 -1.39549e-16,0.159851 0.421493 -2.80771e-16,0.221977 0.585304 -3.89891e-16,0.607793 0.149808 -9.97919e-17,0.437687 0.10788 -7.18627e-17,0.0543363 0.4475 -2.98095e-16,0.0754539 0.621419 -4.13948e-16,0.625983 -6.32645e-16 4.21426e-31,0.450786 -4.55584e-16 3.0348e-31,-0.0543363 0.4475 -2.98095e-16,-0.0754539 0.621419 -4.13948e-16,0.607793 -0.149808 9.97919e-17,0.437687 -0.10788 7.18627e-17,-0.159851 0.421493 -2.80771e-16,-0.221977 0.585304 -3.89891e-16,0.55428 -0.290909 1.93784e-16,0.399152 -0.209491 1.39549e-16,-0.256076 0.37099 -2.47129e-16,-0.355599 0.515174 -3.43175e-16,0.468555 -0.415104 2.76514e-16,0.337419 -0.298927 1.99125e-16,-0.337419 0.298927 -1.99125e-16,-0.468555 0.415104 -2.76514e-16,0.355599 -0.515174 3.43175e-16,0.256076 -0.37099 2.47129e-16,-0.399152 0.209491 -1.39549e-16,-0.55428 0.290909 -1.93784e-16,-0.437687 0.10788 -7.18627e-17,0.221977 -0.585304 3.89891e-16,0.159851 -0.421493 2.80771e-16,-0.607793 0.149808 -9.97919e-17,0.0754539 -0.621419 4.13948e-16,0.0543363 -0.4475 2.98095e-16,-0.625983 0 0,-0.450786 0 0,-0.0754539 -0.621419 4.13948e-16,-0.0543363 -0.4475 2.98095e-16,-0.607793 -0.149808 9.97919e-17,-0.437687 -0.10788 7.18627e-17,-0.399152 -0.209491 1.39549e-16,-0.221977 -0.585304 3.89891e-16,-0.159851 -0.421493 2.80771e-16,-0.55428 -0.290909 1.93784e-16,-0.337419 -0.298927 1.99125e-16,-0.355599 -0.515174 3.43175e-16,-0.256076 -0.37099 2.47129e-16,-0.468555 -0.415104 2.76514e-16]
}}
appearance Appearance{material USE MET-BRONZE }}
Shape { geometry IndexedFaceSet 
{ creaseAngle 0.50 coordIndex [0,1,2,-1,0,2,3,-1,4,5,6,-1,4,3,5,-1,4,0,3,-1,7,6,8,-1,7,4,6,-1,9,7,8,-1,10,8,11,-1,10,9,8,-1,12,11,13,-1,12,10,11,-1,14,13,15,-1,14,12,13,-1,16,15,17,-1,16,14,15,-1,18,17,19,-1,18,16,17,-1,20,19,21,-1,20,18,19,-1,22,20,21,-1,22,23,24,-1,22,21,23,-1,25,22,24,-1,26,25,24,-1,26,27,28,-1,26,24,27,-1,29,26,28,-1,29,28,30,-1,31,29,30,-1,32,31,30,-1,32,30,33,-1,34,32,33,-1,34,35,36,-1,34,33,35,-1,37,34,36,-1,38,37,36,-1,38,36,39,-1,40,38,39,-1,40,39,41,-1,42,41,43,-1,42,40,41,-1,44,43,45,-1,44,42,43,-1,46,45,47,-1,46,44,45,-1,48,47,49,-1,48,46,47,-1,50,49,51,-1,50,48,49,-1,1,51,2,-1,1,50,51,-1]
coord Coordinate { point [-0.437687 0.10788 -1.09055,-0.450786 -7.26452e-16 -1.09055,-0.450786 0 0,-0.437687 0.10788 -7.18627e-17,-0.399152 0.209491 -1.09055,-0.399152 0.209491 -1.39549e-16,-0.337419 0.298927 -1.99125e-16,-0.337419 0.298927 -1.09055,-0.256076 0.37099 -2.47129e-16,-0.256076 0.37099 -1.09055,-0.159851 0.421493 -1.09055,-0.159851 0.421493 -2.80771e-16,-0.0543363 0.4475 -1.09055,-0.0543363 0.4475 -2.98095e-16,0.0543363 0.4475 -1.09055,0.0543363 0.4475 -2.98095e-16,0.159851 0.421493 -1.09055,0.159851 0.421493 -2.80771e-16,0.256076 0.37099 -1.09055,0.256076 0.37099 -2.47129e-16,0.337419 0.298927 -1.09055,0.337419 0.298927 -1.99125e-16,0.399152 0.209491 -1.09055,0.399152 0.209491 -1.39549e-16,0.437687 0.10788 -7.18627e-17,0.437687 0.10788 -1.09055,0.450786 -1.18204e-15 -1.09055,0.450786 -4.55584e-16 3.0348e-31,0.437687 -0.10788 7.18627e-17,0.437687 -0.10788 -1.09055,0.399152 -0.209491 1.39549e-16,0.399152 -0.209491 -1.09055,0.337419 -0.298927 -1.09055,0.337419 -0.298927 1.99125e-16,0.256076 -0.37099 -1.09055,0.256076 -0.37099 2.47129e-16,0.159851 -0.421493 2.80771e-16,0.159851 -0.421493 -1.09055,0.0543363 -0.4475 -1.09055,0.0543363 -0.4475 2.98095e-16,-0.0543363 -0.4475 -1.09055,-0.0543363 -0.4475 2.98095e-16,-0.159851 -0.421493 -1.09055,-0.159851 -0.421493 2.80771e-16,-0.256076 -0.37099 -1.09055,-0.256076 -0.37099 2.47129e-16,-0.337419 -0.298927 -1.09055,-0.337419 -0.298927 1.99125e-16,-0.399152 -0.209491 -1.09055,-0.399152 -0.209491 1.39549e-16,-0.437687 -0.10788 -1.09055,-0.437687 -0.10788 7.18627e-17]
}}
appearance Appearance{material USE MET-BRONZE }}
Shape { geometry IndexedFaceSet 
{ creaseAngle 0.50 coordIndex [0,1,2,-1,3,1,0,-1,4,5,0,-1,0,5,3,-1,2,6,7,-1,1,6,2,-1,8,9,4,-1,4,9,5,-1,7,10,11,-1,6,10,7,-1,12,13,8,-1,8,13,9,-1,11,14,15,-1,10,14,11,-1,16,17,12,-1,12,17,13,-1,16,18,17,-1,15,19,20,-1,14,19,15,-1,18,21,17,-1,20,22,23,-1,19,22,20,-1,24,25,18,-1,18,25,21,-1,26,27,22,-1,22,27,23,-1,25,28,29,-1,24,28,25,-1,28,30,29,-1,31,32,26,-1,26,32,27,-1,31,33,32,-1,28,34,30,-1,33,35,32,-1,36,35,33,-1,34,37,30,-1,30,37,38,-1,36,39,35,-1,38,40,41,-1,37,40,38,-1,42,43,36,-1,44,43,42,-1,36,43,39,-1,41,45,46,-1,40,45,41,-1,47,48,44,-1,44,48,43,-1,49,50,47,-1,46,50,49,-1,45,50,46,-1,50,51,47,-1,47,51,48,-1]
coord Coordinate { point [0.337419 0.298927 -1.09055,0.182272 0.264067 -1.09055,0.256076 0.37099 -1.09055,0.240171 0.212773 -1.09055,0.399152 0.209491 -1.09055,0.284112 0.149114 -1.09055,0.11378 0.300014 -1.09055,0.159851 0.421493 -1.09055,0.437687 0.10788 -1.09055,0.311542 0.0767881 -1.09055,0.0386761 0.318526 -1.09055,0.0543363 0.4475 -1.09055,0.450786 -1.18204e-15 -1.09055,0.320865 -1.05073e-15 -1.09055,-0.0386761 0.318526 -1.09055,-0.0543363 0.4475 -1.09055,0.437687 -0.10788 -1.09055,0.311542 -0.0767881 -1.09055,0.399152 -0.209491 -1.09055,-0.11378 0.300014 -1.09055,-0.159851 0.421493 -1.09055,0.284112 -0.149114 -1.09055,-0.182272 0.264067 -1.09055,-0.256076 0.37099 -1.09055,0.337419 -0.298927 -1.09055,0.240171 -0.212773 -1.09055,-0.240171 0.212773 -1.09055,-0.337419 0.298927 -1.09055,0.256076 -0.37099 -1.09055,0.182272 -0.264067 -1.09055,0.11378 -0.300014 -1.09055,-0.284112 0.149114 -1.09055,-0.399152 0.209491 -1.09055,-0.311542 0.0767881 -1.09055,0.159851 -0.421493 -1.09055,-0.437687 0.10788 -1.09055,-0.320865 -7.26452e-16 -1.09055,0.0543363 -0.4475 -1.09055,0.0386761 -0.318526 -1.09055,-0.450786 -7.26452e-16 -1.09055,-0.0543363 -0.4475 -1.09055,-0.0386761 -0.318526 -1.09055,-0.311542 -0.0767881 -1.09055,-0.437687 -0.10788 -1.09055,-0.284112 -0.149114 -1.09055,-0.159851 -0.421493 -1.09055,-0.11378 -0.300014 -1.09055,-0.240171 -0.212773 -1.09055,-0.399152 -0.209491 -1.09055,-0.182272 -0.264067 -1.09055,-0.256076 -0.37099 -1.09055,-0.337419 -0.298927 -1.09055]
}}
appearance Appearance{material USE MET-BRONZE }}
Shape { geometry IndexedFaceSet 
{ creaseAngle 0.50 coordIndex [0,1,2,-1,3,1,0,-1,2,4,5,-1,1,4,2,-1,5,6,7,-1,4,6,5,-1,7,8,9,-1,6,8,7,-1,9,10,11,-1,8,10,9,-1,11,12,13,-1,13,12,14,-1,10,12,11,-1,12,15,14,-1,14,16,17,-1,15,16,14,-1,17,18,19,-1,16,18,17,-1,19,20,21,-1,18,20,19,-1,21,22,23,-1,20,22,21,-1,22,24,23,-1,23,24,25,-1,24,26,25,-1,25,26,27,-1,27,26,28,-1,28,29,30,-1,26,29,28,-1,29,31,30,-1,30,32,33,-1,33,32,34,-1,31,32,30,-1,32,35,34,-1,34,36,37,-1,35,36,34,-1,37,38,39,-1,39,38,40,-1,36,38,37,-1,40,41,42,-1,38,41,40,-1,42,43,44,-1,41,43,42,-1,43,45,44,-1,44,46,47,-1,47,46,48,-1,45,46,44,-1,46,49,48,-1,48,50,51,-1,49,50,48,-1,51,3,0,-1,50,3,51,-1]
coord Coordinate { point [-0.320865 -7.26452e-16 -1.09055,-0.311542 -0.0767881 -0.421259,-0.311542 -0.0767881 -1.09055,-0.320865 -2.80615e-16 -0.421259,-0.284112 -0.149114 -0.421259,-0.284112 -0.149114 -1.09055,-0.240171 -0.212773 -0.421259,-0.240171 -0.212773 -1.09055,-0.182272 -0.264067 -0.421259,-0.182272 -0.264067 -1.09055,-0.11378 -0.300014 -0.421259,-0.11378 -0.300014 -1.09055,-0.0386761 -0.318526 -0.421259,-0.0386761 -0.318526 -1.09055,0.0386761 -0.318526 -1.09055,0.0386761 -0.318526 -0.421259,0.11378 -0.300014 -0.421259,0.11378 -0.300014 -1.09055,0.182272 -0.264067 -0.421259,0.182272 -0.264067 -1.09055,0.240171 -0.212773 -0.421259,0.240171 -0.212773 -1.09055,0.284112 -0.149114 -0.421259,0.284112 -0.149114 -1.09055,0.311542 -0.0767881 -0.421259,0.311542 -0.0767881 -1.09055,0.320865 -6.04895e-16 -0.421259,0.320865 -1.05073e-15 -1.09055,0.311542 0.0767881 -1.09055,0.311542 0.0767881 -0.421259,0.284112 0.149114 -1.09055,0.284112 0.149114 -0.421259,0.240171 0.212773 -0.421259,0.240171 0.212773 -1.09055,0.182272 0.264067 -1.09055,0.182272 0.264067 -0.421259,0.11378 0.300014 -0.421259,0.11378 0.300014 -1.09055,0.0386761 0.318526 -0.421259,0.0386761 0.318526 -1.09055,-0.0386761 0.318526 -1.09055,-0.0386761 0.318526 -0.421259,-0.11378 0.300014 -1.09055,-0.11378 0.300014 -0.421259,-0.182272 0.264067 -1.09055,-0.182272 0.264067 -0.421259,-0.240171 0.212773 -0.421259,-0.240171 0.212773 -1.09055,-0.284112 0.149114 -1.09055,-0.284112 0.149114 -0.421259,-0.311542 0.0767881 -0.421259,-0.311542 0.0767881 -1.09055]
}}
appearance Appearance{material USE MET-BRONZE }}
Shape { geometry IndexedFaceSet 
{ creaseAngle 0.50 coordIndex [0,1,2,-1,3,0,2,-1,4,5,6,-1,5,7,6,-1,8,9,10,-1,10,9,1,-1,2,9,4,-1,1,9,2,-1,4,9,5,-1,7,11,6,-1,5,12,7,-1,13,12,14,-1,14,12,8,-1,9,12,5,-1,8,12,9,-1,11,15,6,-1,16,17,18,-1,18,17,13,-1,13,17,12,-1,12,17,7,-1,7,17,11,-1,15,19,6,-1,20,21,22,-1,22,21,16,-1,11,21,15,-1,17,21,11,-1,16,21,17,-1,19,23,6,-1,24,25,26,-1,26,25,20,-1,21,25,15,-1,15,25,19,-1,20,25,21,-1,23,27,6,-1,28,29,30,-1,30,29,24,-1,24,29,25,-1,25,29,19,-1,19,29,23,-1,27,31,6,-1,32,33,34,-1,34,33,28,-1,23,33,27,-1,29,33,23,-1,28,33,29,-1,31,35,6,-1,33,36,27,-1,27,36,31,-1,37,36,38,-1,31,36,35,-1,38,36,32,-1,32,36,33,-1,35,39,6,-1,40,41,42,-1,42,41,37,-1,36,41,35,-1,37,41,36,-1,39,43,6,-1,40,44,41,-1,45,44,46,-1,46,44,40,-1,41,44,35,-1,35,44,39,-1,43,47,6,-1,6,47,4,-1,48,49,50,-1,50,49,45,-1,45,49,44,-1,43,49,47,-1,44,49,39,-1,39,49,43,-1,2,51,3,-1,3,51,52,-1,52,51,48,-1,48,51,49,-1,47,51,4,-1,49,51,47,-1,4,51,2,-1]
coord Coordinate { point [-0.320865 -2.80615e-16 -0.421259,-0.311542 0.0767881 -0.421259,-0.21391 -2.39481e-16 -0.359508,-0.311542 -0.0767881 -0.421259,-0.106955 -1.98347e-16 -0.297758,-0.0947041 0.0497045 -0.297758,0 -1.57212e-16 -0.236007,-0.0607575 0.0880224 -0.297758,-0.240171 0.212773 -0.421259,-0.189408 0.0994091 -0.359508,-0.284112 0.149114 -0.421259,-0.012892 0.106175 -0.297758,-0.121515 0.176045 -0.359508,-0.11378 0.300014 -0.421259,-0.182272 0.264067 -0.421259,0.0379268 0.100005 -0.297758,0.0386761 0.318526 -0.421259,-0.025784 0.212351 -0.359508,-0.0386761 0.318526 -0.421259,0.0800571 0.0709244 -0.297758,0.182272 0.264067 -0.421259,0.0758536 0.20001 -0.359508,0.11378 0.300014 -0.421259,0.103847 0.025596 -0.297758,0.284112 0.149114 -0.421259,0.160114 0.141849 -0.359508,0.240171 0.212773 -0.421259,0.103847 -0.025596 -0.297758,0.320865 -6.04895e-16 -0.421259,0.207694 0.0511921 -0.359508,0.311542 0.0767881 -0.421259,0.0800571 -0.0709244 -0.297758,0.284112 -0.149114 -0.421259,0.207694 -0.0511921 -0.359508,0.311542 -0.0767881 -0.421259,0.0379268 -0.100005 -0.297758,0.160114 -0.141849 -0.359508,0.182272 -0.264067 -0.421259,0.240171 -0.212773 -0.421259,-0.012892 -0.106175 -0.297758,0.0386761 -0.318526 -0.421259,0.0758536 -0.20001 -0.359508,0.11378 -0.300014 -0.421259,-0.0607575 -0.0880224 -0.297758,-0.025784 -0.212351 -0.359508,-0.11378 -0.300014 -0.421259,-0.0386761 -0.318526 -0.421259,-0.0947041 -0.0497045 -0.297758,-0.240171 -0.212773 -0.421259,-0.121515 -0.176045 -0.359508,-0.182272 -0.264067 -0.421259,-0.189408 -0.0994091 -0.359508,-0.284112 -0.149114 -0.421259]
}}
appearance Appearance{material USE MET-BRONZE }}
