ISO-10303-21;
HEADER;
FILE_DESCRIPTION(('FreeCAD Model'),'2;1');
FILE_NAME(
'/home/home/drid/Devel/LSF/lsf-kicad-lib/lsf-kicad-lib.3dshapes/MQ-7.ste
p','2020-04-08T19:46:13',('kicad StepUp'),('ksu MCAD'),
  'Open CASCADE STEP processor 7.3','FreeCAD','Unknown');
FILE_SCHEMA(('AUTOMOTIVE_DESIGN { 1 0 10303 214 1 1 1 1 }'));
ENDSEC;
DATA;
#1 = APPLICATION_PROTOCOL_DEFINITION('international standard',
  'automotive_design',2000,#2);
#2 = APPLICATION_CONTEXT(
  'core data for automotive mechanical design processes');
#3 = SHAPE_DEFINITION_REPRESENTATION(#4,#10);
#4 = PRODUCT_DEFINITION_SHAPE('','',#5);
#5 = PRODUCT_DEFINITION('design','',#6,#9);
#6 = PRODUCT_DEFINITION_FORMATION('','',#7);
#7 = PRODUCT('MQ-7','MQ-7','',(#8));
#8 = PRODUCT_CONTEXT('',#2,'mechanical');
#9 = PRODUCT_DEFINITION_CONTEXT('part definition',#2,'design');
#10 = ADVANCED_BREP_SHAPE_REPRESENTATION('',(#11,#15),#1078);
#11 = AXIS2_PLACEMENT_3D('',#12,#13,#14);
#12 = CARTESIAN_POINT('',(0.,0.,0.));
#13 = DIRECTION('',(0.,0.,1.));
#14 = DIRECTION('',(1.,0.,-0.));
#15 = MANIFOLD_SOLID_BREP('',#16);
#16 = CLOSED_SHELL('',(#17,#94,#128,#154,#180,#198,#223,#248,#273,#305,
    #330,#355,#373,#398,#423,#448,#509,#518,#527,#536,#562,#594,#619,
    #644,#662,#687,#721,#747,#773,#791,#817,#862,#882,#907,#932,#957,
    #976,#1001,#1026,#1051,#1060,#1069));
#17 = ADVANCED_FACE('',(#18,#56,#67,#78),#89,.T.);
#18 = FACE_BOUND('',#19,.F.);
#19 = EDGE_LOOP('',(#20,#31,#40,#49));
#20 = ORIENTED_EDGE('',*,*,#21,.T.);
#21 = EDGE_CURVE('',#22,#24,#26,.T.);
#22 = VERTEX_POINT('',#23);
#23 = CARTESIAN_POINT('',(5.889011058262,-0.330392471635,
    9.992007221626E-16));
#24 = VERTEX_POINT('',#25);
#25 = CARTESIAN_POINT('',(5.889011058262,-6.382143572275,
    9.992007221626E-16));
#26 = CIRCLE('',#27,3.95);
#27 = AXIS2_PLACEMENT_3D('',#28,#29,#30);
#28 = CARTESIAN_POINT('',(3.35,-3.356268021955,1.110223024625E-16));
#29 = DIRECTION('',(4.440892098501E-16,-1.479114197289E-31,-1.));
#30 = DIRECTION('',(0.642787609687,0.766044443119,2.854550416872E-16));
#31 = ORIENTED_EDGE('',*,*,#32,.T.);
#32 = EDGE_CURVE('',#24,#33,#35,.T.);
#33 = VERTEX_POINT('',#34);
#34 = CARTESIAN_POINT('',(6.91747123376,-7.607814681265,
    1.665334536938E-15));
#35 = CIRCLE('',#36,0.8);
#36 = AXIS2_PLACEMENT_3D('',#37,#38,#39);
#37 = CARTESIAN_POINT('',(6.403241146011,-6.99497912677,
    1.554312234475E-15));
#38 = DIRECTION('',(-4.440892098501E-16,4.930380657631E-32,1.));
#39 = DIRECTION('',(-0.642787609687,0.766044443119,-2.854550416872E-16)
  );
#40 = ORIENTED_EDGE('',*,*,#41,.T.);
#41 = EDGE_CURVE('',#33,#42,#44,.T.);
#42 = VERTEX_POINT('',#43);
#43 = CARTESIAN_POINT('',(6.91747123376,0.895278637355,
    1.554312234475E-15));
#44 = CIRCLE('',#45,5.55);
#45 = AXIS2_PLACEMENT_3D('',#46,#47,#48);
#46 = CARTESIAN_POINT('',(3.35,-3.356268021955,1.110223024625E-16));
#47 = DIRECTION('',(-4.440892098501E-16,4.930380657631E-32,1.));
#48 = DIRECTION('',(0.642787609687,-0.766044443119,2.854550416872E-16));
#49 = ORIENTED_EDGE('',*,*,#50,.T.);
#50 = EDGE_CURVE('',#42,#22,#51,.T.);
#51 = CIRCLE('',#52,0.8);
#52 = AXIS2_PLACEMENT_3D('',#53,#54,#55);
#53 = CARTESIAN_POINT('',(6.403241146011,0.28244308286,
    1.554312234475E-15));
#54 = DIRECTION('',(-4.440892098501E-16,1.479114197289E-31,1.));
#55 = DIRECTION('',(0.642787609687,0.766044443119,2.854550416872E-16));
#56 = FACE_BOUND('',#57,.F.);
#57 = EDGE_LOOP('',(#58));
#58 = ORIENTED_EDGE('',*,*,#59,.F.);
#59 = EDGE_CURVE('',#60,#60,#62,.T.);
#60 = VERTEX_POINT('',#61);
#61 = CARTESIAN_POINT('',(6.208757210636,2.489188680545E-03,
    1.221245327088E-15));
#62 = CIRCLE('',#63,0.5);
#63 = AXIS2_PLACEMENT_3D('',#64,#65,#66);
#64 = CARTESIAN_POINT('',(6.708757210636,2.489188680545E-03,
    1.554312234475E-15));
#65 = DIRECTION('',(-8.881784197001E-16,1.972152263053E-31,1.));
#66 = DIRECTION('',(-1.,3.330669073875E-16,-8.881784197001E-16));
#67 = FACE_BOUND('',#68,.F.);
#68 = EDGE_LOOP('',(#69));
#69 = ORIENTED_EDGE('',*,*,#70,.F.);
#70 = EDGE_CURVE('',#71,#71,#73,.T.);
#71 = VERTEX_POINT('',#72);
#72 = CARTESIAN_POINT('',(6.708757210636,-6.215025232591,
    1.443289932013E-15));
#73 = CIRCLE('',#74,0.5);
#74 = AXIS2_PLACEMENT_3D('',#75,#76,#77);
#75 = CARTESIAN_POINT('',(6.708757210636,-6.715025232591,
    1.554312234475E-15));
#76 = DIRECTION('',(-8.881784197001E-16,1.972152263053E-31,1.));
#77 = DIRECTION('',(2.22044604925E-16,1.,-8.044328996765E-44));
#78 = FACE_BOUND('',#79,.F.);
#79 = EDGE_LOOP('',(#80));
#80 = ORIENTED_EDGE('',*,*,#81,.F.);
#81 = EDGE_CURVE('',#82,#82,#84,.T.);
#82 = VERTEX_POINT('',#83);
#83 = CARTESIAN_POINT('',(7.746446609407,-3.002714631362,
    1.887379141863E-15));
#84 = CIRCLE('',#85,0.5);
#85 = AXIS2_PLACEMENT_3D('',#86,#87,#88);
#86 = CARTESIAN_POINT('',(8.1,-3.356268021955,2.109423746788E-15));
#87 = DIRECTION('',(-8.881784197001E-16,1.479114197289E-31,1.));
#88 = DIRECTION('',(-0.707106781187,0.707106781187,-6.280369834735E-16)
  );
#89 = PLANE('',#90);
#90 = AXIS2_PLACEMENT_3D('',#91,#92,#93);
#91 = CARTESIAN_POINT('',(7.146006561883,-3.356268021955,
    1.887379141863E-15));
#92 = DIRECTION('',(4.440892098501E-16,-9.860761315263E-32,-1.));
#93 = DIRECTION('',(2.22044604925E-16,1.,-9.130335306616E-45));
#94 = ADVANCED_FACE('',(#95),#123,.T.);
#95 = FACE_BOUND('',#96,.T.);
#96 = EDGE_LOOP('',(#97,#106,#107,#116));
#97 = ORIENTED_EDGE('',*,*,#98,.F.);
#98 = EDGE_CURVE('',#22,#99,#101,.T.);
#99 = VERTEX_POINT('',#100);
#100 = CARTESIAN_POINT('',(5.760453536325,-0.483601360259,0.2));
#101 = CIRCLE('',#102,0.2);
#102 = AXIS2_PLACEMENT_3D('',#103,#104,#105);
#103 = CARTESIAN_POINT('',(5.889011058262,-0.330392471635,0.2));
#104 = DIRECTION('',(-0.766044443119,0.642787609687,-3.401920714545E-16)
  );
#105 = DIRECTION('',(0.642787609687,0.766044443119,2.854550416869E-16));
#106 = ORIENTED_EDGE('',*,*,#21,.T.);
#107 = ORIENTED_EDGE('',*,*,#108,.T.);
#108 = EDGE_CURVE('',#24,#109,#111,.T.);
#109 = VERTEX_POINT('',#110);
#110 = CARTESIAN_POINT('',(5.760453536325,-6.228934683651,0.2));
#111 = CIRCLE('',#112,0.2);
#112 = AXIS2_PLACEMENT_3D('',#113,#114,#115);
#113 = CARTESIAN_POINT('',(5.889011058262,-6.382143572275,0.2));
#114 = DIRECTION('',(0.766044443119,0.642787609687,3.401920714545E-16));
#115 = DIRECTION('',(0.642787609687,-0.766044443119,2.854550416869E-16)
  );
#116 = ORIENTED_EDGE('',*,*,#117,.F.);
#117 = EDGE_CURVE('',#99,#109,#118,.T.);
#118 = CIRCLE('',#119,3.75);
#119 = AXIS2_PLACEMENT_3D('',#120,#121,#122);
#120 = CARTESIAN_POINT('',(3.35,-3.356268021955,0.2));
#121 = DIRECTION('',(4.440892098501E-16,-1.479114197289E-31,-1.));
#122 = DIRECTION('',(0.642787609687,0.766044443119,2.854550416872E-16));
#123 = TOROIDAL_SURFACE('',#124,3.95,0.2);
#124 = AXIS2_PLACEMENT_3D('',#125,#126,#127);
#125 = CARTESIAN_POINT('',(3.35,-3.356268021955,0.2));
#126 = DIRECTION('',(4.440892098501E-16,-9.860761315263E-32,-1.));
#127 = DIRECTION('',(0.642787609687,0.766044443119,2.854550416872E-16));
#128 = ADVANCED_FACE('',(#129),#149,.T.);
#129 = FACE_BOUND('',#130,.T.);
#130 = EDGE_LOOP('',(#131,#140,#141,#142));
#131 = ORIENTED_EDGE('',*,*,#132,.F.);
#132 = EDGE_CURVE('',#42,#133,#135,.T.);
#133 = VERTEX_POINT('',#134);
#134 = CARTESIAN_POINT('',(7.046028755698,1.048487525979,0.2));
#135 = CIRCLE('',#136,0.2);
#136 = AXIS2_PLACEMENT_3D('',#137,#138,#139);
#137 = CARTESIAN_POINT('',(6.91747123376,0.895278637355,0.2));
#138 = DIRECTION('',(0.766044443119,-0.642787609687,3.401920714545E-16)
  );
#139 = DIRECTION('',(0.642787609687,0.766044443119,2.854550416869E-16));
#140 = ORIENTED_EDGE('',*,*,#50,.T.);
#141 = ORIENTED_EDGE('',*,*,#98,.T.);
#142 = ORIENTED_EDGE('',*,*,#143,.F.);
#143 = EDGE_CURVE('',#133,#99,#144,.T.);
#144 = CIRCLE('',#145,1.);
#145 = AXIS2_PLACEMENT_3D('',#146,#147,#148);
#146 = CARTESIAN_POINT('',(6.403241146011,0.28244308286,0.2));
#147 = DIRECTION('',(-4.440892098501E-16,1.479114197289E-31,1.));
#148 = DIRECTION('',(0.642787609687,0.766044443119,2.854550416872E-16));
#149 = TOROIDAL_SURFACE('',#150,0.8,0.2);
#150 = AXIS2_PLACEMENT_3D('',#151,#152,#153);
#151 = CARTESIAN_POINT('',(6.403241146011,0.28244308286,0.2));
#152 = DIRECTION('',(-4.440892098501E-16,9.860761315263E-32,1.));
#153 = DIRECTION('',(0.642787609687,0.766044443119,2.854550416872E-16));
#154 = ADVANCED_FACE('',(#155),#175,.T.);
#155 = FACE_BOUND('',#156,.T.);
#156 = EDGE_LOOP('',(#157,#158,#159,#168));
#157 = ORIENTED_EDGE('',*,*,#108,.F.);
#158 = ORIENTED_EDGE('',*,*,#32,.T.);
#159 = ORIENTED_EDGE('',*,*,#160,.T.);
#160 = EDGE_CURVE('',#33,#161,#163,.T.);
#161 = VERTEX_POINT('',#162);
#162 = CARTESIAN_POINT('',(7.046028755698,-7.761023569889,0.2));
#163 = CIRCLE('',#164,0.2);
#164 = AXIS2_PLACEMENT_3D('',#165,#166,#167);
#165 = CARTESIAN_POINT('',(6.91747123376,-7.607814681265,0.2));
#166 = DIRECTION('',(-0.766044443119,-0.642787609687,-3.401920714545E-16
    ));
#167 = DIRECTION('',(0.642787609687,-0.766044443119,2.854550416869E-16)
  );
#168 = ORIENTED_EDGE('',*,*,#169,.F.);
#169 = EDGE_CURVE('',#109,#161,#170,.T.);
#170 = CIRCLE('',#171,1.);
#171 = AXIS2_PLACEMENT_3D('',#172,#173,#174);
#172 = CARTESIAN_POINT('',(6.403241146011,-6.99497912677,0.2));
#173 = DIRECTION('',(-4.440892098501E-16,4.930380657631E-32,1.));
#174 = DIRECTION('',(-0.642787609687,0.766044443119,-2.854550416872E-16)
  );
#175 = TOROIDAL_SURFACE('',#176,0.8,0.2);
#176 = AXIS2_PLACEMENT_3D('',#177,#178,#179);
#177 = CARTESIAN_POINT('',(6.403241146011,-6.99497912677,0.2));
#178 = DIRECTION('',(-4.440892098501E-16,9.860761315263E-32,1.));
#179 = DIRECTION('',(-0.642787609687,0.766044443119,-2.854550416872E-16)
  );
#180 = ADVANCED_FACE('',(#181),#193,.T.);
#181 = FACE_BOUND('',#182,.T.);
#182 = EDGE_LOOP('',(#183,#184,#185,#186));
#183 = ORIENTED_EDGE('',*,*,#160,.F.);
#184 = ORIENTED_EDGE('',*,*,#41,.T.);
#185 = ORIENTED_EDGE('',*,*,#132,.T.);
#186 = ORIENTED_EDGE('',*,*,#187,.F.);
#187 = EDGE_CURVE('',#161,#133,#188,.T.);
#188 = CIRCLE('',#189,5.75);
#189 = AXIS2_PLACEMENT_3D('',#190,#191,#192);
#190 = CARTESIAN_POINT('',(3.35,-3.356268021955,0.2));
#191 = DIRECTION('',(-4.440892098501E-16,4.930380657631E-32,1.));
#192 = DIRECTION('',(0.642787609687,-0.766044443119,2.854550416872E-16)
  );
#193 = TOROIDAL_SURFACE('',#194,5.55,0.2);
#194 = AXIS2_PLACEMENT_3D('',#195,#196,#197);
#195 = CARTESIAN_POINT('',(3.35,-3.356268021955,0.2));
#196 = DIRECTION('',(-4.440892098501E-16,9.860761315263E-32,1.));
#197 = DIRECTION('',(0.642787609687,-0.766044443119,2.854550416872E-16)
  );
#198 = ADVANCED_FACE('',(#199),#218,.T.);
#199 = FACE_BOUND('',#200,.T.);
#200 = EDGE_LOOP('',(#201,#209,#210,#211));
#201 = ORIENTED_EDGE('',*,*,#202,.F.);
#202 = EDGE_CURVE('',#60,#203,#205,.T.);
#203 = VERTEX_POINT('',#204);
#204 = CARTESIAN_POINT('',(6.208757210636,2.489188680545E-03,-7.2));
#205 = LINE('',#206,#207);
#206 = CARTESIAN_POINT('',(6.208757210636,2.489188680545E-03,1.));
#207 = VECTOR('',#208,1.);
#208 = DIRECTION('',(8.881784197001E-16,-1.479114197289E-31,-1.));
#209 = ORIENTED_EDGE('',*,*,#59,.F.);
#210 = ORIENTED_EDGE('',*,*,#202,.T.);
#211 = ORIENTED_EDGE('',*,*,#212,.T.);
#212 = EDGE_CURVE('',#203,#203,#213,.T.);
#213 = CIRCLE('',#214,0.5);
#214 = AXIS2_PLACEMENT_3D('',#215,#216,#217);
#215 = CARTESIAN_POINT('',(6.708757210636,2.489188680545E-03,-7.2));
#216 = DIRECTION('',(-8.881784197001E-16,1.972152263053E-31,1.));
#217 = DIRECTION('',(-1.,2.22044604925E-16,-8.881784197001E-16));
#218 = CYLINDRICAL_SURFACE('',#219,0.5);
#219 = AXIS2_PLACEMENT_3D('',#220,#221,#222);
#220 = CARTESIAN_POINT('',(6.708757210636,2.489188680545E-03,1.));
#221 = DIRECTION('',(-8.881784197001E-16,1.479114197289E-31,1.));
#222 = DIRECTION('',(-1.,3.330669073875E-16,-8.881784197001E-16));
#223 = ADVANCED_FACE('',(#224),#243,.T.);
#224 = FACE_BOUND('',#225,.T.);
#225 = EDGE_LOOP('',(#226,#234,#235,#236));
#226 = ORIENTED_EDGE('',*,*,#227,.F.);
#227 = EDGE_CURVE('',#71,#228,#230,.T.);
#228 = VERTEX_POINT('',#229);
#229 = CARTESIAN_POINT('',(6.708757210636,-6.215025232591,-7.2));
#230 = LINE('',#231,#232);
#231 = CARTESIAN_POINT('',(6.708757210636,-6.215025232591,1.));
#232 = VECTOR('',#233,1.);
#233 = DIRECTION('',(8.881784197001E-16,-1.972152263053E-31,-1.));
#234 = ORIENTED_EDGE('',*,*,#70,.F.);
#235 = ORIENTED_EDGE('',*,*,#227,.T.);
#236 = ORIENTED_EDGE('',*,*,#237,.T.);
#237 = EDGE_CURVE('',#228,#228,#238,.T.);
#238 = CIRCLE('',#239,0.5);
#239 = AXIS2_PLACEMENT_3D('',#240,#241,#242);
#240 = CARTESIAN_POINT('',(6.708757210636,-6.715025232591,-7.2));
#241 = DIRECTION('',(-8.881784197001E-16,1.972152263053E-31,1.));
#242 = DIRECTION('',(2.22044604925E-16,1.,-8.044328996765E-44));
#243 = CYLINDRICAL_SURFACE('',#244,0.5);
#244 = AXIS2_PLACEMENT_3D('',#245,#246,#247);
#245 = CARTESIAN_POINT('',(6.708757210636,-6.715025232591,1.));
#246 = DIRECTION('',(-8.881784197001E-16,1.972152263053E-31,1.));
#247 = DIRECTION('',(2.22044604925E-16,1.,-8.044328996765E-44));
#248 = ADVANCED_FACE('',(#249),#268,.T.);
#249 = FACE_BOUND('',#250,.T.);
#250 = EDGE_LOOP('',(#251,#259,#260,#261));
#251 = ORIENTED_EDGE('',*,*,#252,.F.);
#252 = EDGE_CURVE('',#82,#253,#255,.T.);
#253 = VERTEX_POINT('',#254);
#254 = CARTESIAN_POINT('',(7.746446609407,-3.002714631362,-7.2));
#255 = LINE('',#256,#257);
#256 = CARTESIAN_POINT('',(7.746446609407,-3.002714631362,1.));
#257 = VECTOR('',#258,1.);
#258 = DIRECTION('',(8.881784197001E-16,0.,-1.));
#259 = ORIENTED_EDGE('',*,*,#81,.F.);
#260 = ORIENTED_EDGE('',*,*,#252,.T.);
#261 = ORIENTED_EDGE('',*,*,#262,.T.);
#262 = EDGE_CURVE('',#253,#253,#263,.T.);
#263 = CIRCLE('',#264,0.5);
#264 = AXIS2_PLACEMENT_3D('',#265,#266,#267);
#265 = CARTESIAN_POINT('',(8.1,-3.356268021955,-7.2));
#266 = DIRECTION('',(-8.881784197001E-16,0.,1.));
#267 = DIRECTION('',(-0.707106781187,0.707106781187,-6.280369834735E-16)
  );
#268 = CYLINDRICAL_SURFACE('',#269,0.5);
#269 = AXIS2_PLACEMENT_3D('',#270,#271,#272);
#270 = CARTESIAN_POINT('',(8.1,-3.356268021955,1.));
#271 = DIRECTION('',(-8.881784197001E-16,0.,1.));
#272 = DIRECTION('',(-0.707106781187,0.707106781187,-6.280369834735E-16)
  );
#273 = ADVANCED_FACE('',(#274),#300,.F.);
#274 = FACE_BOUND('',#275,.F.);
#275 = EDGE_LOOP('',(#276,#287,#293,#294));
#276 = ORIENTED_EDGE('',*,*,#277,.T.);
#277 = EDGE_CURVE('',#278,#280,#282,.T.);
#278 = VERTEX_POINT('',#279);
#279 = CARTESIAN_POINT('',(5.760453536325,-0.483601360259,1.));
#280 = VERTEX_POINT('',#281);
#281 = CARTESIAN_POINT('',(5.760453536325,-6.228934683651,1.));
#282 = CIRCLE('',#283,3.75);
#283 = AXIS2_PLACEMENT_3D('',#284,#285,#286);
#284 = CARTESIAN_POINT('',(3.35,-3.356268021955,1.));
#285 = DIRECTION('',(4.440892098501E-16,-9.860761315263E-32,-1.));
#286 = DIRECTION('',(2.22044604925E-16,1.,-9.130335306616E-45));
#287 = ORIENTED_EDGE('',*,*,#288,.T.);
#288 = EDGE_CURVE('',#280,#109,#289,.T.);
#289 = LINE('',#290,#291);
#290 = CARTESIAN_POINT('',(5.760453536325,-6.228934683651,1.));
#291 = VECTOR('',#292,1.);
#292 = DIRECTION('',(4.440892098501E-16,-9.860761315263E-32,-1.));
#293 = ORIENTED_EDGE('',*,*,#117,.F.);
#294 = ORIENTED_EDGE('',*,*,#295,.F.);
#295 = EDGE_CURVE('',#278,#99,#296,.T.);
#296 = LINE('',#297,#298);
#297 = CARTESIAN_POINT('',(5.760453536325,-0.483601360259,1.));
#298 = VECTOR('',#299,1.);
#299 = DIRECTION('',(4.440892098501E-16,-9.860761315263E-32,-1.));
#300 = CYLINDRICAL_SURFACE('',#301,3.75);
#301 = AXIS2_PLACEMENT_3D('',#302,#303,#304);
#302 = CARTESIAN_POINT('',(3.35,-3.356268021955,1.));
#303 = DIRECTION('',(-4.440892098501E-16,9.860761315263E-32,1.));
#304 = DIRECTION('',(2.22044604925E-16,1.,-9.130335306616E-45));
#305 = ADVANCED_FACE('',(#306),#325,.T.);
#306 = FACE_BOUND('',#307,.T.);
#307 = EDGE_LOOP('',(#308,#317,#323,#324));
#308 = ORIENTED_EDGE('',*,*,#309,.T.);
#309 = EDGE_CURVE('',#278,#310,#312,.T.);
#310 = VERTEX_POINT('',#311);
#311 = CARTESIAN_POINT('',(7.046028755698,1.048487525979,1.));
#312 = CIRCLE('',#313,1.);
#313 = AXIS2_PLACEMENT_3D('',#314,#315,#316);
#314 = CARTESIAN_POINT('',(6.403241146011,0.28244308286,1.));
#315 = DIRECTION('',(4.440892098501E-16,-9.860761315263E-32,-1.));
#316 = DIRECTION('',(2.22044604925E-16,1.,-9.130335306616E-45));
#317 = ORIENTED_EDGE('',*,*,#318,.T.);
#318 = EDGE_CURVE('',#310,#133,#319,.T.);
#319 = LINE('',#320,#321);
#320 = CARTESIAN_POINT('',(7.046028755698,1.048487525979,1.));
#321 = VECTOR('',#322,1.);
#322 = DIRECTION('',(4.440892098501E-16,-9.860761315263E-32,-1.));
#323 = ORIENTED_EDGE('',*,*,#143,.T.);
#324 = ORIENTED_EDGE('',*,*,#295,.F.);
#325 = CYLINDRICAL_SURFACE('',#326,1.);
#326 = AXIS2_PLACEMENT_3D('',#327,#328,#329);
#327 = CARTESIAN_POINT('',(6.403241146011,0.28244308286,1.));
#328 = DIRECTION('',(-4.440892098501E-16,9.860761315263E-32,1.));
#329 = DIRECTION('',(2.22044604925E-16,1.,-9.130335306616E-45));
#330 = ADVANCED_FACE('',(#331),#350,.T.);
#331 = FACE_BOUND('',#332,.T.);
#332 = EDGE_LOOP('',(#333,#342,#343,#344));
#333 = ORIENTED_EDGE('',*,*,#334,.T.);
#334 = EDGE_CURVE('',#335,#280,#337,.T.);
#335 = VERTEX_POINT('',#336);
#336 = CARTESIAN_POINT('',(7.046028755698,-7.761023569889,1.));
#337 = CIRCLE('',#338,1.);
#338 = AXIS2_PLACEMENT_3D('',#339,#340,#341);
#339 = CARTESIAN_POINT('',(6.403241146011,-6.99497912677,1.));
#340 = DIRECTION('',(4.440892098501E-16,-9.860761315263E-32,-1.));
#341 = DIRECTION('',(2.22044604925E-16,1.,-9.130335306616E-45));
#342 = ORIENTED_EDGE('',*,*,#288,.T.);
#343 = ORIENTED_EDGE('',*,*,#169,.T.);
#344 = ORIENTED_EDGE('',*,*,#345,.F.);
#345 = EDGE_CURVE('',#335,#161,#346,.T.);
#346 = LINE('',#347,#348);
#347 = CARTESIAN_POINT('',(7.046028755698,-7.761023569889,1.));
#348 = VECTOR('',#349,1.);
#349 = DIRECTION('',(4.440892098501E-16,-9.860761315263E-32,-1.));
#350 = CYLINDRICAL_SURFACE('',#351,1.);
#351 = AXIS2_PLACEMENT_3D('',#352,#353,#354);
#352 = CARTESIAN_POINT('',(6.403241146011,-6.99497912677,1.));
#353 = DIRECTION('',(-4.440892098501E-16,9.860761315263E-32,1.));
#354 = DIRECTION('',(2.22044604925E-16,1.,-9.130335306616E-45));
#355 = ADVANCED_FACE('',(#356),#368,.T.);
#356 = FACE_BOUND('',#357,.T.);
#357 = EDGE_LOOP('',(#358,#365,#366,#367));
#358 = ORIENTED_EDGE('',*,*,#359,.T.);
#359 = EDGE_CURVE('',#310,#335,#360,.T.);
#360 = CIRCLE('',#361,5.75);
#361 = AXIS2_PLACEMENT_3D('',#362,#363,#364);
#362 = CARTESIAN_POINT('',(3.35,-3.356268021955,1.));
#363 = DIRECTION('',(4.440892098501E-16,-9.860761315263E-32,-1.));
#364 = DIRECTION('',(2.22044604925E-16,1.,-9.130335306616E-45));
#365 = ORIENTED_EDGE('',*,*,#345,.T.);
#366 = ORIENTED_EDGE('',*,*,#187,.T.);
#367 = ORIENTED_EDGE('',*,*,#318,.F.);
#368 = CYLINDRICAL_SURFACE('',#369,5.75);
#369 = AXIS2_PLACEMENT_3D('',#370,#371,#372);
#370 = CARTESIAN_POINT('',(3.35,-3.356268021955,1.));
#371 = DIRECTION('',(-4.440892098501E-16,9.860761315263E-32,1.));
#372 = DIRECTION('',(2.22044604925E-16,1.,-9.130335306616E-45));
#373 = ADVANCED_FACE('',(#374),#393,.T.);
#374 = FACE_BOUND('',#375,.T.);
#375 = EDGE_LOOP('',(#376,#385,#391,#392));
#376 = ORIENTED_EDGE('',*,*,#377,.T.);
#377 = EDGE_CURVE('',#378,#378,#380,.T.);
#378 = VERTEX_POINT('',#379);
#379 = CARTESIAN_POINT('',(6.508757210636,2.489188680545E-03,-7.5));
#380 = CIRCLE('',#381,0.2);
#381 = AXIS2_PLACEMENT_3D('',#382,#383,#384);
#382 = CARTESIAN_POINT('',(6.708757210636,2.489188680545E-03,-7.5));
#383 = DIRECTION('',(-8.881784197001E-16,1.972152263053E-31,1.));
#384 = DIRECTION('',(-1.,2.22044604925E-16,-8.881784197001E-16));
#385 = ORIENTED_EDGE('',*,*,#386,.F.);
#386 = EDGE_CURVE('',#203,#378,#387,.T.);
#387 = LINE('',#388,#389);
#388 = CARTESIAN_POINT('',(6.208757210636,2.489188680545E-03,-7.2));
#389 = VECTOR('',#390,1.);
#390 = DIRECTION('',(0.707106781187,-1.570092458682E-16,-0.707106781187)
  );
#391 = ORIENTED_EDGE('',*,*,#212,.F.);
#392 = ORIENTED_EDGE('',*,*,#386,.T.);
#393 = CONICAL_SURFACE('',#394,0.5,0.785398163397);
#394 = AXIS2_PLACEMENT_3D('',#395,#396,#397);
#395 = CARTESIAN_POINT('',(6.708757210636,2.489188680545E-03,-7.2));
#396 = DIRECTION('',(-8.881784197001E-16,1.972152263053E-31,1.));
#397 = DIRECTION('',(-1.,2.22044604925E-16,-8.881784197001E-16));
#398 = ADVANCED_FACE('',(#399),#418,.T.);
#399 = FACE_BOUND('',#400,.T.);
#400 = EDGE_LOOP('',(#401,#410,#416,#417));
#401 = ORIENTED_EDGE('',*,*,#402,.T.);
#402 = EDGE_CURVE('',#403,#403,#405,.T.);
#403 = VERTEX_POINT('',#404);
#404 = CARTESIAN_POINT('',(6.708757210636,-6.515025232591,-7.5));
#405 = CIRCLE('',#406,0.2);
#406 = AXIS2_PLACEMENT_3D('',#407,#408,#409);
#407 = CARTESIAN_POINT('',(6.708757210636,-6.715025232591,-7.5));
#408 = DIRECTION('',(-8.881784197001E-16,1.972152263053E-31,1.));
#409 = DIRECTION('',(2.22044604925E-16,1.,-8.044328996765E-44));
#410 = ORIENTED_EDGE('',*,*,#411,.F.);
#411 = EDGE_CURVE('',#228,#403,#412,.T.);
#412 = LINE('',#413,#414);
#413 = CARTESIAN_POINT('',(6.708757210636,-6.215025232591,-7.2));
#414 = VECTOR('',#415,1.);
#415 = DIRECTION('',(4.710277376045E-16,-0.707106781187,-0.707106781187)
  );
#416 = ORIENTED_EDGE('',*,*,#237,.F.);
#417 = ORIENTED_EDGE('',*,*,#411,.T.);
#418 = CONICAL_SURFACE('',#419,0.5,0.785398163397);
#419 = AXIS2_PLACEMENT_3D('',#420,#421,#422);
#420 = CARTESIAN_POINT('',(6.708757210636,-6.715025232591,-7.2));
#421 = DIRECTION('',(-8.881784197001E-16,1.972152263053E-31,1.));
#422 = DIRECTION('',(2.22044604925E-16,1.,-8.044328996765E-44));
#423 = ADVANCED_FACE('',(#424),#443,.T.);
#424 = FACE_BOUND('',#425,.T.);
#425 = EDGE_LOOP('',(#426,#435,#441,#442));
#426 = ORIENTED_EDGE('',*,*,#427,.T.);
#427 = EDGE_CURVE('',#428,#428,#430,.T.);
#428 = VERTEX_POINT('',#429);
#429 = CARTESIAN_POINT('',(7.958578643763,-3.214846665718,-7.5));
#430 = CIRCLE('',#431,0.2);
#431 = AXIS2_PLACEMENT_3D('',#432,#433,#434);
#432 = CARTESIAN_POINT('',(8.1,-3.356268021955,-7.5));
#433 = DIRECTION('',(-8.881784197001E-16,0.,1.));
#434 = DIRECTION('',(-0.707106781187,0.707106781187,-6.280369834735E-16)
  );
#435 = ORIENTED_EDGE('',*,*,#436,.F.);
#436 = EDGE_CURVE('',#253,#428,#437,.T.);
#437 = LINE('',#438,#439);
#438 = CARTESIAN_POINT('',(7.746446609407,-3.002714631362,-7.2));
#439 = VECTOR('',#440,1.);
#440 = DIRECTION('',(0.5,-0.5,-0.707106781187));
#441 = ORIENTED_EDGE('',*,*,#262,.F.);
#442 = ORIENTED_EDGE('',*,*,#436,.T.);
#443 = CONICAL_SURFACE('',#444,0.5,0.785398163397);
#444 = AXIS2_PLACEMENT_3D('',#445,#446,#447);
#445 = CARTESIAN_POINT('',(8.1,-3.356268021955,-7.2));
#446 = DIRECTION('',(-8.881784197001E-16,1.972152263053E-31,1.));
#447 = DIRECTION('',(-0.707106781187,0.707106781187,-6.280369834735E-16)
  );
#448 = ADVANCED_FACE('',(#449,#460,#466),#504,.T.);
#449 = FACE_BOUND('',#450,.F.);
#450 = EDGE_LOOP('',(#451));
#451 = ORIENTED_EDGE('',*,*,#452,.F.);
#452 = EDGE_CURVE('',#453,#453,#455,.T.);
#453 = VERTEX_POINT('',#454);
#454 = CARTESIAN_POINT('',(3.35,4.643731978045,1.));
#455 = CIRCLE('',#456,8.);
#456 = AXIS2_PLACEMENT_3D('',#457,#458,#459);
#457 = CARTESIAN_POINT('',(3.35,-3.356268021955,1.));
#458 = DIRECTION('',(1.554312234475E-15,-3.451266460342E-31,-1.));
#459 = DIRECTION('',(2.22044604925E-16,1.,-1.046594790543E-43));
#460 = FACE_BOUND('',#461,.F.);
#461 = EDGE_LOOP('',(#462,#463,#464,#465));
#462 = ORIENTED_EDGE('',*,*,#277,.F.);
#463 = ORIENTED_EDGE('',*,*,#309,.T.);
#464 = ORIENTED_EDGE('',*,*,#359,.T.);
#465 = ORIENTED_EDGE('',*,*,#334,.T.);
#466 = FACE_BOUND('',#467,.F.);
#467 = EDGE_LOOP('',(#468,#479,#488,#497));
#468 = ORIENTED_EDGE('',*,*,#469,.F.);
#469 = EDGE_CURVE('',#470,#472,#474,.T.);
#470 = VERTEX_POINT('',#471);
#471 = CARTESIAN_POINT('',(0.939546463675,-0.483601360259,1.));
#472 = VERTEX_POINT('',#473);
#473 = CARTESIAN_POINT('',(-0.346028755698,1.048487525979,1.));
#474 = CIRCLE('',#475,1.);
#475 = AXIS2_PLACEMENT_3D('',#476,#477,#478);
#476 = CARTESIAN_POINT('',(0.296758853989,0.28244308286,1.));
#477 = DIRECTION('',(-4.440892098501E-16,9.860761315263E-32,1.));
#478 = DIRECTION('',(2.22044604925E-16,1.,-9.130335306616E-45));
#479 = ORIENTED_EDGE('',*,*,#480,.T.);
#480 = EDGE_CURVE('',#470,#481,#483,.T.);
#481 = VERTEX_POINT('',#482);
#482 = CARTESIAN_POINT('',(0.939546463675,-6.228934683651,1.));
#483 = CIRCLE('',#484,3.75);
#484 = AXIS2_PLACEMENT_3D('',#485,#486,#487);
#485 = CARTESIAN_POINT('',(3.35,-3.356268021955,1.));
#486 = DIRECTION('',(-4.440892098501E-16,9.860761315263E-32,1.));
#487 = DIRECTION('',(2.22044604925E-16,1.,-9.130335306616E-45));
#488 = ORIENTED_EDGE('',*,*,#489,.F.);
#489 = EDGE_CURVE('',#490,#481,#492,.T.);
#490 = VERTEX_POINT('',#491);
#491 = CARTESIAN_POINT('',(-0.346028755698,-7.761023569889,1.));
#492 = CIRCLE('',#493,1.);
#493 = AXIS2_PLACEMENT_3D('',#494,#495,#496);
#494 = CARTESIAN_POINT('',(0.296758853989,-6.99497912677,1.));
#495 = DIRECTION('',(-4.440892098501E-16,9.860761315263E-32,1.));
#496 = DIRECTION('',(2.22044604925E-16,1.,-9.130335306616E-45));
#497 = ORIENTED_EDGE('',*,*,#498,.F.);
#498 = EDGE_CURVE('',#472,#490,#499,.T.);
#499 = CIRCLE('',#500,5.75);
#500 = AXIS2_PLACEMENT_3D('',#501,#502,#503);
#501 = CARTESIAN_POINT('',(3.35,-3.356268021955,1.));
#502 = DIRECTION('',(-4.440892098501E-16,9.860761315263E-32,1.));
#503 = DIRECTION('',(2.22044604925E-16,1.,-9.130335306616E-45));
#504 = PLANE('',#505);
#505 = AXIS2_PLACEMENT_3D('',#506,#507,#508);
#506 = CARTESIAN_POINT('',(3.35,-3.356268021955,1.));
#507 = DIRECTION('',(1.554312234475E-15,-3.451266460342E-31,-1.));
#508 = DIRECTION('',(2.22044604925E-16,1.,-1.046594790543E-43));
#509 = ADVANCED_FACE('',(#510),#513,.F.);
#510 = FACE_BOUND('',#511,.F.);
#511 = EDGE_LOOP('',(#512));
#512 = ORIENTED_EDGE('',*,*,#377,.T.);
#513 = PLANE('',#514);
#514 = AXIS2_PLACEMENT_3D('',#515,#516,#517);
#515 = CARTESIAN_POINT('',(6.708757210636,2.489188680545E-03,-7.5));
#516 = DIRECTION('',(-8.881784197001E-16,1.479114197289E-31,1.));
#517 = DIRECTION('',(-1.,3.330669073875E-16,-8.881784197001E-16));
#518 = ADVANCED_FACE('',(#519),#522,.F.);
#519 = FACE_BOUND('',#520,.F.);
#520 = EDGE_LOOP('',(#521));
#521 = ORIENTED_EDGE('',*,*,#402,.T.);
#522 = PLANE('',#523);
#523 = AXIS2_PLACEMENT_3D('',#524,#525,#526);
#524 = CARTESIAN_POINT('',(6.708757210636,-6.715025232591,-7.5));
#525 = DIRECTION('',(-8.881784197001E-16,1.972152263053E-31,1.));
#526 = DIRECTION('',(2.22044604925E-16,1.,-8.044328996765E-44));
#527 = ADVANCED_FACE('',(#528),#531,.F.);
#528 = FACE_BOUND('',#529,.F.);
#529 = EDGE_LOOP('',(#530));
#530 = ORIENTED_EDGE('',*,*,#427,.T.);
#531 = PLANE('',#532);
#532 = AXIS2_PLACEMENT_3D('',#533,#534,#535);
#533 = CARTESIAN_POINT('',(8.1,-3.356268021955,-7.5));
#534 = DIRECTION('',(-8.881784197001E-16,4.930380657631E-32,1.));
#535 = DIRECTION('',(-0.707106781187,0.707106781187,-6.280369834735E-16)
  );
#536 = ADVANCED_FACE('',(#537),#557,.T.);
#537 = FACE_BOUND('',#538,.T.);
#538 = EDGE_LOOP('',(#539,#548,#555,#556));
#539 = ORIENTED_EDGE('',*,*,#540,.F.);
#540 = EDGE_CURVE('',#541,#453,#543,.T.);
#541 = VERTEX_POINT('',#542);
#542 = CARTESIAN_POINT('',(3.35,5.143731978045,1.5));
#543 = CIRCLE('',#544,0.5);
#544 = AXIS2_PLACEMENT_3D('',#545,#546,#547);
#545 = CARTESIAN_POINT('',(3.35,4.643731978045,1.5));
#546 = DIRECTION('',(-1.,2.22044604925E-16,-1.554312234475E-15));
#547 = DIRECTION('',(2.22044604925E-16,1.,0.));
#548 = ORIENTED_EDGE('',*,*,#549,.T.);
#549 = EDGE_CURVE('',#541,#541,#550,.T.);
#550 = CIRCLE('',#551,8.5);
#551 = AXIS2_PLACEMENT_3D('',#552,#553,#554);
#552 = CARTESIAN_POINT('',(3.35,-3.356268021955,1.5));
#553 = DIRECTION('',(1.554312234475E-15,-3.451266460342E-31,-1.));
#554 = DIRECTION('',(2.22044604925E-16,1.,-1.046594790543E-43));
#555 = ORIENTED_EDGE('',*,*,#540,.T.);
#556 = ORIENTED_EDGE('',*,*,#452,.F.);
#557 = TOROIDAL_SURFACE('',#558,8.,0.5);
#558 = AXIS2_PLACEMENT_3D('',#559,#560,#561);
#559 = CARTESIAN_POINT('',(3.35,-3.356268021955,1.5));
#560 = DIRECTION('',(1.554312234475E-15,-3.451266460342E-31,-1.));
#561 = DIRECTION('',(2.22044604925E-16,1.,-1.046594790543E-43));
#562 = ADVANCED_FACE('',(#563),#589,.T.);
#563 = FACE_BOUND('',#564,.T.);
#564 = EDGE_LOOP('',(#565,#573,#582,#588));
#565 = ORIENTED_EDGE('',*,*,#566,.T.);
#566 = EDGE_CURVE('',#470,#567,#569,.T.);
#567 = VERTEX_POINT('',#568);
#568 = CARTESIAN_POINT('',(0.939546463675,-0.483601360259,0.2));
#569 = LINE('',#570,#571);
#570 = CARTESIAN_POINT('',(0.939546463675,-0.483601360259,1.));
#571 = VECTOR('',#572,1.);
#572 = DIRECTION('',(4.440892098501E-16,-9.860761315263E-32,-1.));
#573 = ORIENTED_EDGE('',*,*,#574,.T.);
#574 = EDGE_CURVE('',#567,#575,#577,.T.);
#575 = VERTEX_POINT('',#576);
#576 = CARTESIAN_POINT('',(-0.346028755698,1.048487525979,0.2));
#577 = CIRCLE('',#578,1.);
#578 = AXIS2_PLACEMENT_3D('',#579,#580,#581);
#579 = CARTESIAN_POINT('',(0.296758853989,0.28244308286,0.2));
#580 = DIRECTION('',(-4.440892098501E-16,4.930380657631E-32,1.));
#581 = DIRECTION('',(0.642787609687,-0.766044443119,2.854550416872E-16)
  );
#582 = ORIENTED_EDGE('',*,*,#583,.F.);
#583 = EDGE_CURVE('',#472,#575,#584,.T.);
#584 = LINE('',#585,#586);
#585 = CARTESIAN_POINT('',(-0.346028755698,1.048487525979,1.));
#586 = VECTOR('',#587,1.);
#587 = DIRECTION('',(4.440892098501E-16,-9.860761315263E-32,-1.));
#588 = ORIENTED_EDGE('',*,*,#469,.F.);
#589 = CYLINDRICAL_SURFACE('',#590,1.);
#590 = AXIS2_PLACEMENT_3D('',#591,#592,#593);
#591 = CARTESIAN_POINT('',(0.296758853989,0.28244308286,1.));
#592 = DIRECTION('',(-4.440892098501E-16,9.860761315263E-32,1.));
#593 = DIRECTION('',(2.22044604925E-16,1.,-9.130335306616E-45));
#594 = ADVANCED_FACE('',(#595),#614,.F.);
#595 = FACE_BOUND('',#596,.F.);
#596 = EDGE_LOOP('',(#597,#598,#607,#613));
#597 = ORIENTED_EDGE('',*,*,#566,.T.);
#598 = ORIENTED_EDGE('',*,*,#599,.F.);
#599 = EDGE_CURVE('',#600,#567,#602,.T.);
#600 = VERTEX_POINT('',#601);
#601 = CARTESIAN_POINT('',(0.939546463675,-6.228934683651,0.2));
#602 = CIRCLE('',#603,3.75);
#603 = AXIS2_PLACEMENT_3D('',#604,#605,#606);
#604 = CARTESIAN_POINT('',(3.35,-3.356268021955,0.2));
#605 = DIRECTION('',(4.440892098501E-16,-1.479114197289E-31,-1.));
#606 = DIRECTION('',(-0.642787609687,-0.766044443119,-2.854550416872E-16
    ));
#607 = ORIENTED_EDGE('',*,*,#608,.F.);
#608 = EDGE_CURVE('',#481,#600,#609,.T.);
#609 = LINE('',#610,#611);
#610 = CARTESIAN_POINT('',(0.939546463675,-6.228934683651,1.));
#611 = VECTOR('',#612,1.);
#612 = DIRECTION('',(4.440892098501E-16,-9.860761315263E-32,-1.));
#613 = ORIENTED_EDGE('',*,*,#480,.F.);
#614 = CYLINDRICAL_SURFACE('',#615,3.75);
#615 = AXIS2_PLACEMENT_3D('',#616,#617,#618);
#616 = CARTESIAN_POINT('',(3.35,-3.356268021955,1.));
#617 = DIRECTION('',(-4.440892098501E-16,9.860761315263E-32,1.));
#618 = DIRECTION('',(2.22044604925E-16,1.,-9.130335306616E-45));
#619 = ADVANCED_FACE('',(#620),#639,.T.);
#620 = FACE_BOUND('',#621,.T.);
#621 = EDGE_LOOP('',(#622,#623,#632,#638));
#622 = ORIENTED_EDGE('',*,*,#583,.T.);
#623 = ORIENTED_EDGE('',*,*,#624,.T.);
#624 = EDGE_CURVE('',#575,#625,#627,.T.);
#625 = VERTEX_POINT('',#626);
#626 = CARTESIAN_POINT('',(-0.346028755698,-7.761023569889,0.2));
#627 = CIRCLE('',#628,5.75);
#628 = AXIS2_PLACEMENT_3D('',#629,#630,#631);
#629 = CARTESIAN_POINT('',(3.35,-3.356268021955,0.2));
#630 = DIRECTION('',(-4.440892098501E-16,9.860761315263E-32,1.));
#631 = DIRECTION('',(-0.642787609687,0.766044443119,-2.854550416872E-16)
  );
#632 = ORIENTED_EDGE('',*,*,#633,.F.);
#633 = EDGE_CURVE('',#490,#625,#634,.T.);
#634 = LINE('',#635,#636);
#635 = CARTESIAN_POINT('',(-0.346028755698,-7.761023569889,1.));
#636 = VECTOR('',#637,1.);
#637 = DIRECTION('',(4.440892098501E-16,-9.860761315263E-32,-1.));
#638 = ORIENTED_EDGE('',*,*,#498,.F.);
#639 = CYLINDRICAL_SURFACE('',#640,5.75);
#640 = AXIS2_PLACEMENT_3D('',#641,#642,#643);
#641 = CARTESIAN_POINT('',(3.35,-3.356268021955,1.));
#642 = DIRECTION('',(-4.440892098501E-16,9.860761315263E-32,1.));
#643 = DIRECTION('',(2.22044604925E-16,1.,-9.130335306616E-45));
#644 = ADVANCED_FACE('',(#645),#657,.T.);
#645 = FACE_BOUND('',#646,.T.);
#646 = EDGE_LOOP('',(#647,#648,#655,#656));
#647 = ORIENTED_EDGE('',*,*,#633,.T.);
#648 = ORIENTED_EDGE('',*,*,#649,.T.);
#649 = EDGE_CURVE('',#625,#600,#650,.T.);
#650 = CIRCLE('',#651,1.);
#651 = AXIS2_PLACEMENT_3D('',#652,#653,#654);
#652 = CARTESIAN_POINT('',(0.296758853989,-6.99497912677,0.2));
#653 = DIRECTION('',(-4.440892098501E-16,1.479114197289E-31,1.));
#654 = DIRECTION('',(-0.642787609687,-0.766044443119,-2.854550416872E-16
    ));
#655 = ORIENTED_EDGE('',*,*,#608,.F.);
#656 = ORIENTED_EDGE('',*,*,#489,.F.);
#657 = CYLINDRICAL_SURFACE('',#658,1.);
#658 = AXIS2_PLACEMENT_3D('',#659,#660,#661);
#659 = CARTESIAN_POINT('',(0.296758853989,-6.99497912677,1.));
#660 = DIRECTION('',(-4.440892098501E-16,9.860761315263E-32,1.));
#661 = DIRECTION('',(2.22044604925E-16,1.,-9.130335306616E-45));
#662 = ADVANCED_FACE('',(#663),#682,.T.);
#663 = FACE_BOUND('',#664,.T.);
#664 = EDGE_LOOP('',(#665,#674,#680,#681));
#665 = ORIENTED_EDGE('',*,*,#666,.T.);
#666 = EDGE_CURVE('',#667,#667,#669,.T.);
#667 = VERTEX_POINT('',#668);
#668 = CARTESIAN_POINT('',(3.35,5.143731978045,9.500000000002));
#669 = CIRCLE('',#670,8.5);
#670 = AXIS2_PLACEMENT_3D('',#671,#672,#673);
#671 = CARTESIAN_POINT('',(3.35,-3.356268021955,9.500000000002));
#672 = DIRECTION('',(1.554312234475E-15,-3.451266460342E-31,-1.));
#673 = DIRECTION('',(2.22044604925E-16,1.,-1.046594790543E-43));
#674 = ORIENTED_EDGE('',*,*,#675,.F.);
#675 = EDGE_CURVE('',#541,#667,#676,.T.);
#676 = LINE('',#677,#678);
#677 = CARTESIAN_POINT('',(3.35,5.143731978045,1.));
#678 = VECTOR('',#679,1.);
#679 = DIRECTION('',(-1.554312234475E-15,3.451266460342E-31,1.));
#680 = ORIENTED_EDGE('',*,*,#549,.F.);
#681 = ORIENTED_EDGE('',*,*,#675,.T.);
#682 = CYLINDRICAL_SURFACE('',#683,8.5);
#683 = AXIS2_PLACEMENT_3D('',#684,#685,#686);
#684 = CARTESIAN_POINT('',(3.35,-3.356268021955,1.));
#685 = DIRECTION('',(-1.554312234475E-15,3.451266460342E-31,1.));
#686 = DIRECTION('',(2.22044604925E-16,1.,-1.046594790543E-43));
#687 = ADVANCED_FACE('',(#688),#716,.T.);
#688 = FACE_BOUND('',#689,.T.);
#689 = EDGE_LOOP('',(#690,#701,#708,#709));
#690 = ORIENTED_EDGE('',*,*,#691,.T.);
#691 = EDGE_CURVE('',#692,#694,#696,.T.);
#692 = VERTEX_POINT('',#693);
#693 = CARTESIAN_POINT('',(0.810988941738,-0.330392471635,
    -1.110223024625E-15));
#694 = VERTEX_POINT('',#695);
#695 = CARTESIAN_POINT('',(-0.21747123376,0.895278637355,
    -1.554312234475E-15));
#696 = CIRCLE('',#697,0.8);
#697 = AXIS2_PLACEMENT_3D('',#698,#699,#700);
#698 = CARTESIAN_POINT('',(0.296758853989,0.28244308286,
    -1.110223024625E-15));
#699 = DIRECTION('',(-4.440892098501E-16,4.930380657631E-32,1.));
#700 = DIRECTION('',(0.642787609687,-0.766044443119,2.854550416872E-16)
  );
#701 = ORIENTED_EDGE('',*,*,#702,.F.);
#702 = EDGE_CURVE('',#575,#694,#703,.T.);
#703 = CIRCLE('',#704,0.2);
#704 = AXIS2_PLACEMENT_3D('',#705,#706,#707);
#705 = CARTESIAN_POINT('',(-0.21747123376,0.895278637355,0.2));
#706 = DIRECTION('',(-0.766044443119,-0.642787609687,-3.401920714545E-16
    ));
#707 = DIRECTION('',(-0.642787609687,0.766044443119,-2.854550416869E-16)
  );
#708 = ORIENTED_EDGE('',*,*,#574,.F.);
#709 = ORIENTED_EDGE('',*,*,#710,.T.);
#710 = EDGE_CURVE('',#567,#692,#711,.T.);
#711 = CIRCLE('',#712,0.2);
#712 = AXIS2_PLACEMENT_3D('',#713,#714,#715);
#713 = CARTESIAN_POINT('',(0.810988941738,-0.330392471635,0.2));
#714 = DIRECTION('',(0.766044443119,0.642787609687,3.401920714545E-16));
#715 = DIRECTION('',(0.642787609687,-0.766044443119,2.854550416869E-16)
  );
#716 = TOROIDAL_SURFACE('',#717,0.8,0.2);
#717 = AXIS2_PLACEMENT_3D('',#718,#719,#720);
#718 = CARTESIAN_POINT('',(0.296758853989,0.28244308286,0.2));
#719 = DIRECTION('',(4.440892098501E-16,-9.860761315263E-32,-1.));
#720 = DIRECTION('',(0.642787609687,-0.766044443119,2.854550416872E-16)
  );
#721 = ADVANCED_FACE('',(#722),#742,.T.);
#722 = FACE_BOUND('',#723,.T.);
#723 = EDGE_LOOP('',(#724,#733,#734,#735));
#724 = ORIENTED_EDGE('',*,*,#725,.T.);
#725 = EDGE_CURVE('',#726,#692,#728,.T.);
#726 = VERTEX_POINT('',#727);
#727 = CARTESIAN_POINT('',(0.810988941738,-6.382143572275,
    -1.110223024625E-15));
#728 = CIRCLE('',#729,3.95);
#729 = AXIS2_PLACEMENT_3D('',#730,#731,#732);
#730 = CARTESIAN_POINT('',(3.35,-3.356268021955,1.110223024625E-16));
#731 = DIRECTION('',(4.440892098501E-16,-1.479114197289E-31,-1.));
#732 = DIRECTION('',(-0.642787609687,-0.766044443119,-2.854550416872E-16
    ));
#733 = ORIENTED_EDGE('',*,*,#710,.F.);
#734 = ORIENTED_EDGE('',*,*,#599,.F.);
#735 = ORIENTED_EDGE('',*,*,#736,.T.);
#736 = EDGE_CURVE('',#600,#726,#737,.T.);
#737 = CIRCLE('',#738,0.2);
#738 = AXIS2_PLACEMENT_3D('',#739,#740,#741);
#739 = CARTESIAN_POINT('',(0.810988941738,-6.382143572275,0.2));
#740 = DIRECTION('',(-0.766044443119,0.642787609687,-3.401920714545E-16)
  );
#741 = DIRECTION('',(0.642787609687,0.766044443119,2.854550416869E-16));
#742 = TOROIDAL_SURFACE('',#743,3.95,0.2);
#743 = AXIS2_PLACEMENT_3D('',#744,#745,#746);
#744 = CARTESIAN_POINT('',(3.35,-3.356268021955,0.2));
#745 = DIRECTION('',(-4.440892098501E-16,9.860761315263E-32,1.));
#746 = DIRECTION('',(-0.642787609687,-0.766044443119,-2.854550416872E-16
    ));
#747 = ADVANCED_FACE('',(#748),#768,.T.);
#748 = FACE_BOUND('',#749,.T.);
#749 = EDGE_LOOP('',(#750,#759,#766,#767));
#750 = ORIENTED_EDGE('',*,*,#751,.T.);
#751 = EDGE_CURVE('',#694,#752,#754,.T.);
#752 = VERTEX_POINT('',#753);
#753 = CARTESIAN_POINT('',(-0.21747123376,-7.607814681265,
    -1.554312234475E-15));
#754 = CIRCLE('',#755,5.55);
#755 = AXIS2_PLACEMENT_3D('',#756,#757,#758);
#756 = CARTESIAN_POINT('',(3.35,-3.356268021955,1.110223024625E-16));
#757 = DIRECTION('',(-4.440892098501E-16,9.860761315263E-32,1.));
#758 = DIRECTION('',(-0.642787609687,0.766044443119,-2.854550416872E-16)
  );
#759 = ORIENTED_EDGE('',*,*,#760,.F.);
#760 = EDGE_CURVE('',#625,#752,#761,.T.);
#761 = CIRCLE('',#762,0.2);
#762 = AXIS2_PLACEMENT_3D('',#763,#764,#765);
#763 = CARTESIAN_POINT('',(-0.21747123376,-7.607814681265,0.2));
#764 = DIRECTION('',(0.766044443119,-0.642787609687,3.401920714545E-16)
  );
#765 = DIRECTION('',(-0.642787609687,-0.766044443119,-2.854550416869E-16
    ));
#766 = ORIENTED_EDGE('',*,*,#624,.F.);
#767 = ORIENTED_EDGE('',*,*,#702,.T.);
#768 = TOROIDAL_SURFACE('',#769,5.55,0.2);
#769 = AXIS2_PLACEMENT_3D('',#770,#771,#772);
#770 = CARTESIAN_POINT('',(3.35,-3.356268021955,0.2));
#771 = DIRECTION('',(4.440892098501E-16,-9.860761315263E-32,-1.));
#772 = DIRECTION('',(-0.642787609687,0.766044443119,-2.854550416872E-16)
  );
#773 = ADVANCED_FACE('',(#774),#786,.T.);
#774 = FACE_BOUND('',#775,.T.);
#775 = EDGE_LOOP('',(#776,#783,#784,#785));
#776 = ORIENTED_EDGE('',*,*,#777,.T.);
#777 = EDGE_CURVE('',#752,#726,#778,.T.);
#778 = CIRCLE('',#779,0.8);
#779 = AXIS2_PLACEMENT_3D('',#780,#781,#782);
#780 = CARTESIAN_POINT('',(0.296758853989,-6.99497912677,
    -1.110223024625E-15));
#781 = DIRECTION('',(-4.440892098501E-16,1.479114197289E-31,1.));
#782 = DIRECTION('',(-0.642787609687,-0.766044443119,-2.854550416872E-16
    ));
#783 = ORIENTED_EDGE('',*,*,#736,.F.);
#784 = ORIENTED_EDGE('',*,*,#649,.F.);
#785 = ORIENTED_EDGE('',*,*,#760,.T.);
#786 = TOROIDAL_SURFACE('',#787,0.8,0.2);
#787 = AXIS2_PLACEMENT_3D('',#788,#789,#790);
#788 = CARTESIAN_POINT('',(0.296758853989,-6.99497912677,0.2));
#789 = DIRECTION('',(4.440892098501E-16,-9.860761315263E-32,-1.));
#790 = DIRECTION('',(-0.642787609687,-0.766044443119,-2.854550416872E-16
    ));
#791 = ADVANCED_FACE('',(#792),#812,.T.);
#792 = FACE_BOUND('',#793,.T.);
#793 = EDGE_LOOP('',(#794,#803,#810,#811));
#794 = ORIENTED_EDGE('',*,*,#795,.T.);
#795 = EDGE_CURVE('',#796,#796,#798,.T.);
#796 = VERTEX_POINT('',#797);
#797 = CARTESIAN_POINT('',(3.35,4.643731978045,10.000000000002));
#798 = CIRCLE('',#799,8.);
#799 = AXIS2_PLACEMENT_3D('',#800,#801,#802);
#800 = CARTESIAN_POINT('',(3.35,-3.356268021955,10.000000000002));
#801 = DIRECTION('',(1.554312234475E-15,-3.451266460342E-31,-1.));
#802 = DIRECTION('',(2.22044604925E-16,1.,-1.046594790543E-43));
#803 = ORIENTED_EDGE('',*,*,#804,.F.);
#804 = EDGE_CURVE('',#667,#796,#805,.T.);
#805 = CIRCLE('',#806,0.5);
#806 = AXIS2_PLACEMENT_3D('',#807,#808,#809);
#807 = CARTESIAN_POINT('',(3.35,4.643731978045,9.500000000002));
#808 = DIRECTION('',(1.,-2.22044604925E-16,1.554312234475E-15));
#809 = DIRECTION('',(2.22044604925E-16,1.,0.));
#810 = ORIENTED_EDGE('',*,*,#666,.F.);
#811 = ORIENTED_EDGE('',*,*,#804,.T.);
#812 = TOROIDAL_SURFACE('',#813,8.,0.5);
#813 = AXIS2_PLACEMENT_3D('',#814,#815,#816);
#814 = CARTESIAN_POINT('',(3.35,-3.356268021955,9.500000000002));
#815 = DIRECTION('',(-1.554312234475E-15,3.451266460342E-31,1.));
#816 = DIRECTION('',(2.22044604925E-16,1.,-1.046594790543E-43));
#817 = ADVANCED_FACE('',(#818,#824,#835,#846),#857,.T.);
#818 = FACE_BOUND('',#819,.T.);
#819 = EDGE_LOOP('',(#820,#821,#822,#823));
#820 = ORIENTED_EDGE('',*,*,#691,.F.);
#821 = ORIENTED_EDGE('',*,*,#725,.F.);
#822 = ORIENTED_EDGE('',*,*,#777,.F.);
#823 = ORIENTED_EDGE('',*,*,#751,.F.);
#824 = FACE_BOUND('',#825,.T.);
#825 = EDGE_LOOP('',(#826));
#826 = ORIENTED_EDGE('',*,*,#827,.T.);
#827 = EDGE_CURVE('',#828,#828,#830,.T.);
#828 = VERTEX_POINT('',#829);
#829 = CARTESIAN_POINT('',(-1.753553390593,-3.002714631362,
    -1.998401444325E-15));
#830 = CIRCLE('',#831,0.5);
#831 = AXIS2_PLACEMENT_3D('',#832,#833,#834);
#832 = CARTESIAN_POINT('',(-1.4,-3.356268021955,-1.998401444325E-15));
#833 = DIRECTION('',(-8.881784197001E-16,1.479114197289E-31,1.));
#834 = DIRECTION('',(-0.707106781187,0.707106781187,-6.280369834735E-16)
  );
#835 = FACE_BOUND('',#836,.T.);
#836 = EDGE_LOOP('',(#837));
#837 = ORIENTED_EDGE('',*,*,#838,.T.);
#838 = EDGE_CURVE('',#839,#839,#841,.T.);
#839 = VERTEX_POINT('',#840);
#840 = CARTESIAN_POINT('',(-0.508757210636,-6.715025232591,
    -1.7763568394E-15));
#841 = CIRCLE('',#842,0.5);
#842 = AXIS2_PLACEMENT_3D('',#843,#844,#845);
#843 = CARTESIAN_POINT('',(-8.757210635954E-03,-6.715025232591,
    -1.33226762955E-15));
#844 = DIRECTION('',(-8.881784197001E-16,1.972152263053E-31,1.));
#845 = DIRECTION('',(-1.,3.330669073875E-16,-8.881784197001E-16));
#846 = FACE_BOUND('',#847,.T.);
#847 = EDGE_LOOP('',(#848));
#848 = ORIENTED_EDGE('',*,*,#849,.T.);
#849 = EDGE_CURVE('',#850,#850,#852,.T.);
#850 = VERTEX_POINT('',#851);
#851 = CARTESIAN_POINT('',(-8.757210635954E-03,0.502489188681,
    -1.33226762955E-15));
#852 = CIRCLE('',#853,0.5);
#853 = AXIS2_PLACEMENT_3D('',#854,#855,#856);
#854 = CARTESIAN_POINT('',(-8.757210635954E-03,2.489188680545E-03,
    -1.33226762955E-15));
#855 = DIRECTION('',(-8.881784197001E-16,1.972152263053E-31,1.));
#856 = DIRECTION('',(2.22044604925E-16,1.,-8.044328996765E-44));
#857 = PLANE('',#858);
#858 = AXIS2_PLACEMENT_3D('',#859,#860,#861);
#859 = CARTESIAN_POINT('',(-0.446006561883,-3.356268021955,
    -1.554312234475E-15));
#860 = DIRECTION('',(4.440892098501E-16,-9.860761315263E-32,-1.));
#861 = DIRECTION('',(-2.22044604925E-16,-1.,9.130335306616E-45));
#862 = ADVANCED_FACE('',(#863,#866),#877,.F.);
#863 = FACE_BOUND('',#864,.F.);
#864 = EDGE_LOOP('',(#865));
#865 = ORIENTED_EDGE('',*,*,#795,.T.);
#866 = FACE_BOUND('',#867,.F.);
#867 = EDGE_LOOP('',(#868));
#868 = ORIENTED_EDGE('',*,*,#869,.F.);
#869 = EDGE_CURVE('',#870,#870,#872,.T.);
#870 = VERTEX_POINT('',#871);
#871 = CARTESIAN_POINT('',(3.35,2.143731978036,10.000000000002));
#872 = CIRCLE('',#873,5.499999999991);
#873 = AXIS2_PLACEMENT_3D('',#874,#875,#876);
#874 = CARTESIAN_POINT('',(3.35,-3.356268021955,10.000000000002));
#875 = DIRECTION('',(1.554312234475E-15,-3.451266460342E-31,-1.));
#876 = DIRECTION('',(2.22044604925E-16,1.,-1.046594790543E-43));
#877 = PLANE('',#878);
#878 = AXIS2_PLACEMENT_3D('',#879,#880,#881);
#879 = CARTESIAN_POINT('',(3.35,-3.356268021955,10.000000000002));
#880 = DIRECTION('',(1.554312234475E-15,-3.451266460342E-31,-1.));
#881 = DIRECTION('',(2.22044604925E-16,1.,-1.046594790543E-43));
#882 = ADVANCED_FACE('',(#883),#902,.T.);
#883 = FACE_BOUND('',#884,.T.);
#884 = EDGE_LOOP('',(#885,#893,#894,#895));
#885 = ORIENTED_EDGE('',*,*,#886,.F.);
#886 = EDGE_CURVE('',#828,#887,#889,.T.);
#887 = VERTEX_POINT('',#888);
#888 = CARTESIAN_POINT('',(-1.753553390593,-3.002714631362,-7.2));
#889 = LINE('',#890,#891);
#890 = CARTESIAN_POINT('',(-1.753553390593,-3.002714631362,1.));
#891 = VECTOR('',#892,1.);
#892 = DIRECTION('',(8.881784197001E-16,0.,-1.));
#893 = ORIENTED_EDGE('',*,*,#827,.F.);
#894 = ORIENTED_EDGE('',*,*,#886,.T.);
#895 = ORIENTED_EDGE('',*,*,#896,.T.);
#896 = EDGE_CURVE('',#887,#887,#897,.T.);
#897 = CIRCLE('',#898,0.5);
#898 = AXIS2_PLACEMENT_3D('',#899,#900,#901);
#899 = CARTESIAN_POINT('',(-1.4,-3.356268021955,-7.2));
#900 = DIRECTION('',(-8.881784197001E-16,1.479114197289E-31,1.));
#901 = DIRECTION('',(-0.707106781187,0.707106781187,-6.280369834735E-16)
  );
#902 = CYLINDRICAL_SURFACE('',#903,0.5);
#903 = AXIS2_PLACEMENT_3D('',#904,#905,#906);
#904 = CARTESIAN_POINT('',(-1.4,-3.356268021955,1.));
#905 = DIRECTION('',(-8.881784197001E-16,0.,1.));
#906 = DIRECTION('',(-0.707106781187,0.707106781187,-6.280369834735E-16)
  );
#907 = ADVANCED_FACE('',(#908),#927,.T.);
#908 = FACE_BOUND('',#909,.T.);
#909 = EDGE_LOOP('',(#910,#918,#919,#920));
#910 = ORIENTED_EDGE('',*,*,#911,.F.);
#911 = EDGE_CURVE('',#839,#912,#914,.T.);
#912 = VERTEX_POINT('',#913);
#913 = CARTESIAN_POINT('',(-0.508757210636,-6.715025232591,-7.2));
#914 = LINE('',#915,#916);
#915 = CARTESIAN_POINT('',(-0.508757210636,-6.715025232591,1.));
#916 = VECTOR('',#917,1.);
#917 = DIRECTION('',(8.881784197001E-16,-1.479114197289E-31,-1.));
#918 = ORIENTED_EDGE('',*,*,#838,.F.);
#919 = ORIENTED_EDGE('',*,*,#911,.T.);
#920 = ORIENTED_EDGE('',*,*,#921,.T.);
#921 = EDGE_CURVE('',#912,#912,#922,.T.);
#922 = CIRCLE('',#923,0.5);
#923 = AXIS2_PLACEMENT_3D('',#924,#925,#926);
#924 = CARTESIAN_POINT('',(-8.757210635954E-03,-6.715025232591,-7.2));
#925 = DIRECTION('',(-8.881784197001E-16,1.972152263053E-31,1.));
#926 = DIRECTION('',(-1.,2.22044604925E-16,-8.881784197001E-16));
#927 = CYLINDRICAL_SURFACE('',#928,0.5);
#928 = AXIS2_PLACEMENT_3D('',#929,#930,#931);
#929 = CARTESIAN_POINT('',(-8.757210635954E-03,-6.715025232591,1.));
#930 = DIRECTION('',(-8.881784197001E-16,1.479114197289E-31,1.));
#931 = DIRECTION('',(-1.,3.330669073875E-16,-8.881784197001E-16));
#932 = ADVANCED_FACE('',(#933),#952,.T.);
#933 = FACE_BOUND('',#934,.T.);
#934 = EDGE_LOOP('',(#935,#943,#944,#945));
#935 = ORIENTED_EDGE('',*,*,#936,.F.);
#936 = EDGE_CURVE('',#850,#937,#939,.T.);
#937 = VERTEX_POINT('',#938);
#938 = CARTESIAN_POINT('',(-8.757210635954E-03,0.502489188681,-7.2));
#939 = LINE('',#940,#941);
#940 = CARTESIAN_POINT('',(-8.757210635954E-03,0.502489188681,1.));
#941 = VECTOR('',#942,1.);
#942 = DIRECTION('',(8.881784197001E-16,-1.972152263053E-31,-1.));
#943 = ORIENTED_EDGE('',*,*,#849,.F.);
#944 = ORIENTED_EDGE('',*,*,#936,.T.);
#945 = ORIENTED_EDGE('',*,*,#946,.T.);
#946 = EDGE_CURVE('',#937,#937,#947,.T.);
#947 = CIRCLE('',#948,0.5);
#948 = AXIS2_PLACEMENT_3D('',#949,#950,#951);
#949 = CARTESIAN_POINT('',(-8.757210635954E-03,2.489188680545E-03,-7.2)
  );
#950 = DIRECTION('',(-8.881784197001E-16,1.972152263053E-31,1.));
#951 = DIRECTION('',(2.22044604925E-16,1.,-8.044328996765E-44));
#952 = CYLINDRICAL_SURFACE('',#953,0.5);
#953 = AXIS2_PLACEMENT_3D('',#954,#955,#956);
#954 = CARTESIAN_POINT('',(-8.757210635954E-03,2.489188680545E-03,1.));
#955 = DIRECTION('',(-8.881784197001E-16,1.972152263053E-31,1.));
#956 = DIRECTION('',(2.22044604925E-16,1.,-8.044328996765E-44));
#957 = ADVANCED_FACE('',(#958),#971,.T.);
#958 = FACE_BOUND('',#959,.T.);
#959 = EDGE_LOOP('',(#960,#969,#970));
#960 = ORIENTED_EDGE('',*,*,#961,.T.);
#961 = EDGE_CURVE('',#870,#962,#964,.T.);
#962 = VERTEX_POINT('',#963);
#963 = CARTESIAN_POINT('',(3.35,-3.356268021955,11.));
#964 = CIRCLE('',#965,15.624999999987);
#965 = AXIS2_PLACEMENT_3D('',#966,#967,#968);
#966 = CARTESIAN_POINT('',(3.35,-3.356268021955,-4.624999999987));
#967 = DIRECTION('',(1.,-2.22044604925E-16,1.554312234475E-15));
#968 = DIRECTION('',(2.22044604925E-16,1.,0.));
#969 = ORIENTED_EDGE('',*,*,#961,.F.);
#970 = ORIENTED_EDGE('',*,*,#869,.F.);
#971 = SPHERICAL_SURFACE('',#972,15.624999999987);
#972 = AXIS2_PLACEMENT_3D('',#973,#974,#975);
#973 = CARTESIAN_POINT('',(3.35,-3.356268021955,-4.624999999987));
#974 = DIRECTION('',(-1.554312234475E-15,3.451266460342E-31,1.));
#975 = DIRECTION('',(2.22044604925E-16,1.,-1.046594790543E-43));
#976 = ADVANCED_FACE('',(#977),#996,.T.);
#977 = FACE_BOUND('',#978,.T.);
#978 = EDGE_LOOP('',(#979,#988,#994,#995));
#979 = ORIENTED_EDGE('',*,*,#980,.T.);
#980 = EDGE_CURVE('',#981,#981,#983,.T.);
#981 = VERTEX_POINT('',#982);
#982 = CARTESIAN_POINT('',(-1.541421356237,-3.214846665718,-7.5));
#983 = CIRCLE('',#984,0.2);
#984 = AXIS2_PLACEMENT_3D('',#985,#986,#987);
#985 = CARTESIAN_POINT('',(-1.4,-3.356268021955,-7.5));
#986 = DIRECTION('',(-8.881784197001E-16,1.479114197289E-31,1.));
#987 = DIRECTION('',(-0.707106781187,0.707106781187,-6.280369834735E-16)
  );
#988 = ORIENTED_EDGE('',*,*,#989,.F.);
#989 = EDGE_CURVE('',#887,#981,#990,.T.);
#990 = LINE('',#991,#992);
#991 = CARTESIAN_POINT('',(-1.753553390593,-3.002714631362,-7.2));
#992 = VECTOR('',#993,1.);
#993 = DIRECTION('',(0.5,-0.5,-0.707106781187));
#994 = ORIENTED_EDGE('',*,*,#896,.F.);
#995 = ORIENTED_EDGE('',*,*,#989,.T.);
#996 = CONICAL_SURFACE('',#997,0.5,0.785398163397);
#997 = AXIS2_PLACEMENT_3D('',#998,#999,#1000);
#998 = CARTESIAN_POINT('',(-1.4,-3.356268021955,-7.2));
#999 = DIRECTION('',(-8.881784197001E-16,1.972152263053E-31,1.));
#1000 = DIRECTION('',(-0.707106781187,0.707106781187,-6.280369834735E-16
    ));
#1001 = ADVANCED_FACE('',(#1002),#1021,.T.);
#1002 = FACE_BOUND('',#1003,.T.);
#1003 = EDGE_LOOP('',(#1004,#1013,#1019,#1020));
#1004 = ORIENTED_EDGE('',*,*,#1005,.T.);
#1005 = EDGE_CURVE('',#1006,#1006,#1008,.T.);
#1006 = VERTEX_POINT('',#1007);
#1007 = CARTESIAN_POINT('',(-0.208757210636,-6.715025232591,-7.5));
#1008 = CIRCLE('',#1009,0.2);
#1009 = AXIS2_PLACEMENT_3D('',#1010,#1011,#1012);
#1010 = CARTESIAN_POINT('',(-8.757210635954E-03,-6.715025232591,-7.5));
#1011 = DIRECTION('',(-8.881784197001E-16,1.972152263053E-31,1.));
#1012 = DIRECTION('',(-1.,2.22044604925E-16,-8.881784197001E-16));
#1013 = ORIENTED_EDGE('',*,*,#1014,.F.);
#1014 = EDGE_CURVE('',#912,#1006,#1015,.T.);
#1015 = LINE('',#1016,#1017);
#1016 = CARTESIAN_POINT('',(-0.508757210636,-6.715025232591,-7.2));
#1017 = VECTOR('',#1018,1.);
#1018 = DIRECTION('',(0.707106781187,-1.570092458682E-16,-0.707106781187
    ));
#1019 = ORIENTED_EDGE('',*,*,#921,.F.);
#1020 = ORIENTED_EDGE('',*,*,#1014,.T.);
#1021 = CONICAL_SURFACE('',#1022,0.5,0.785398163397);
#1022 = AXIS2_PLACEMENT_3D('',#1023,#1024,#1025);
#1023 = CARTESIAN_POINT('',(-8.757210635954E-03,-6.715025232591,-7.2));
#1024 = DIRECTION('',(-8.881784197001E-16,1.972152263053E-31,1.));
#1025 = DIRECTION('',(-1.,2.22044604925E-16,-8.881784197001E-16));
#1026 = ADVANCED_FACE('',(#1027),#1046,.T.);
#1027 = FACE_BOUND('',#1028,.T.);
#1028 = EDGE_LOOP('',(#1029,#1038,#1044,#1045));
#1029 = ORIENTED_EDGE('',*,*,#1030,.T.);
#1030 = EDGE_CURVE('',#1031,#1031,#1033,.T.);
#1031 = VERTEX_POINT('',#1032);
#1032 = CARTESIAN_POINT('',(-8.757210635954E-03,0.202489188681,-7.5));
#1033 = CIRCLE('',#1034,0.2);
#1034 = AXIS2_PLACEMENT_3D('',#1035,#1036,#1037);
#1035 = CARTESIAN_POINT('',(-8.757210635954E-03,2.489188680545E-03,-7.5)
  );
#1036 = DIRECTION('',(-8.881784197001E-16,1.972152263053E-31,1.));
#1037 = DIRECTION('',(2.22044604925E-16,1.,-8.044328996765E-44));
#1038 = ORIENTED_EDGE('',*,*,#1039,.F.);
#1039 = EDGE_CURVE('',#937,#1031,#1040,.T.);
#1040 = LINE('',#1041,#1042);
#1041 = CARTESIAN_POINT('',(-8.757210635954E-03,0.502489188681,-7.2));
#1042 = VECTOR('',#1043,1.);
#1043 = DIRECTION('',(4.710277376045E-16,-0.707106781187,-0.707106781187
    ));
#1044 = ORIENTED_EDGE('',*,*,#946,.F.);
#1045 = ORIENTED_EDGE('',*,*,#1039,.T.);
#1046 = CONICAL_SURFACE('',#1047,0.5,0.785398163397);
#1047 = AXIS2_PLACEMENT_3D('',#1048,#1049,#1050);
#1048 = CARTESIAN_POINT('',(-8.757210635954E-03,2.489188680545E-03,-7.2)
  );
#1049 = DIRECTION('',(-8.881784197001E-16,1.972152263053E-31,1.));
#1050 = DIRECTION('',(2.22044604925E-16,1.,-8.044328996765E-44));
#1051 = ADVANCED_FACE('',(#1052),#1055,.F.);
#1052 = FACE_BOUND('',#1053,.F.);
#1053 = EDGE_LOOP('',(#1054));
#1054 = ORIENTED_EDGE('',*,*,#980,.T.);
#1055 = PLANE('',#1056);
#1056 = AXIS2_PLACEMENT_3D('',#1057,#1058,#1059);
#1057 = CARTESIAN_POINT('',(-1.4,-3.356268021955,-7.5));
#1058 = DIRECTION('',(-8.881784197001E-16,4.930380657631E-32,1.));
#1059 = DIRECTION('',(-0.707106781187,0.707106781187,-6.280369834735E-16
    ));
#1060 = ADVANCED_FACE('',(#1061),#1064,.F.);
#1061 = FACE_BOUND('',#1062,.F.);
#1062 = EDGE_LOOP('',(#1063));
#1063 = ORIENTED_EDGE('',*,*,#1005,.T.);
#1064 = PLANE('',#1065);
#1065 = AXIS2_PLACEMENT_3D('',#1066,#1067,#1068);
#1066 = CARTESIAN_POINT('',(-8.757210635954E-03,-6.715025232591,-7.5));
#1067 = DIRECTION('',(-8.881784197001E-16,1.479114197289E-31,1.));
#1068 = DIRECTION('',(-1.,3.330669073875E-16,-8.881784197001E-16));
#1069 = ADVANCED_FACE('',(#1070),#1073,.F.);
#1070 = FACE_BOUND('',#1071,.F.);
#1071 = EDGE_LOOP('',(#1072));
#1072 = ORIENTED_EDGE('',*,*,#1030,.T.);
#1073 = PLANE('',#1074);
#1074 = AXIS2_PLACEMENT_3D('',#1075,#1076,#1077);
#1075 = CARTESIAN_POINT('',(-8.757210635954E-03,2.489188680545E-03,-7.5)
  );
#1076 = DIRECTION('',(-8.881784197001E-16,1.972152263053E-31,1.));
#1077 = DIRECTION('',(2.22044604925E-16,1.,-8.044328996765E-44));
#1078 = ( GEOMETRIC_REPRESENTATION_CONTEXT(3) 
GLOBAL_UNCERTAINTY_ASSIGNED_CONTEXT((#1082)) 
GLOBAL_UNIT_ASSIGNED_CONTEXT((#1079,#1080,#1081)) REPRESENTATION_CONTEXT
('Context #1','3D Context with UNIT and UNCERTAINTY') );
#1079 = ( LENGTH_UNIT() NAMED_UNIT(*) SI_UNIT(.MILLI.,.METRE.) );
#1080 = ( NAMED_UNIT(*) PLANE_ANGLE_UNIT() SI_UNIT($,.RADIAN.) );
#1081 = ( NAMED_UNIT(*) SI_UNIT($,.STERADIAN.) SOLID_ANGLE_UNIT() );
#1082 = UNCERTAINTY_MEASURE_WITH_UNIT(LENGTH_MEASURE(1.E-07),#1079,
  'distance_accuracy_value','confusion accuracy');
#1083 = PRODUCT_RELATED_PRODUCT_CATEGORY('part',$,(#7));
#1084 = MECHANICAL_DESIGN_GEOMETRIC_PRESENTATION_REPRESENTATION('',(
    #1085,#1093,#1100,#1107,#1114,#1121,#1129,#1136,#1143,#1150,#1157,
    #1164,#1171,#1178,#1185,#1192,#1200,#1207,#1214,#1221,#1228,#1235,
    #1242,#1249,#1256,#1263,#1270,#1277,#1284,#1291,#1298,#1305,#1312,
    #1319,#1326,#1333,#1341,#1348,#1355,#1362,#1369,#1376),#1078);
#1085 = STYLED_ITEM('color',(#1086),#17);
#1086 = PRESENTATION_STYLE_ASSIGNMENT((#1087));
#1087 = SURFACE_STYLE_USAGE(.BOTH.,#1088);
#1088 = SURFACE_SIDE_STYLE('',(#1089));
#1089 = SURFACE_STYLE_FILL_AREA(#1090);
#1090 = FILL_AREA_STYLE('',(#1091));
#1091 = FILL_AREA_STYLE_COLOUR('',#1092);
#1092 = COLOUR_RGB('',0.809000015259,0.425999999046,0.148000001907);
#1093 = STYLED_ITEM('color',(#1094),#94);
#1094 = PRESENTATION_STYLE_ASSIGNMENT((#1095));
#1095 = SURFACE_STYLE_USAGE(.BOTH.,#1096);
#1096 = SURFACE_SIDE_STYLE('',(#1097));
#1097 = SURFACE_STYLE_FILL_AREA(#1098);
#1098 = FILL_AREA_STYLE('',(#1099));
#1099 = FILL_AREA_STYLE_COLOUR('',#1092);
#1100 = STYLED_ITEM('color',(#1101),#128);
#1101 = PRESENTATION_STYLE_ASSIGNMENT((#1102));
#1102 = SURFACE_STYLE_USAGE(.BOTH.,#1103);
#1103 = SURFACE_SIDE_STYLE('',(#1104));
#1104 = SURFACE_STYLE_FILL_AREA(#1105);
#1105 = FILL_AREA_STYLE('',(#1106));
#1106 = FILL_AREA_STYLE_COLOUR('',#1092);
#1107 = STYLED_ITEM('color',(#1108),#154);
#1108 = PRESENTATION_STYLE_ASSIGNMENT((#1109));
#1109 = SURFACE_STYLE_USAGE(.BOTH.,#1110);
#1110 = SURFACE_SIDE_STYLE('',(#1111));
#1111 = SURFACE_STYLE_FILL_AREA(#1112);
#1112 = FILL_AREA_STYLE('',(#1113));
#1113 = FILL_AREA_STYLE_COLOUR('',#1092);
#1114 = STYLED_ITEM('color',(#1115),#180);
#1115 = PRESENTATION_STYLE_ASSIGNMENT((#1116));
#1116 = SURFACE_STYLE_USAGE(.BOTH.,#1117);
#1117 = SURFACE_SIDE_STYLE('',(#1118));
#1118 = SURFACE_STYLE_FILL_AREA(#1119);
#1119 = FILL_AREA_STYLE('',(#1120));
#1120 = FILL_AREA_STYLE_COLOUR('',#1092);
#1121 = STYLED_ITEM('color',(#1122),#198);
#1122 = PRESENTATION_STYLE_ASSIGNMENT((#1123));
#1123 = SURFACE_STYLE_USAGE(.BOTH.,#1124);
#1124 = SURFACE_SIDE_STYLE('',(#1125));
#1125 = SURFACE_STYLE_FILL_AREA(#1126);
#1126 = FILL_AREA_STYLE('',(#1127));
#1127 = FILL_AREA_STYLE_COLOUR('',#1128);
#1128 = COLOUR_RGB('',0.85900002718,0.737999975681,0.495999991894);
#1129 = STYLED_ITEM('color',(#1130),#223);
#1130 = PRESENTATION_STYLE_ASSIGNMENT((#1131));
#1131 = SURFACE_STYLE_USAGE(.BOTH.,#1132);
#1132 = SURFACE_SIDE_STYLE('',(#1133));
#1133 = SURFACE_STYLE_FILL_AREA(#1134);
#1134 = FILL_AREA_STYLE('',(#1135));
#1135 = FILL_AREA_STYLE_COLOUR('',#1128);
#1136 = STYLED_ITEM('color',(#1137),#248);
#1137 = PRESENTATION_STYLE_ASSIGNMENT((#1138));
#1138 = SURFACE_STYLE_USAGE(.BOTH.,#1139);
#1139 = SURFACE_SIDE_STYLE('',(#1140));
#1140 = SURFACE_STYLE_FILL_AREA(#1141);
#1141 = FILL_AREA_STYLE('',(#1142));
#1142 = FILL_AREA_STYLE_COLOUR('',#1128);
#1143 = STYLED_ITEM('color',(#1144),#273);
#1144 = PRESENTATION_STYLE_ASSIGNMENT((#1145));
#1145 = SURFACE_STYLE_USAGE(.BOTH.,#1146);
#1146 = SURFACE_SIDE_STYLE('',(#1147));
#1147 = SURFACE_STYLE_FILL_AREA(#1148);
#1148 = FILL_AREA_STYLE('',(#1149));
#1149 = FILL_AREA_STYLE_COLOUR('',#1092);
#1150 = STYLED_ITEM('color',(#1151),#305);
#1151 = PRESENTATION_STYLE_ASSIGNMENT((#1152));
#1152 = SURFACE_STYLE_USAGE(.BOTH.,#1153);
#1153 = SURFACE_SIDE_STYLE('',(#1154));
#1154 = SURFACE_STYLE_FILL_AREA(#1155);
#1155 = FILL_AREA_STYLE('',(#1156));
#1156 = FILL_AREA_STYLE_COLOUR('',#1092);
#1157 = STYLED_ITEM('color',(#1158),#330);
#1158 = PRESENTATION_STYLE_ASSIGNMENT((#1159));
#1159 = SURFACE_STYLE_USAGE(.BOTH.,#1160);
#1160 = SURFACE_SIDE_STYLE('',(#1161));
#1161 = SURFACE_STYLE_FILL_AREA(#1162);
#1162 = FILL_AREA_STYLE('',(#1163));
#1163 = FILL_AREA_STYLE_COLOUR('',#1092);
#1164 = STYLED_ITEM('color',(#1165),#355);
#1165 = PRESENTATION_STYLE_ASSIGNMENT((#1166));
#1166 = SURFACE_STYLE_USAGE(.BOTH.,#1167);
#1167 = SURFACE_SIDE_STYLE('',(#1168));
#1168 = SURFACE_STYLE_FILL_AREA(#1169);
#1169 = FILL_AREA_STYLE('',(#1170));
#1170 = FILL_AREA_STYLE_COLOUR('',#1092);
#1171 = STYLED_ITEM('color',(#1172),#373);
#1172 = PRESENTATION_STYLE_ASSIGNMENT((#1173));
#1173 = SURFACE_STYLE_USAGE(.BOTH.,#1174);
#1174 = SURFACE_SIDE_STYLE('',(#1175));
#1175 = SURFACE_STYLE_FILL_AREA(#1176);
#1176 = FILL_AREA_STYLE('',(#1177));
#1177 = FILL_AREA_STYLE_COLOUR('',#1128);
#1178 = STYLED_ITEM('color',(#1179),#398);
#1179 = PRESENTATION_STYLE_ASSIGNMENT((#1180));
#1180 = SURFACE_STYLE_USAGE(.BOTH.,#1181);
#1181 = SURFACE_SIDE_STYLE('',(#1182));
#1182 = SURFACE_STYLE_FILL_AREA(#1183);
#1183 = FILL_AREA_STYLE('',(#1184));
#1184 = FILL_AREA_STYLE_COLOUR('',#1128);
#1185 = STYLED_ITEM('color',(#1186),#423);
#1186 = PRESENTATION_STYLE_ASSIGNMENT((#1187));
#1187 = SURFACE_STYLE_USAGE(.BOTH.,#1188);
#1188 = SURFACE_SIDE_STYLE('',(#1189));
#1189 = SURFACE_STYLE_FILL_AREA(#1190);
#1190 = FILL_AREA_STYLE('',(#1191));
#1191 = FILL_AREA_STYLE_COLOUR('',#1128);
#1192 = STYLED_ITEM('color',(#1193),#448);
#1193 = PRESENTATION_STYLE_ASSIGNMENT((#1194));
#1194 = SURFACE_STYLE_USAGE(.BOTH.,#1195);
#1195 = SURFACE_SIDE_STYLE('',(#1196));
#1196 = SURFACE_STYLE_FILL_AREA(#1197);
#1197 = FILL_AREA_STYLE('',(#1198));
#1198 = FILL_AREA_STYLE_COLOUR('',#1199);
#1199 = COLOUR_RGB('',0.273000001907,0.273000001907,0.273000001907);
#1200 = STYLED_ITEM('color',(#1201),#509);
#1201 = PRESENTATION_STYLE_ASSIGNMENT((#1202));
#1202 = SURFACE_STYLE_USAGE(.BOTH.,#1203);
#1203 = SURFACE_SIDE_STYLE('',(#1204));
#1204 = SURFACE_STYLE_FILL_AREA(#1205);
#1205 = FILL_AREA_STYLE('',(#1206));
#1206 = FILL_AREA_STYLE_COLOUR('',#1128);
#1207 = STYLED_ITEM('color',(#1208),#518);
#1208 = PRESENTATION_STYLE_ASSIGNMENT((#1209));
#1209 = SURFACE_STYLE_USAGE(.BOTH.,#1210);
#1210 = SURFACE_SIDE_STYLE('',(#1211));
#1211 = SURFACE_STYLE_FILL_AREA(#1212);
#1212 = FILL_AREA_STYLE('',(#1213));
#1213 = FILL_AREA_STYLE_COLOUR('',#1128);
#1214 = STYLED_ITEM('color',(#1215),#527);
#1215 = PRESENTATION_STYLE_ASSIGNMENT((#1216));
#1216 = SURFACE_STYLE_USAGE(.BOTH.,#1217);
#1217 = SURFACE_SIDE_STYLE('',(#1218));
#1218 = SURFACE_STYLE_FILL_AREA(#1219);
#1219 = FILL_AREA_STYLE('',(#1220));
#1220 = FILL_AREA_STYLE_COLOUR('',#1128);
#1221 = STYLED_ITEM('color',(#1222),#536);
#1222 = PRESENTATION_STYLE_ASSIGNMENT((#1223));
#1223 = SURFACE_STYLE_USAGE(.BOTH.,#1224);
#1224 = SURFACE_SIDE_STYLE('',(#1225));
#1225 = SURFACE_STYLE_FILL_AREA(#1226);
#1226 = FILL_AREA_STYLE('',(#1227));
#1227 = FILL_AREA_STYLE_COLOUR('',#1092);
#1228 = STYLED_ITEM('color',(#1229),#562);
#1229 = PRESENTATION_STYLE_ASSIGNMENT((#1230));
#1230 = SURFACE_STYLE_USAGE(.BOTH.,#1231);
#1231 = SURFACE_SIDE_STYLE('',(#1232));
#1232 = SURFACE_STYLE_FILL_AREA(#1233);
#1233 = FILL_AREA_STYLE('',(#1234));
#1234 = FILL_AREA_STYLE_COLOUR('',#1092);
#1235 = STYLED_ITEM('color',(#1236),#594);
#1236 = PRESENTATION_STYLE_ASSIGNMENT((#1237));
#1237 = SURFACE_STYLE_USAGE(.BOTH.,#1238);
#1238 = SURFACE_SIDE_STYLE('',(#1239));
#1239 = SURFACE_STYLE_FILL_AREA(#1240);
#1240 = FILL_AREA_STYLE('',(#1241));
#1241 = FILL_AREA_STYLE_COLOUR('',#1092);
#1242 = STYLED_ITEM('color',(#1243),#619);
#1243 = PRESENTATION_STYLE_ASSIGNMENT((#1244));
#1244 = SURFACE_STYLE_USAGE(.BOTH.,#1245);
#1245 = SURFACE_SIDE_STYLE('',(#1246));
#1246 = SURFACE_STYLE_FILL_AREA(#1247);
#1247 = FILL_AREA_STYLE('',(#1248));
#1248 = FILL_AREA_STYLE_COLOUR('',#1092);
#1249 = STYLED_ITEM('color',(#1250),#644);
#1250 = PRESENTATION_STYLE_ASSIGNMENT((#1251));
#1251 = SURFACE_STYLE_USAGE(.BOTH.,#1252);
#1252 = SURFACE_SIDE_STYLE('',(#1253));
#1253 = SURFACE_STYLE_FILL_AREA(#1254);
#1254 = FILL_AREA_STYLE('',(#1255));
#1255 = FILL_AREA_STYLE_COLOUR('',#1092);
#1256 = STYLED_ITEM('color',(#1257),#662);
#1257 = PRESENTATION_STYLE_ASSIGNMENT((#1258));
#1258 = SURFACE_STYLE_USAGE(.BOTH.,#1259);
#1259 = SURFACE_SIDE_STYLE('',(#1260));
#1260 = SURFACE_STYLE_FILL_AREA(#1261);
#1261 = FILL_AREA_STYLE('',(#1262));
#1262 = FILL_AREA_STYLE_COLOUR('',#1092);
#1263 = STYLED_ITEM('color',(#1264),#687);
#1264 = PRESENTATION_STYLE_ASSIGNMENT((#1265));
#1265 = SURFACE_STYLE_USAGE(.BOTH.,#1266);
#1266 = SURFACE_SIDE_STYLE('',(#1267));
#1267 = SURFACE_STYLE_FILL_AREA(#1268);
#1268 = FILL_AREA_STYLE('',(#1269));
#1269 = FILL_AREA_STYLE_COLOUR('',#1092);
#1270 = STYLED_ITEM('color',(#1271),#721);
#1271 = PRESENTATION_STYLE_ASSIGNMENT((#1272));
#1272 = SURFACE_STYLE_USAGE(.BOTH.,#1273);
#1273 = SURFACE_SIDE_STYLE('',(#1274));
#1274 = SURFACE_STYLE_FILL_AREA(#1275);
#1275 = FILL_AREA_STYLE('',(#1276));
#1276 = FILL_AREA_STYLE_COLOUR('',#1092);
#1277 = STYLED_ITEM('color',(#1278),#747);
#1278 = PRESENTATION_STYLE_ASSIGNMENT((#1279));
#1279 = SURFACE_STYLE_USAGE(.BOTH.,#1280);
#1280 = SURFACE_SIDE_STYLE('',(#1281));
#1281 = SURFACE_STYLE_FILL_AREA(#1282);
#1282 = FILL_AREA_STYLE('',(#1283));
#1283 = FILL_AREA_STYLE_COLOUR('',#1092);
#1284 = STYLED_ITEM('color',(#1285),#773);
#1285 = PRESENTATION_STYLE_ASSIGNMENT((#1286));
#1286 = SURFACE_STYLE_USAGE(.BOTH.,#1287);
#1287 = SURFACE_SIDE_STYLE('',(#1288));
#1288 = SURFACE_STYLE_FILL_AREA(#1289);
#1289 = FILL_AREA_STYLE('',(#1290));
#1290 = FILL_AREA_STYLE_COLOUR('',#1092);
#1291 = STYLED_ITEM('color',(#1292),#791);
#1292 = PRESENTATION_STYLE_ASSIGNMENT((#1293));
#1293 = SURFACE_STYLE_USAGE(.BOTH.,#1294);
#1294 = SURFACE_SIDE_STYLE('',(#1295));
#1295 = SURFACE_STYLE_FILL_AREA(#1296);
#1296 = FILL_AREA_STYLE('',(#1297));
#1297 = FILL_AREA_STYLE_COLOUR('',#1092);
#1298 = STYLED_ITEM('color',(#1299),#817);
#1299 = PRESENTATION_STYLE_ASSIGNMENT((#1300));
#1300 = SURFACE_STYLE_USAGE(.BOTH.,#1301);
#1301 = SURFACE_SIDE_STYLE('',(#1302));
#1302 = SURFACE_STYLE_FILL_AREA(#1303);
#1303 = FILL_AREA_STYLE('',(#1304));
#1304 = FILL_AREA_STYLE_COLOUR('',#1092);
#1305 = STYLED_ITEM('color',(#1306),#862);
#1306 = PRESENTATION_STYLE_ASSIGNMENT((#1307));
#1307 = SURFACE_STYLE_USAGE(.BOTH.,#1308);
#1308 = SURFACE_SIDE_STYLE('',(#1309));
#1309 = SURFACE_STYLE_FILL_AREA(#1310);
#1310 = FILL_AREA_STYLE('',(#1311));
#1311 = FILL_AREA_STYLE_COLOUR('',#1092);
#1312 = STYLED_ITEM('color',(#1313),#882);
#1313 = PRESENTATION_STYLE_ASSIGNMENT((#1314));
#1314 = SURFACE_STYLE_USAGE(.BOTH.,#1315);
#1315 = SURFACE_SIDE_STYLE('',(#1316));
#1316 = SURFACE_STYLE_FILL_AREA(#1317);
#1317 = FILL_AREA_STYLE('',(#1318));
#1318 = FILL_AREA_STYLE_COLOUR('',#1128);
#1319 = STYLED_ITEM('color',(#1320),#907);
#1320 = PRESENTATION_STYLE_ASSIGNMENT((#1321));
#1321 = SURFACE_STYLE_USAGE(.BOTH.,#1322);
#1322 = SURFACE_SIDE_STYLE('',(#1323));
#1323 = SURFACE_STYLE_FILL_AREA(#1324);
#1324 = FILL_AREA_STYLE('',(#1325));
#1325 = FILL_AREA_STYLE_COLOUR('',#1128);
#1326 = STYLED_ITEM('color',(#1327),#932);
#1327 = PRESENTATION_STYLE_ASSIGNMENT((#1328));
#1328 = SURFACE_STYLE_USAGE(.BOTH.,#1329);
#1329 = SURFACE_SIDE_STYLE('',(#1330));
#1330 = SURFACE_STYLE_FILL_AREA(#1331);
#1331 = FILL_AREA_STYLE('',(#1332));
#1332 = FILL_AREA_STYLE_COLOUR('',#1128);
#1333 = STYLED_ITEM('color',(#1334),#957);
#1334 = PRESENTATION_STYLE_ASSIGNMENT((#1335));
#1335 = SURFACE_STYLE_USAGE(.BOTH.,#1336);
#1336 = SURFACE_SIDE_STYLE('',(#1337));
#1337 = SURFACE_STYLE_FILL_AREA(#1338);
#1338 = FILL_AREA_STYLE('',(#1339));
#1339 = FILL_AREA_STYLE_COLOUR('',#1340);
#1340 = COLOUR_RGB('',0.815686285496,0.764705896378,0.678431391716);
#1341 = STYLED_ITEM('color',(#1342),#976);
#1342 = PRESENTATION_STYLE_ASSIGNMENT((#1343));
#1343 = SURFACE_STYLE_USAGE(.BOTH.,#1344);
#1344 = SURFACE_SIDE_STYLE('',(#1345));
#1345 = SURFACE_STYLE_FILL_AREA(#1346);
#1346 = FILL_AREA_STYLE('',(#1347));
#1347 = FILL_AREA_STYLE_COLOUR('',#1128);
#1348 = STYLED_ITEM('color',(#1349),#1001);
#1349 = PRESENTATION_STYLE_ASSIGNMENT((#1350));
#1350 = SURFACE_STYLE_USAGE(.BOTH.,#1351);
#1351 = SURFACE_SIDE_STYLE('',(#1352));
#1352 = SURFACE_STYLE_FILL_AREA(#1353);
#1353 = FILL_AREA_STYLE('',(#1354));
#1354 = FILL_AREA_STYLE_COLOUR('',#1128);
#1355 = STYLED_ITEM('color',(#1356),#1026);
#1356 = PRESENTATION_STYLE_ASSIGNMENT((#1357));
#1357 = SURFACE_STYLE_USAGE(.BOTH.,#1358);
#1358 = SURFACE_SIDE_STYLE('',(#1359));
#1359 = SURFACE_STYLE_FILL_AREA(#1360);
#1360 = FILL_AREA_STYLE('',(#1361));
#1361 = FILL_AREA_STYLE_COLOUR('',#1128);
#1362 = STYLED_ITEM('color',(#1363),#1051);
#1363 = PRESENTATION_STYLE_ASSIGNMENT((#1364));
#1364 = SURFACE_STYLE_USAGE(.BOTH.,#1365);
#1365 = SURFACE_SIDE_STYLE('',(#1366));
#1366 = SURFACE_STYLE_FILL_AREA(#1367);
#1367 = FILL_AREA_STYLE('',(#1368));
#1368 = FILL_AREA_STYLE_COLOUR('',#1128);
#1369 = STYLED_ITEM('color',(#1370),#1060);
#1370 = PRESENTATION_STYLE_ASSIGNMENT((#1371));
#1371 = SURFACE_STYLE_USAGE(.BOTH.,#1372);
#1372 = SURFACE_SIDE_STYLE('',(#1373));
#1373 = SURFACE_STYLE_FILL_AREA(#1374);
#1374 = FILL_AREA_STYLE('',(#1375));
#1375 = FILL_AREA_STYLE_COLOUR('',#1128);
#1376 = STYLED_ITEM('color',(#1377),#1069);
#1377 = PRESENTATION_STYLE_ASSIGNMENT((#1378));
#1378 = SURFACE_STYLE_USAGE(.BOTH.,#1379);
#1379 = SURFACE_SIDE_STYLE('',(#1380));
#1380 = SURFACE_STYLE_FILL_AREA(#1381);
#1381 = FILL_AREA_STYLE('',(#1382));
#1382 = FILL_AREA_STYLE_COLOUR('',#1128);
ENDSEC;
END-ISO-10303-21;
